%!PS-Adobe-3.0 EPSF-3.0
%%Creator: (MATLAB, The Mathworks, Inc. Version 9.5.0.1033004 \(R2018b\) Update 2. Operating System: Windows 10)
%%Title: C:/Users/super/Desktop/column/report/img/mu_an_ltr_u.eps
%%CreationDate: 2019-02-27T19:08:40
%%Pages: (atend)
%%BoundingBox: 0 0 420 315
%%LanguageLevel: 3
%%EndComments
%%BeginProlog
%%BeginResource: procset (Apache XML Graphics Std ProcSet) 1.2 0
%%Version: 1.2 0
%%Copyright: (Copyright 2001-2003,2010 The Apache Software Foundation. License terms: http://www.apache.org/licenses/LICENSE-2.0)
/bd{bind def}bind def
/ld{load def}bd
/GR/grestore ld
/GS/gsave ld
/RM/rmoveto ld
/C/curveto ld
/t/show ld
/L/lineto ld
/ML/setmiterlimit ld
/CT/concat ld
/f/fill ld
/N/newpath ld
/S/stroke ld
/CC/setcmykcolor ld
/A/ashow ld
/cp/closepath ld
/RC/setrgbcolor ld
/LJ/setlinejoin ld
/GC/setgray ld
/LW/setlinewidth ld
/M/moveto ld
/re {4 2 roll M
1 index 0 rlineto
0 exch rlineto
neg 0 rlineto
cp } bd
/_ctm matrix def
/_tm matrix def
/BT { _ctm currentmatrix pop matrix _tm copy pop 0 0 moveto } bd
/ET { _ctm setmatrix } bd
/iTm { _ctm setmatrix _tm concat } bd
/Tm { _tm astore pop iTm 0 0 moveto } bd
/ux 0.0 def
/uy 0.0 def
/F {
  /Tp exch def
  /Tf exch def
  Tf findfont Tp scalefont setfont
  /cf Tf def  /cs Tp def
} bd
/ULS {currentpoint /uy exch def /ux exch def} bd
/ULE {
  /Tcx currentpoint pop def
  gsave
  newpath
  cf findfont cs scalefont dup
  /FontMatrix get 0 get /Ts exch def /FontInfo get dup
  /UnderlinePosition get Ts mul /To exch def
  /UnderlineThickness get Ts mul /Tt exch def
  ux uy To add moveto  Tcx uy To add lineto
  Tt setlinewidth stroke
  grestore
} bd
/OLE {
  /Tcx currentpoint pop def
  gsave
  newpath
  cf findfont cs scalefont dup
  /FontMatrix get 0 get /Ts exch def /FontInfo get dup
  /UnderlinePosition get Ts mul /To exch def
  /UnderlineThickness get Ts mul /Tt exch def
  ux uy To add cs add moveto Tcx uy To add cs add lineto
  Tt setlinewidth stroke
  grestore
} bd
/SOE {
  /Tcx currentpoint pop def
  gsave
  newpath
  cf findfont cs scalefont dup
  /FontMatrix get 0 get /Ts exch def /FontInfo get dup
  /UnderlinePosition get Ts mul /To exch def
  /UnderlineThickness get Ts mul /Tt exch def
  ux uy To add cs 10 mul 26 idiv add moveto Tcx uy To add cs 10 mul 26 idiv add lineto
  Tt setlinewidth stroke
  grestore
} bd
/QT {
/Y22 exch store
/X22 exch store
/Y21 exch store
/X21 exch store
currentpoint
/Y21 load 2 mul add 3 div exch
/X21 load 2 mul add 3 div exch
/X21 load 2 mul /X22 load add 3 div
/Y21 load 2 mul /Y22 load add 3 div
/X22 load /Y22 load curveto
} bd
/SSPD {
dup length /d exch dict def
{
/v exch def
/k exch def
currentpagedevice k known {
/cpdv currentpagedevice k get def
v cpdv ne {
/upd false def
/nullv v type /nulltype eq def
/nullcpdv cpdv type /nulltype eq def
nullv nullcpdv or
{
/upd true def
} {
/sametype v type cpdv type eq def
sametype {
v type /arraytype eq {
/vlen v length def
/cpdvlen cpdv length def
vlen cpdvlen eq {
0 1 vlen 1 sub {
/i exch def
/obj v i get def
/cpdobj cpdv i get def
obj cpdobj ne {
/upd true def
exit
} if
} for
} {
/upd true def
} ifelse
} {
v type /dicttype eq {
v {
/dv exch def
/dk exch def
/cpddv cpdv dk get def
dv cpddv ne {
/upd true def
exit
} if
} forall
} {
/upd true def
} ifelse
} ifelse
} if
} ifelse
upd true eq {
d k v put
} if
} if
} if
} forall
d length 0 gt {
d setpagedevice
} if
} bd
/RE { % /NewFontName [NewEncodingArray] /FontName RE -
  findfont dup length dict begin
  {
    1 index /FID ne
    {def} {pop pop} ifelse
  } forall
  /Encoding exch def
  /FontName 1 index def
  currentdict definefont pop
  end
} bind def
%%EndResource
%%BeginResource: procset (Apache XML Graphics EPS ProcSet) 1.0 0
%%Version: 1.0 0
%%Copyright: (Copyright 2002-2003 The Apache Software Foundation. License terms: http://www.apache.org/licenses/LICENSE-2.0)
/BeginEPSF { %def
/b4_Inc_state save def         % Save state for cleanup
/dict_count countdictstack def % Count objects on dict stack
/op_count count 1 sub def      % Count objects on operand stack
userdict begin                 % Push userdict on dict stack
/showpage { } def              % Redefine showpage, { } = null proc
0 setgray 0 setlinecap         % Prepare graphics state
1 setlinewidth 0 setlinejoin
10 setmiterlimit [ ] 0 setdash newpath
/languagelevel where           % If level not equal to 1 then
{pop languagelevel             % set strokeadjust and
1 ne                           % overprint to their defaults.
{false setstrokeadjust false setoverprint
} if
} if
} bd
/EndEPSF { %def
count op_count sub {pop} repeat            % Clean up stacks
countdictstack dict_count sub {end} repeat
b4_Inc_state restore
} bd
%%EndResource
%FOPBeginFontDict
%%IncludeResource: font Courier-Oblique
%%IncludeResource: font Courier-BoldOblique
%%IncludeResource: font Courier-Bold
%%IncludeResource: font ZapfDingbats
%%IncludeResource: font Symbol
%%IncludeResource: font Helvetica
%%IncludeResource: font Helvetica-Oblique
%%IncludeResource: font Helvetica-Bold
%%IncludeResource: font Helvetica-BoldOblique
%%IncludeResource: font Times-Roman
%%IncludeResource: font Times-Italic
%%IncludeResource: font Times-Bold
%%IncludeResource: font Times-BoldItalic
%%IncludeResource: font Courier
%FOPEndFontDict
%%BeginResource: encoding WinAnsiEncoding
/WinAnsiEncoding [
/.notdef /.notdef /.notdef /.notdef /.notdef
/.notdef /.notdef /.notdef /.notdef /.notdef
/.notdef /.notdef /.notdef /.notdef /.notdef
/.notdef /.notdef /.notdef /.notdef /.notdef
/.notdef /.notdef /.notdef /.notdef /.notdef
/.notdef /.notdef /.notdef /.notdef /.notdef
/.notdef /.notdef /space /exclam /quotedbl
/numbersign /dollar /percent /ampersand /quotesingle
/parenleft /parenright /asterisk /plus /comma
/hyphen /period /slash /zero /one
/two /three /four /five /six
/seven /eight /nine /colon /semicolon
/less /equal /greater /question /at
/A /B /C /D /E
/F /G /H /I /J
/K /L /M /N /O
/P /Q /R /S /T
/U /V /W /X /Y
/Z /bracketleft /backslash /bracketright /asciicircum
/underscore /quoteleft /a /b /c
/d /e /f /g /h
/i /j /k /l /m
/n /o /p /q /r
/s /t /u /v /w
/x /y /z /braceleft /bar
/braceright /asciitilde /bullet /Euro /bullet
/quotesinglbase /florin /quotedblbase /ellipsis /dagger
/daggerdbl /circumflex /perthousand /Scaron /guilsinglleft
/OE /bullet /Zcaron /bullet /bullet
/quoteleft /quoteright /quotedblleft /quotedblright /bullet
/endash /emdash /asciitilde /trademark /scaron
/guilsinglright /oe /bullet /zcaron /Ydieresis
/space /exclamdown /cent /sterling /currency
/yen /brokenbar /section /dieresis /copyright
/ordfeminine /guillemotleft /logicalnot /sfthyphen /registered
/macron /degree /plusminus /twosuperior /threesuperior
/acute /mu /paragraph /middot /cedilla
/onesuperior /ordmasculine /guillemotright /onequarter /onehalf
/threequarters /questiondown /Agrave /Aacute /Acircumflex
/Atilde /Adieresis /Aring /AE /Ccedilla
/Egrave /Eacute /Ecircumflex /Edieresis /Igrave
/Iacute /Icircumflex /Idieresis /Eth /Ntilde
/Ograve /Oacute /Ocircumflex /Otilde /Odieresis
/multiply /Oslash /Ugrave /Uacute /Ucircumflex
/Udieresis /Yacute /Thorn /germandbls /agrave
/aacute /acircumflex /atilde /adieresis /aring
/ae /ccedilla /egrave /eacute /ecircumflex
/edieresis /igrave /iacute /icircumflex /idieresis
/eth /ntilde /ograve /oacute /ocircumflex
/otilde /odieresis /divide /oslash /ugrave
/uacute /ucircumflex /udieresis /yacute /thorn
/ydieresis
] def
%%EndResource
%FOPBeginFontReencode
/Courier-Oblique findfont
dup length dict begin
  {1 index /FID ne {def} {pop pop} ifelse} forall
  /Encoding WinAnsiEncoding def
  currentdict
end
/Courier-Oblique exch definefont pop
/Courier-BoldOblique findfont
dup length dict begin
  {1 index /FID ne {def} {pop pop} ifelse} forall
  /Encoding WinAnsiEncoding def
  currentdict
end
/Courier-BoldOblique exch definefont pop
/Courier-Bold findfont
dup length dict begin
  {1 index /FID ne {def} {pop pop} ifelse} forall
  /Encoding WinAnsiEncoding def
  currentdict
end
/Courier-Bold exch definefont pop
/Helvetica findfont
dup length dict begin
  {1 index /FID ne {def} {pop pop} ifelse} forall
  /Encoding WinAnsiEncoding def
  currentdict
end
/Helvetica exch definefont pop
/Helvetica-Oblique findfont
dup length dict begin
  {1 index /FID ne {def} {pop pop} ifelse} forall
  /Encoding WinAnsiEncoding def
  currentdict
end
/Helvetica-Oblique exch definefont pop
/Helvetica-Bold findfont
dup length dict begin
  {1 index /FID ne {def} {pop pop} ifelse} forall
  /Encoding WinAnsiEncoding def
  currentdict
end
/Helvetica-Bold exch definefont pop
/Helvetica-BoldOblique findfont
dup length dict begin
  {1 index /FID ne {def} {pop pop} ifelse} forall
  /Encoding WinAnsiEncoding def
  currentdict
end
/Helvetica-BoldOblique exch definefont pop
/Times-Roman findfont
dup length dict begin
  {1 index /FID ne {def} {pop pop} ifelse} forall
  /Encoding WinAnsiEncoding def
  currentdict
end
/Times-Roman exch definefont pop
/Times-Italic findfont
dup length dict begin
  {1 index /FID ne {def} {pop pop} ifelse} forall
  /Encoding WinAnsiEncoding def
  currentdict
end
/Times-Italic exch definefont pop
/Times-Bold findfont
dup length dict begin
  {1 index /FID ne {def} {pop pop} ifelse} forall
  /Encoding WinAnsiEncoding def
  currentdict
end
/Times-Bold exch definefont pop
/Times-BoldItalic findfont
dup length dict begin
  {1 index /FID ne {def} {pop pop} ifelse} forall
  /Encoding WinAnsiEncoding def
  currentdict
end
/Times-BoldItalic exch definefont pop
/Courier findfont
dup length dict begin
  {1 index /FID ne {def} {pop pop} ifelse} forall
  /Encoding WinAnsiEncoding def
  currentdict
end
/Courier exch definefont pop
%FOPEndFontReencode
%%EndProlog
%%Page: 1 1
%%PageBoundingBox: 0 0 420 315
%%BeginPageSetup
[1 0 0 -1 0 315] CT
%%EndPageSetup
GS
[0.6 0 0 0.6 0 0] CT
1 GC
N
0 0 700 525 re
f
GR
GS
[0.6 0 0 0.6 0 0] CT
1 GC
N
0 0 700 525 re
f
GR
GS
[0.6 0 0 0.6 0 0] CT
1 GC
N
106 467 M
634 467 L
634 64 L
106 64 L
cp
f
GR
GS
[0.6 0 0 0.6 0 0] CT
0.749 GC
[1 3] 0 setdash
2 LJ
0.833 LW
N
132.491 467 M
132.491 64 L
S
GR
GS
[0.6 0 0 0.6 0 0] CT
0.749 GC
[1 3] 0 setdash
2 LJ
0.833 LW
N
147.987 467 M
147.987 64 L
S
GR
GS
[0.6 0 0 0.6 0 0] CT
0.749 GC
[1 3] 0 setdash
2 LJ
0.833 LW
N
158.981 467 M
158.981 64 L
S
GR
GS
[0.6 0 0 0.6 0 0] CT
0.749 GC
[1 3] 0 setdash
2 LJ
0.833 LW
N
167.509 467 M
167.509 64 L
S
GR
GS
[0.6 0 0 0.6 0 0] CT
0.749 GC
[1 3] 0 setdash
2 LJ
0.833 LW
N
174.477 467 M
174.477 64 L
S
GR
GS
[0.6 0 0 0.6 0 0] CT
0.749 GC
[1 3] 0 setdash
2 LJ
0.833 LW
N
180.369 467 M
180.369 64 L
S
GR
GS
[0.6 0 0 0.6 0 0] CT
0.749 GC
[1 3] 0 setdash
2 LJ
0.833 LW
N
185.472 467 M
185.472 64 L
S
GR
GS
[0.6 0 0 0.6 0 0] CT
0.749 GC
[1 3] 0 setdash
2 LJ
0.833 LW
N
189.973 467 M
189.973 64 L
S
GR
GS
[0.6 0 0 0.6 0 0] CT
0.749 GC
[1 3] 0 setdash
2 LJ
0.833 LW
N
220.491 467 M
220.491 64 L
S
GR
GS
[0.6 0 0 0.6 0 0] CT
0.749 GC
[1 3] 0 setdash
2 LJ
0.833 LW
N
235.987 467 M
235.987 64 L
S
GR
GS
[0.6 0 0 0.6 0 0] CT
0.749 GC
[1 3] 0 setdash
2 LJ
0.833 LW
N
246.981 467 M
246.981 64 L
S
GR
GS
[0.6 0 0 0.6 0 0] CT
0.749 GC
[1 3] 0 setdash
2 LJ
0.833 LW
N
255.509 467 M
255.509 64 L
S
GR
GS
[0.6 0 0 0.6 0 0] CT
0.749 GC
[1 3] 0 setdash
2 LJ
0.833 LW
N
262.477 467 M
262.477 64 L
S
GR
GS
[0.6 0 0 0.6 0 0] CT
0.749 GC
[1 3] 0 setdash
2 LJ
0.833 LW
N
268.369 467 M
268.369 64 L
S
GR
GS
[0.6 0 0 0.6 0 0] CT
0.749 GC
[1 3] 0 setdash
2 LJ
0.833 LW
N
273.472 467 M
273.472 64 L
S
GR
GS
[0.6 0 0 0.6 0 0] CT
0.749 GC
[1 3] 0 setdash
2 LJ
0.833 LW
N
277.973 467 M
277.973 64 L
S
GR
GS
[0.6 0 0 0.6 0 0] CT
0.749 GC
[1 3] 0 setdash
2 LJ
0.833 LW
N
308.491 467 M
308.491 64 L
S
GR
GS
[0.6 0 0 0.6 0 0] CT
0.749 GC
[1 3] 0 setdash
2 LJ
0.833 LW
N
323.987 467 M
323.987 64 L
S
GR
GS
[0.6 0 0 0.6 0 0] CT
0.749 GC
[1 3] 0 setdash
2 LJ
0.833 LW
N
334.981 467 M
334.981 64 L
S
GR
GS
[0.6 0 0 0.6 0 0] CT
0.749 GC
[1 3] 0 setdash
2 LJ
0.833 LW
N
343.509 467 M
343.509 64 L
S
GR
GS
[0.6 0 0 0.6 0 0] CT
0.749 GC
[1 3] 0 setdash
2 LJ
0.833 LW
N
350.477 467 M
350.477 64 L
S
GR
GS
[0.6 0 0 0.6 0 0] CT
0.749 GC
[1 3] 0 setdash
2 LJ
0.833 LW
N
356.369 467 M
356.369 64 L
S
GR
GS
[0.6 0 0 0.6 0 0] CT
0.749 GC
[1 3] 0 setdash
2 LJ
0.833 LW
N
361.472 467 M
361.472 64 L
S
GR
GS
[0.6 0 0 0.6 0 0] CT
0.749 GC
[1 3] 0 setdash
2 LJ
0.833 LW
N
365.973 467 M
365.973 64 L
S
GR
GS
[0.6 0 0 0.6 0 0] CT
0.749 GC
[1 3] 0 setdash
2 LJ
0.833 LW
N
396.491 467 M
396.491 64 L
S
GR
GS
[0.6 0 0 0.6 0 0] CT
0.749 GC
[1 3] 0 setdash
2 LJ
0.833 LW
N
411.987 467 M
411.987 64 L
S
GR
GS
[0.6 0 0 0.6 0 0] CT
0.749 GC
[1 3] 0 setdash
2 LJ
0.833 LW
N
422.981 467 M
422.981 64 L
S
GR
GS
[0.6 0 0 0.6 0 0] CT
0.749 GC
[1 3] 0 setdash
2 LJ
0.833 LW
N
431.509 467 M
431.509 64 L
S
GR
GS
[0.6 0 0 0.6 0 0] CT
0.749 GC
[1 3] 0 setdash
2 LJ
0.833 LW
N
438.477 467 M
438.477 64 L
S
GR
GS
[0.6 0 0 0.6 0 0] CT
0.749 GC
[1 3] 0 setdash
2 LJ
0.833 LW
N
444.369 467 M
444.369 64 L
S
GR
GS
[0.6 0 0 0.6 0 0] CT
0.749 GC
[1 3] 0 setdash
2 LJ
0.833 LW
N
449.472 467 M
449.472 64 L
S
GR
GS
[0.6 0 0 0.6 0 0] CT
0.749 GC
[1 3] 0 setdash
2 LJ
0.833 LW
N
453.973 467 M
453.973 64 L
S
GR
GS
[0.6 0 0 0.6 0 0] CT
0.749 GC
[1 3] 0 setdash
2 LJ
0.833 LW
N
484.491 467 M
484.491 64 L
S
GR
GS
[0.6 0 0 0.6 0 0] CT
0.749 GC
[1 3] 0 setdash
2 LJ
0.833 LW
N
499.987 467 M
499.987 64 L
S
GR
GS
[0.6 0 0 0.6 0 0] CT
0.749 GC
[1 3] 0 setdash
2 LJ
0.833 LW
N
510.981 467 M
510.981 64 L
S
GR
GS
[0.6 0 0 0.6 0 0] CT
0.749 GC
[1 3] 0 setdash
2 LJ
0.833 LW
N
519.509 467 M
519.509 64 L
S
GR
GS
[0.6 0 0 0.6 0 0] CT
0.749 GC
[1 3] 0 setdash
2 LJ
0.833 LW
N
526.477 467 M
526.477 64 L
S
GR
GS
[0.6 0 0 0.6 0 0] CT
0.749 GC
[1 3] 0 setdash
2 LJ
0.833 LW
N
532.369 467 M
532.369 64 L
S
GR
GS
[0.6 0 0 0.6 0 0] CT
0.749 GC
[1 3] 0 setdash
2 LJ
0.833 LW
N
537.472 467 M
537.472 64 L
S
GR
GS
[0.6 0 0 0.6 0 0] CT
0.749 GC
[1 3] 0 setdash
2 LJ
0.833 LW
N
541.973 467 M
541.973 64 L
S
GR
GS
[0.6 0 0 0.6 0 0] CT
0.749 GC
[1 3] 0 setdash
2 LJ
0.833 LW
N
572.491 467 M
572.491 64 L
S
GR
GS
[0.6 0 0 0.6 0 0] CT
0.749 GC
[1 3] 0 setdash
2 LJ
0.833 LW
N
587.987 467 M
587.987 64 L
S
GR
GS
[0.6 0 0 0.6 0 0] CT
0.749 GC
[1 3] 0 setdash
2 LJ
0.833 LW
N
598.981 467 M
598.981 64 L
S
GR
GS
[0.6 0 0 0.6 0 0] CT
0.749 GC
[1 3] 0 setdash
2 LJ
0.833 LW
N
607.509 467 M
607.509 64 L
S
GR
GS
[0.6 0 0 0.6 0 0] CT
0.749 GC
[1 3] 0 setdash
2 LJ
0.833 LW
N
614.477 467 M
614.477 64 L
S
GR
GS
[0.6 0 0 0.6 0 0] CT
0.749 GC
[1 3] 0 setdash
2 LJ
0.833 LW
N
620.369 467 M
620.369 64 L
S
GR
GS
[0.6 0 0 0.6 0 0] CT
0.749 GC
[1 3] 0 setdash
2 LJ
0.833 LW
N
625.472 467 M
625.472 64 L
S
GR
GS
[0.6 0 0 0.6 0 0] CT
0.749 GC
[1 3] 0 setdash
2 LJ
0.833 LW
N
629.973 467 M
629.973 64 L
S
GR
GS
[0.6 0 0 0.6 0 0] CT
0.873 GC
1 LJ
0.833 LW
N
106 467 M
106 64 L
S
GR
GS
[0.6 0 0 0.6 0 0] CT
0.873 GC
1 LJ
0.833 LW
N
194 467 M
194 64 L
S
GR
GS
[0.6 0 0 0.6 0 0] CT
0.873 GC
1 LJ
0.833 LW
N
282 467 M
282 64 L
S
GR
GS
[0.6 0 0 0.6 0 0] CT
0.873 GC
1 LJ
0.833 LW
N
370 467 M
370 64 L
S
GR
GS
[0.6 0 0 0.6 0 0] CT
0.873 GC
1 LJ
0.833 LW
N
458 467 M
458 64 L
S
GR
GS
[0.6 0 0 0.6 0 0] CT
0.873 GC
1 LJ
0.833 LW
N
546 467 M
546 64 L
S
GR
GS
[0.6 0 0 0.6 0 0] CT
0.873 GC
1 LJ
0.833 LW
N
634 467 M
634 64 L
S
GR
GS
[0.6 0 0 0.6 0 0] CT
0.873 GC
1 LJ
0.833 LW
N
634 467 M
106 467 L
S
GR
GS
[0.6 0 0 0.6 0 0] CT
0.873 GC
1 LJ
0.833 LW
N
634 409.429 M
106 409.429 L
S
GR
GS
[0.6 0 0 0.6 0 0] CT
0.873 GC
1 LJ
0.833 LW
N
634 351.857 M
106 351.857 L
S
GR
GS
[0.6 0 0 0.6 0 0] CT
0.873 GC
1 LJ
0.833 LW
N
634 294.286 M
106 294.286 L
S
GR
GS
[0.6 0 0 0.6 0 0] CT
0.873 GC
1 LJ
0.833 LW
N
634 236.714 M
106 236.714 L
S
GR
GS
[0.6 0 0 0.6 0 0] CT
0.873 GC
1 LJ
0.833 LW
N
634 179.143 M
106 179.143 L
S
GR
GS
[0.6 0 0 0.6 0 0] CT
0.873 GC
1 LJ
0.833 LW
N
634 121.571 M
106 121.571 L
S
GR
GS
[0.6 0 0 0.6 0 0] CT
0.873 GC
1 LJ
0.833 LW
N
634 64 M
106 64 L
S
GR
GS
[0.6 0 0 0.6 0 0] CT
2 setlinecap
1 LJ
0.833 LW
N
106 467 M
634 467 L
S
GR
GS
[0.6 0 0 0.6 0 0] CT
2 setlinecap
1 LJ
0.833 LW
N
106 64 M
634 64 L
S
GR
GS
[0.6 0 0 0.6 0 0] CT
2 setlinecap
1 LJ
0.833 LW
N
106 467 M
106 461.72 L
S
GR
GS
[0.6 0 0 0.6 0 0] CT
2 setlinecap
1 LJ
0.833 LW
N
194 467 M
194 461.72 L
S
GR
GS
[0.6 0 0 0.6 0 0] CT
2 setlinecap
1 LJ
0.833 LW
N
282 467 M
282 461.72 L
S
GR
GS
[0.6 0 0 0.6 0 0] CT
2 setlinecap
1 LJ
0.833 LW
N
370 467 M
370 461.72 L
S
GR
GS
[0.6 0 0 0.6 0 0] CT
2 setlinecap
1 LJ
0.833 LW
N
458 467 M
458 461.72 L
S
GR
GS
[0.6 0 0 0.6 0 0] CT
2 setlinecap
1 LJ
0.833 LW
N
546 467 M
546 461.72 L
S
GR
GS
[0.6 0 0 0.6 0 0] CT
2 setlinecap
1 LJ
0.833 LW
N
634 467 M
634 461.72 L
S
GR
GS
[0.6 0 0 0.6 0 0] CT
2 setlinecap
1 LJ
0.833 LW
N
106 64 M
106 69.28 L
S
GR
GS
[0.6 0 0 0.6 0 0] CT
2 setlinecap
1 LJ
0.833 LW
N
194 64 M
194 69.28 L
S
GR
GS
[0.6 0 0 0.6 0 0] CT
2 setlinecap
1 LJ
0.833 LW
N
282 64 M
282 69.28 L
S
GR
GS
[0.6 0 0 0.6 0 0] CT
2 setlinecap
1 LJ
0.833 LW
N
370 64 M
370 69.28 L
S
GR
GS
[0.6 0 0 0.6 0 0] CT
2 setlinecap
1 LJ
0.833 LW
N
458 64 M
458 69.28 L
S
GR
GS
[0.6 0 0 0.6 0 0] CT
2 setlinecap
1 LJ
0.833 LW
N
546 64 M
546 69.28 L
S
GR
GS
[0.6 0 0 0.6 0 0] CT
2 setlinecap
1 LJ
0.833 LW
N
634 64 M
634 69.28 L
S
GR
GS
[0.6 0 0 0.6 0 0] CT
2 setlinecap
1 LJ
0.833 LW
N
106 467 M
106 464.36 L
S
GR
GS
[0.6 0 0 0.6 0 0] CT
2 setlinecap
1 LJ
0.833 LW
N
132.491 467 M
132.491 464.36 L
S
GR
GS
[0.6 0 0 0.6 0 0] CT
2 setlinecap
1 LJ
0.833 LW
N
147.987 467 M
147.987 464.36 L
S
GR
GS
[0.6 0 0 0.6 0 0] CT
2 setlinecap
1 LJ
0.833 LW
N
158.981 467 M
158.981 464.36 L
S
GR
GS
[0.6 0 0 0.6 0 0] CT
2 setlinecap
1 LJ
0.833 LW
N
167.509 467 M
167.509 464.36 L
S
GR
GS
[0.6 0 0 0.6 0 0] CT
2 setlinecap
1 LJ
0.833 LW
N
174.477 467 M
174.477 464.36 L
S
GR
GS
[0.6 0 0 0.6 0 0] CT
2 setlinecap
1 LJ
0.833 LW
N
180.369 467 M
180.369 464.36 L
S
GR
GS
[0.6 0 0 0.6 0 0] CT
2 setlinecap
1 LJ
0.833 LW
N
185.472 467 M
185.472 464.36 L
S
GR
GS
[0.6 0 0 0.6 0 0] CT
2 setlinecap
1 LJ
0.833 LW
N
189.973 467 M
189.973 464.36 L
S
GR
GS
[0.6 0 0 0.6 0 0] CT
2 setlinecap
1 LJ
0.833 LW
N
194 467 M
194 464.36 L
S
GR
GS
[0.6 0 0 0.6 0 0] CT
2 setlinecap
1 LJ
0.833 LW
N
220.491 467 M
220.491 464.36 L
S
GR
GS
[0.6 0 0 0.6 0 0] CT
2 setlinecap
1 LJ
0.833 LW
N
235.987 467 M
235.987 464.36 L
S
GR
GS
[0.6 0 0 0.6 0 0] CT
2 setlinecap
1 LJ
0.833 LW
N
246.981 467 M
246.981 464.36 L
S
GR
GS
[0.6 0 0 0.6 0 0] CT
2 setlinecap
1 LJ
0.833 LW
N
255.509 467 M
255.509 464.36 L
S
GR
GS
[0.6 0 0 0.6 0 0] CT
2 setlinecap
1 LJ
0.833 LW
N
262.477 467 M
262.477 464.36 L
S
GR
GS
[0.6 0 0 0.6 0 0] CT
2 setlinecap
1 LJ
0.833 LW
N
268.369 467 M
268.369 464.36 L
S
GR
GS
[0.6 0 0 0.6 0 0] CT
2 setlinecap
1 LJ
0.833 LW
N
273.472 467 M
273.472 464.36 L
S
GR
GS
[0.6 0 0 0.6 0 0] CT
2 setlinecap
1 LJ
0.833 LW
N
277.973 467 M
277.973 464.36 L
S
GR
GS
[0.6 0 0 0.6 0 0] CT
2 setlinecap
1 LJ
0.833 LW
N
282 467 M
282 464.36 L
S
GR
GS
[0.6 0 0 0.6 0 0] CT
2 setlinecap
1 LJ
0.833 LW
N
308.491 467 M
308.491 464.36 L
S
GR
GS
[0.6 0 0 0.6 0 0] CT
2 setlinecap
1 LJ
0.833 LW
N
323.987 467 M
323.987 464.36 L
S
GR
GS
[0.6 0 0 0.6 0 0] CT
2 setlinecap
1 LJ
0.833 LW
N
334.981 467 M
334.981 464.36 L
S
GR
GS
[0.6 0 0 0.6 0 0] CT
2 setlinecap
1 LJ
0.833 LW
N
343.509 467 M
343.509 464.36 L
S
GR
GS
[0.6 0 0 0.6 0 0] CT
2 setlinecap
1 LJ
0.833 LW
N
350.477 467 M
350.477 464.36 L
S
GR
GS
[0.6 0 0 0.6 0 0] CT
2 setlinecap
1 LJ
0.833 LW
N
356.369 467 M
356.369 464.36 L
S
GR
GS
[0.6 0 0 0.6 0 0] CT
2 setlinecap
1 LJ
0.833 LW
N
361.472 467 M
361.472 464.36 L
S
GR
GS
[0.6 0 0 0.6 0 0] CT
2 setlinecap
1 LJ
0.833 LW
N
365.973 467 M
365.973 464.36 L
S
GR
GS
[0.6 0 0 0.6 0 0] CT
2 setlinecap
1 LJ
0.833 LW
N
370 467 M
370 464.36 L
S
GR
GS
[0.6 0 0 0.6 0 0] CT
2 setlinecap
1 LJ
0.833 LW
N
396.491 467 M
396.491 464.36 L
S
GR
GS
[0.6 0 0 0.6 0 0] CT
2 setlinecap
1 LJ
0.833 LW
N
411.987 467 M
411.987 464.36 L
S
GR
GS
[0.6 0 0 0.6 0 0] CT
2 setlinecap
1 LJ
0.833 LW
N
422.981 467 M
422.981 464.36 L
S
GR
GS
[0.6 0 0 0.6 0 0] CT
2 setlinecap
1 LJ
0.833 LW
N
431.509 467 M
431.509 464.36 L
S
GR
GS
[0.6 0 0 0.6 0 0] CT
2 setlinecap
1 LJ
0.833 LW
N
438.477 467 M
438.477 464.36 L
S
GR
GS
[0.6 0 0 0.6 0 0] CT
2 setlinecap
1 LJ
0.833 LW
N
444.369 467 M
444.369 464.36 L
S
GR
GS
[0.6 0 0 0.6 0 0] CT
2 setlinecap
1 LJ
0.833 LW
N
449.472 467 M
449.472 464.36 L
S
GR
GS
[0.6 0 0 0.6 0 0] CT
2 setlinecap
1 LJ
0.833 LW
N
453.973 467 M
453.973 464.36 L
S
GR
GS
[0.6 0 0 0.6 0 0] CT
2 setlinecap
1 LJ
0.833 LW
N
458 467 M
458 464.36 L
S
GR
GS
[0.6 0 0 0.6 0 0] CT
2 setlinecap
1 LJ
0.833 LW
N
484.491 467 M
484.491 464.36 L
S
GR
GS
[0.6 0 0 0.6 0 0] CT
2 setlinecap
1 LJ
0.833 LW
N
499.987 467 M
499.987 464.36 L
S
GR
GS
[0.6 0 0 0.6 0 0] CT
2 setlinecap
1 LJ
0.833 LW
N
510.981 467 M
510.981 464.36 L
S
GR
GS
[0.6 0 0 0.6 0 0] CT
2 setlinecap
1 LJ
0.833 LW
N
519.509 467 M
519.509 464.36 L
S
GR
GS
[0.6 0 0 0.6 0 0] CT
2 setlinecap
1 LJ
0.833 LW
N
526.477 467 M
526.477 464.36 L
S
GR
GS
[0.6 0 0 0.6 0 0] CT
2 setlinecap
1 LJ
0.833 LW
N
532.369 467 M
532.369 464.36 L
S
GR
GS
[0.6 0 0 0.6 0 0] CT
2 setlinecap
1 LJ
0.833 LW
N
537.472 467 M
537.472 464.36 L
S
GR
GS
[0.6 0 0 0.6 0 0] CT
2 setlinecap
1 LJ
0.833 LW
N
541.973 467 M
541.973 464.36 L
S
GR
GS
[0.6 0 0 0.6 0 0] CT
2 setlinecap
1 LJ
0.833 LW
N
546 467 M
546 464.36 L
S
GR
GS
[0.6 0 0 0.6 0 0] CT
2 setlinecap
1 LJ
0.833 LW
N
572.491 467 M
572.491 464.36 L
S
GR
GS
[0.6 0 0 0.6 0 0] CT
2 setlinecap
1 LJ
0.833 LW
N
587.987 467 M
587.987 464.36 L
S
GR
GS
[0.6 0 0 0.6 0 0] CT
2 setlinecap
1 LJ
0.833 LW
N
598.981 467 M
598.981 464.36 L
S
GR
GS
[0.6 0 0 0.6 0 0] CT
2 setlinecap
1 LJ
0.833 LW
N
607.509 467 M
607.509 464.36 L
S
GR
GS
[0.6 0 0 0.6 0 0] CT
2 setlinecap
1 LJ
0.833 LW
N
614.477 467 M
614.477 464.36 L
S
GR
GS
[0.6 0 0 0.6 0 0] CT
2 setlinecap
1 LJ
0.833 LW
N
620.369 467 M
620.369 464.36 L
S
GR
GS
[0.6 0 0 0.6 0 0] CT
2 setlinecap
1 LJ
0.833 LW
N
625.472 467 M
625.472 464.36 L
S
GR
GS
[0.6 0 0 0.6 0 0] CT
2 setlinecap
1 LJ
0.833 LW
N
629.973 467 M
629.973 464.36 L
S
GR
GS
[0.6 0 0 0.6 0 0] CT
2 setlinecap
1 LJ
0.833 LW
N
634 467 M
634 464.36 L
S
GR
GS
[0.6 0 0 0.6 0 0] CT
2 setlinecap
1 LJ
0.833 LW
N
106 64 M
106 66.64 L
S
GR
GS
[0.6 0 0 0.6 0 0] CT
2 setlinecap
1 LJ
0.833 LW
N
132.491 64 M
132.491 66.64 L
S
GR
GS
[0.6 0 0 0.6 0 0] CT
2 setlinecap
1 LJ
0.833 LW
N
147.987 64 M
147.987 66.64 L
S
GR
GS
[0.6 0 0 0.6 0 0] CT
2 setlinecap
1 LJ
0.833 LW
N
158.981 64 M
158.981 66.64 L
S
GR
GS
[0.6 0 0 0.6 0 0] CT
2 setlinecap
1 LJ
0.833 LW
N
167.509 64 M
167.509 66.64 L
S
GR
GS
[0.6 0 0 0.6 0 0] CT
2 setlinecap
1 LJ
0.833 LW
N
174.477 64 M
174.477 66.64 L
S
GR
GS
[0.6 0 0 0.6 0 0] CT
2 setlinecap
1 LJ
0.833 LW
N
180.369 64 M
180.369 66.64 L
S
GR
GS
[0.6 0 0 0.6 0 0] CT
2 setlinecap
1 LJ
0.833 LW
N
185.472 64 M
185.472 66.64 L
S
GR
GS
[0.6 0 0 0.6 0 0] CT
2 setlinecap
1 LJ
0.833 LW
N
189.973 64 M
189.973 66.64 L
S
GR
GS
[0.6 0 0 0.6 0 0] CT
2 setlinecap
1 LJ
0.833 LW
N
194 64 M
194 66.64 L
S
GR
GS
[0.6 0 0 0.6 0 0] CT
2 setlinecap
1 LJ
0.833 LW
N
220.491 64 M
220.491 66.64 L
S
GR
GS
[0.6 0 0 0.6 0 0] CT
2 setlinecap
1 LJ
0.833 LW
N
235.987 64 M
235.987 66.64 L
S
GR
GS
[0.6 0 0 0.6 0 0] CT
2 setlinecap
1 LJ
0.833 LW
N
246.981 64 M
246.981 66.64 L
S
GR
GS
[0.6 0 0 0.6 0 0] CT
2 setlinecap
1 LJ
0.833 LW
N
255.509 64 M
255.509 66.64 L
S
GR
GS
[0.6 0 0 0.6 0 0] CT
2 setlinecap
1 LJ
0.833 LW
N
262.477 64 M
262.477 66.64 L
S
GR
GS
[0.6 0 0 0.6 0 0] CT
2 setlinecap
1 LJ
0.833 LW
N
268.369 64 M
268.369 66.64 L
S
GR
GS
[0.6 0 0 0.6 0 0] CT
2 setlinecap
1 LJ
0.833 LW
N
273.472 64 M
273.472 66.64 L
S
GR
GS
[0.6 0 0 0.6 0 0] CT
2 setlinecap
1 LJ
0.833 LW
N
277.973 64 M
277.973 66.64 L
S
GR
GS
[0.6 0 0 0.6 0 0] CT
2 setlinecap
1 LJ
0.833 LW
N
282 64 M
282 66.64 L
S
GR
GS
[0.6 0 0 0.6 0 0] CT
2 setlinecap
1 LJ
0.833 LW
N
308.491 64 M
308.491 66.64 L
S
GR
GS
[0.6 0 0 0.6 0 0] CT
2 setlinecap
1 LJ
0.833 LW
N
323.987 64 M
323.987 66.64 L
S
GR
GS
[0.6 0 0 0.6 0 0] CT
2 setlinecap
1 LJ
0.833 LW
N
334.981 64 M
334.981 66.64 L
S
GR
GS
[0.6 0 0 0.6 0 0] CT
2 setlinecap
1 LJ
0.833 LW
N
343.509 64 M
343.509 66.64 L
S
GR
GS
[0.6 0 0 0.6 0 0] CT
2 setlinecap
1 LJ
0.833 LW
N
350.477 64 M
350.477 66.64 L
S
GR
GS
[0.6 0 0 0.6 0 0] CT
2 setlinecap
1 LJ
0.833 LW
N
356.369 64 M
356.369 66.64 L
S
GR
GS
[0.6 0 0 0.6 0 0] CT
2 setlinecap
1 LJ
0.833 LW
N
361.472 64 M
361.472 66.64 L
S
GR
GS
[0.6 0 0 0.6 0 0] CT
2 setlinecap
1 LJ
0.833 LW
N
365.973 64 M
365.973 66.64 L
S
GR
GS
[0.6 0 0 0.6 0 0] CT
2 setlinecap
1 LJ
0.833 LW
N
370 64 M
370 66.64 L
S
GR
GS
[0.6 0 0 0.6 0 0] CT
2 setlinecap
1 LJ
0.833 LW
N
396.491 64 M
396.491 66.64 L
S
GR
GS
[0.6 0 0 0.6 0 0] CT
2 setlinecap
1 LJ
0.833 LW
N
411.987 64 M
411.987 66.64 L
S
GR
GS
[0.6 0 0 0.6 0 0] CT
2 setlinecap
1 LJ
0.833 LW
N
422.981 64 M
422.981 66.64 L
S
GR
GS
[0.6 0 0 0.6 0 0] CT
2 setlinecap
1 LJ
0.833 LW
N
431.509 64 M
431.509 66.64 L
S
GR
GS
[0.6 0 0 0.6 0 0] CT
2 setlinecap
1 LJ
0.833 LW
N
438.477 64 M
438.477 66.64 L
S
GR
GS
[0.6 0 0 0.6 0 0] CT
2 setlinecap
1 LJ
0.833 LW
N
444.369 64 M
444.369 66.64 L
S
GR
GS
[0.6 0 0 0.6 0 0] CT
2 setlinecap
1 LJ
0.833 LW
N
449.472 64 M
449.472 66.64 L
S
GR
GS
[0.6 0 0 0.6 0 0] CT
2 setlinecap
1 LJ
0.833 LW
N
453.973 64 M
453.973 66.64 L
S
GR
GS
[0.6 0 0 0.6 0 0] CT
2 setlinecap
1 LJ
0.833 LW
N
458 64 M
458 66.64 L
S
GR
GS
[0.6 0 0 0.6 0 0] CT
2 setlinecap
1 LJ
0.833 LW
N
484.491 64 M
484.491 66.64 L
S
GR
GS
[0.6 0 0 0.6 0 0] CT
2 setlinecap
1 LJ
0.833 LW
N
499.987 64 M
499.987 66.64 L
S
GR
GS
[0.6 0 0 0.6 0 0] CT
2 setlinecap
1 LJ
0.833 LW
N
510.981 64 M
510.981 66.64 L
S
GR
GS
[0.6 0 0 0.6 0 0] CT
2 setlinecap
1 LJ
0.833 LW
N
519.509 64 M
519.509 66.64 L
S
GR
GS
[0.6 0 0 0.6 0 0] CT
2 setlinecap
1 LJ
0.833 LW
N
526.477 64 M
526.477 66.64 L
S
GR
GS
[0.6 0 0 0.6 0 0] CT
2 setlinecap
1 LJ
0.833 LW
N
532.369 64 M
532.369 66.64 L
S
GR
GS
[0.6 0 0 0.6 0 0] CT
2 setlinecap
1 LJ
0.833 LW
N
537.472 64 M
537.472 66.64 L
S
GR
GS
[0.6 0 0 0.6 0 0] CT
2 setlinecap
1 LJ
0.833 LW
N
541.973 64 M
541.973 66.64 L
S
GR
GS
[0.6 0 0 0.6 0 0] CT
2 setlinecap
1 LJ
0.833 LW
N
546 64 M
546 66.64 L
S
GR
GS
[0.6 0 0 0.6 0 0] CT
2 setlinecap
1 LJ
0.833 LW
N
572.491 64 M
572.491 66.64 L
S
GR
GS
[0.6 0 0 0.6 0 0] CT
2 setlinecap
1 LJ
0.833 LW
N
587.987 64 M
587.987 66.64 L
S
GR
GS
[0.6 0 0 0.6 0 0] CT
2 setlinecap
1 LJ
0.833 LW
N
598.981 64 M
598.981 66.64 L
S
GR
GS
[0.6 0 0 0.6 0 0] CT
2 setlinecap
1 LJ
0.833 LW
N
607.509 64 M
607.509 66.64 L
S
GR
GS
[0.6 0 0 0.6 0 0] CT
2 setlinecap
1 LJ
0.833 LW
N
614.477 64 M
614.477 66.64 L
S
GR
GS
[0.6 0 0 0.6 0 0] CT
2 setlinecap
1 LJ
0.833 LW
N
620.369 64 M
620.369 66.64 L
S
GR
GS
[0.6 0 0 0.6 0 0] CT
2 setlinecap
1 LJ
0.833 LW
N
625.472 64 M
625.472 66.64 L
S
GR
GS
[0.6 0 0 0.6 0 0] CT
2 setlinecap
1 LJ
0.833 LW
N
629.973 64 M
629.973 66.64 L
S
GR
GS
[0.6 0 0 0.6 0 0] CT
2 setlinecap
1 LJ
0.833 LW
N
634 64 M
634 66.64 L
S
GR
GS
[0.6 0 0 0.6 55.8 292.2] CT
/Helvetica 13.333 F
GS
[1 0 0 1 0 0] CT
0 0 moveto 
1 -1 scale
(10) t 
GR
GR
GS
[0.6 0 0 0.6 64.8 288.6] CT
/Helvetica 10.667 F
GS
[1 0 0 1 0 0] CT
0 0 moveto 
1 -1 scale
(-4) t 
GR
GR
GS
[0.6 0 0 0.6 108.6 292.2] CT
/Helvetica 13.333 F
GS
[1 0 0 1 0 0] CT
0 0 moveto 
1 -1 scale
(10) t 
GR
GR
GS
[0.6 0 0 0.6 117.6 288.6] CT
/Helvetica 10.667 F
GS
[1 0 0 1 0 0] CT
0 0 moveto 
1 -1 scale
(-3) t 
GR
GR
GS
[0.6 0 0 0.6 161.4 292.2] CT
/Helvetica 13.333 F
GS
[1 0 0 1 0 0] CT
0 0 moveto 
1 -1 scale
(10) t 
GR
GR
GS
[0.6 0 0 0.6 170.4 288.6] CT
/Helvetica 10.667 F
GS
[1 0 0 1 0 0] CT
0 0 moveto 
1 -1 scale
(-2) t 
GR
GR
GS
[0.6 0 0 0.6 214.2 292.2] CT
/Helvetica 13.333 F
GS
[1 0 0 1 0 0] CT
0 0 moveto 
1 -1 scale
(10) t 
GR
GR
GS
[0.6 0 0 0.6 223.2 288.6] CT
/Helvetica 10.667 F
GS
[1 0 0 1 0 0] CT
0 0 moveto 
1 -1 scale
(-1) t 
GR
GR
GS
[0.6 0 0 0.6 268.2 292.2] CT
/Helvetica 13.333 F
GS
[1 0 0 1 0 0] CT
0 0 moveto 
1 -1 scale
(10) t 
GR
GR
GS
[0.6 0 0 0.6 277.2 288.6] CT
/Helvetica 10.667 F
GS
[1 0 0 1 0 0] CT
0 0 moveto 
1 -1 scale
(0) t 
GR
GR
GS
[0.6 0 0 0.6 321 292.2] CT
/Helvetica 13.333 F
GS
[1 0 0 1 0 0] CT
0 0 moveto 
1 -1 scale
(10) t 
GR
GR
GS
[0.6 0 0 0.6 330 288.6] CT
/Helvetica 10.667 F
GS
[1 0 0 1 0 0] CT
0 0 moveto 
1 -1 scale
(1) t 
GR
GR
GS
[0.6 0 0 0.6 373.8 292.2] CT
/Helvetica 13.333 F
GS
[1 0 0 1 0 0] CT
0 0 moveto 
1 -1 scale
(10) t 
GR
GR
GS
[0.6 0 0 0.6 382.8 288.6] CT
/Helvetica 10.667 F
GS
[1 0 0 1 0 0] CT
0 0 moveto 
1 -1 scale
(2) t 
GR
GR
GS
[0.6 0 0 0.6 0 0] CT
2 setlinecap
1 LJ
0.833 LW
N
106 467 M
106 64 L
S
GR
GS
[0.6 0 0 0.6 0 0] CT
2 setlinecap
1 LJ
0.833 LW
N
634 467 M
634 64 L
S
GR
GS
[0.6 0 0 0.6 0 0] CT
2 setlinecap
1 LJ
0.833 LW
N
106 467 M
111.28 467 L
S
GR
GS
[0.6 0 0 0.6 0 0] CT
2 setlinecap
1 LJ
0.833 LW
N
106 409.429 M
111.28 409.429 L
S
GR
GS
[0.6 0 0 0.6 0 0] CT
2 setlinecap
1 LJ
0.833 LW
N
106 351.857 M
111.28 351.857 L
S
GR
GS
[0.6 0 0 0.6 0 0] CT
2 setlinecap
1 LJ
0.833 LW
N
106 294.286 M
111.28 294.286 L
S
GR
GS
[0.6 0 0 0.6 0 0] CT
2 setlinecap
1 LJ
0.833 LW
N
106 236.714 M
111.28 236.714 L
S
GR
GS
[0.6 0 0 0.6 0 0] CT
2 setlinecap
1 LJ
0.833 LW
N
106 179.143 M
111.28 179.143 L
S
GR
GS
[0.6 0 0 0.6 0 0] CT
2 setlinecap
1 LJ
0.833 LW
N
106 121.571 M
111.28 121.571 L
S
GR
GS
[0.6 0 0 0.6 0 0] CT
2 setlinecap
1 LJ
0.833 LW
N
106 64 M
111.28 64 L
S
GR
GS
[0.6 0 0 0.6 0 0] CT
2 setlinecap
1 LJ
0.833 LW
N
634 467 M
628.72 467 L
S
GR
GS
[0.6 0 0 0.6 0 0] CT
2 setlinecap
1 LJ
0.833 LW
N
634 409.429 M
628.72 409.429 L
S
GR
GS
[0.6 0 0 0.6 0 0] CT
2 setlinecap
1 LJ
0.833 LW
N
634 351.857 M
628.72 351.857 L
S
GR
GS
[0.6 0 0 0.6 0 0] CT
2 setlinecap
1 LJ
0.833 LW
N
634 294.286 M
628.72 294.286 L
S
GR
GS
[0.6 0 0 0.6 0 0] CT
2 setlinecap
1 LJ
0.833 LW
N
634 236.714 M
628.72 236.714 L
S
GR
GS
[0.6 0 0 0.6 0 0] CT
2 setlinecap
1 LJ
0.833 LW
N
634 179.143 M
628.72 179.143 L
S
GR
GS
[0.6 0 0 0.6 0 0] CT
2 setlinecap
1 LJ
0.833 LW
N
634 121.571 M
628.72 121.571 L
S
GR
GS
[0.6 0 0 0.6 0 0] CT
2 setlinecap
1 LJ
0.833 LW
N
634 64 M
628.72 64 L
S
GR
GS
[0.6 0 0 0.6 62 280.2] CT
/Helvetica 13.333 F
GS
[1 0 0 1 0 0] CT
-8 5.5 moveto 
1 -1 scale
(0) t 
GR
GR
GS
[0.6 0 0 0.6 62 245.65714] CT
/Helvetica 13.333 F
GS
[1 0 0 1 0 0] CT
-23 5.5 moveto 
1 -1 scale
(100) t 
GR
GR
GS
[0.6 0 0 0.6 62 211.11429] CT
/Helvetica 13.333 F
GS
[1 0 0 1 0 0] CT
-23 5.5 moveto 
1 -1 scale
(200) t 
GR
GR
GS
[0.6 0 0 0.6 62 176.57142] CT
/Helvetica 13.333 F
GS
[1 0 0 1 0 0] CT
-23 5.5 moveto 
1 -1 scale
(300) t 
GR
GR
GS
[0.6 0 0 0.6 62 142.02857] CT
/Helvetica 13.333 F
GS
[1 0 0 1 0 0] CT
-23 5.5 moveto 
1 -1 scale
(400) t 
GR
GR
GS
[0.6 0 0 0.6 62 107.48571] CT
/Helvetica 13.333 F
GS
[1 0 0 1 0 0] CT
-23 5.5 moveto 
1 -1 scale
(500) t 
GR
GR
GS
[0.6 0 0 0.6 62 72.94286] CT
/Helvetica 13.333 F
GS
[1 0 0 1 0 0] CT
-23 5.5 moveto 
1 -1 scale
(600) t 
GR
GR
GS
[0.6 0 0 0.6 62 38.4] CT
/Helvetica 13.333 F
GS
[1 0 0 1 0 0] CT
-23 5.5 moveto 
1 -1 scale
(700) t 
GR
GR
GS
[0 -0.6 0.6 0 47.2 159.29989] CT
/Helvetica 13.333 F
GS
[1 0 0 1 0 0] CT
-48.5 -3 moveto 
1 -1 scale
(Magnitude \(abs\)) t 
GR
GR
GS
[0.6 0 0 0.6 0 0] CT
1 0 0 RC
1 LJ
0.833 LW
N
106 390.23 M
111.333 400.138 L
116.667 408.786 L
122 416.327 L
127.333 422.899 L
132.667 428.623 L
138 433.607 L
143.333 437.944 L
148.667 441.719 L
154 445.003 L
159.333 447.86 L
164.667 450.344 L
170 452.504 L
175.333 454.382 L
180.667 456.013 L
186 457.431 L
191.333 458.662 L
196.667 459.731 L
202 460.658 L
207.333 461.462 L
212.667 462.157 L
218 462.759 L
223.333 463.277 L
228.667 463.724 L
234 464.108 L
239.333 464.436 L
244.667 464.715 L
250 464.952 L
255.333 465.151 L
260.667 465.317 L
266 465.456 L
271.333 465.57 L
276.667 465.663 L
282 465.739 L
287.333 465.8 L
292.667 465.85 L
298 465.891 L
303.333 465.924 L
308.667 465.951 L
314 465.974 L
319.333 465.993 L
324.667 466.011 L
330 466.027 L
335.333 466.042 L
340.667 466.058 L
346 466.074 L
351.333 466.091 L
356.667 466.108 L
362 466.125 L
367.333 466.14 L
372.667 466.153 L
378 466.161 L
383.333 466.164 L
388.667 466.163 L
394 466.157 L
399.333 466.149 L
404.667 466.138 L
410 466.125 L
415.333 466.11 L
420.667 466.09 L
426 466.063 L
431.333 466.026 L
436.667 465.978 L
442 465.913 L
447.333 465.828 L
452.667 465.719 L
458 465.579 L
463.333 465.398 L
468.667 465.143 L
474 464.708 L
479.333 463.723 L
484.667 460.804 L
490 453.05 L
495.333 443.061 L
500.667 439.792 L
506 439.645 L
511.333 438.689 L
516.667 436.506 L
522 433.25 L
527.333 429.027 L
532.667 423.864 L
538 417.733 L
543.333 410.567 L
548.667 402.273 L
554 392.741 L
559.333 381.854 L
564.667 369.496 L
570 355.567 L
575.333 340 L
580.667 322.78 L
586 303.967 L
591.333 283.733 L
596.667 262.38 L
602 240.349 L
607.333 218.193 L
612.667 196.474 L
618 175.61 L
623.333 155.772 L
628.667 137.054 L
634 119.852 L
S
GR
GS
[0.6 0 0 0.6 0 0] CT
0 0 1 RC
1 LJ
0.833 LW
N
106 466.885 M
111.333 466.885 L
116.667 466.885 L
122 466.885 L
127.333 466.885 L
132.667 466.885 L
138 466.885 L
143.333 466.885 L
148.667 466.885 L
154 466.885 L
159.333 466.885 L
164.667 466.885 L
170 466.885 L
175.333 466.885 L
180.667 466.885 L
186 466.885 L
191.333 466.885 L
196.667 466.885 L
202 466.885 L
207.333 466.885 L
212.667 466.885 L
218 466.885 L
223.333 466.885 L
228.667 466.885 L
234 466.885 L
239.333 466.885 L
244.667 466.885 L
250 466.885 L
255.333 466.885 L
260.667 466.885 L
266 466.885 L
271.333 466.885 L
276.667 466.885 L
282 466.885 L
287.333 466.885 L
292.667 466.885 L
298 466.885 L
303.333 466.884 L
308.667 466.884 L
314 466.884 L
319.333 466.884 L
324.667 466.883 L
330 466.883 L
335.333 466.882 L
340.667 466.881 L
346 466.88 L
351.333 466.879 L
356.667 466.877 L
362 466.874 L
367.333 466.871 L
372.667 466.866 L
378 466.861 L
383.333 466.854 L
388.667 466.846 L
394 466.835 L
399.333 466.822 L
404.667 466.806 L
410 466.787 L
415.333 466.764 L
420.667 466.737 L
426 466.705 L
431.333 466.668 L
436.667 466.625 L
442 466.575 L
447.333 466.518 L
452.667 466.453 L
458 466.379 L
463.333 466.295 L
468.667 466.2 L
474 466.093 L
479.333 465.955 L
484.667 465.753 L
490 465.584 L
495.333 465.647 L
500.667 465.754 L
506 465.776 L
511.333 465.798 L
516.667 465.828 L
522 465.866 L
527.333 465.91 L
532.667 465.96 L
538 466.017 L
543.333 466.078 L
548.667 466.143 L
554 466.212 L
559.333 466.281 L
564.667 466.349 L
570 466.416 L
575.333 466.479 L
580.667 466.537 L
586 466.591 L
591.333 466.641 L
596.667 466.685 L
602 466.724 L
607.333 466.76 L
612.667 466.791 L
618 466.818 L
623.333 466.843 L
628.667 466.864 L
634 466.883 L
S
GR
GS
[0.6 0 0 0.6 0 0] CT
1 LJ
0.833 LW
N
106 390.116 M
111.333 400.024 L
116.667 408.672 L
122 416.213 L
127.333 422.785 L
132.667 428.509 L
138 433.493 L
143.333 437.831 L
148.667 441.605 L
154 444.889 L
159.333 447.746 L
164.667 450.23 L
170 452.39 L
175.333 454.268 L
180.667 455.9 L
186 457.318 L
191.333 458.549 L
196.667 459.618 L
202 460.546 L
207.333 461.35 L
212.667 462.046 L
218 462.648 L
223.333 463.168 L
228.667 463.617 L
234 464.002 L
239.333 464.332 L
244.667 464.614 L
250 464.854 L
255.333 465.057 L
260.667 465.228 L
266 465.372 L
271.333 465.491 L
276.667 465.59 L
282 465.672 L
287.333 465.74 L
292.667 465.796 L
298 465.842 L
303.333 465.88 L
308.667 465.911 L
314 465.938 L
319.333 465.961 L
324.667 465.981 L
330 466.004 L
335.333 466.022 L
340.667 466.039 L
346 466.056 L
351.333 466.072 L
356.667 466.087 L
362 466.099 L
367.333 466.106 L
372.667 466.108 L
378 466.104 L
383.333 466.094 L
388.667 466.077 L
394 466.056 L
399.333 466.031 L
404.667 466.002 L
410 465.969 L
415.333 465.93 L
420.667 465.884 L
426 465.827 L
431.333 465.755 L
436.667 465.665 L
442 465.553 L
447.333 465.414 L
452.667 465.242 L
458 465.029 L
463.333 464.761 L
468.667 464.4 L
474 463.834 L
479.333 462.685 L
484.667 459.516 L
490 451.556 L
495.333 441.61 L
500.667 438.517 L
506 438.537 L
511.333 437.718 L
516.667 435.651 L
522 432.495 L
527.333 428.358 L
532.667 423.27 L
538 417.205 L
543.333 410.097 L
548.667 401.853 L
554 392.365 L
559.333 381.516 L
564.667 369.193 L
570 355.295 L
575.333 339.756 L
580.667 322.56 L
586 303.77 L
591.333 283.555 L
596.667 262.218 L
602 240.201 L
607.333 218.055 L
612.667 196.343 L
618 175.484 L
623.333 155.65 L
628.667 136.938 L
634 119.745 L
S
GR
GS
[0.6 0 0 0.6 0 0] CT
1 GC
N
621 135 M
621 77 L
428 77 L
428 135 L
cp
f
GR
GS
[0.6 0 0 0.6 292.09572 52.88646] CT
/Helvetica 13.333 F
GS
[1 0 0 1 0 0] CT
0 5.5 moveto 
1 -1 scale
(Nominal Performance) t 
GR
GR
GS
[0.6 0 0 0.6 0 0] CT
1 0 0 RC
1 LJ
0.833 LW
N
433.007 88.144 M
483.071 88.144 L
S
GR
GS
[0.6 0 0 0.6 292.09572 63.6] CT
/Helvetica 13.333 F
GS
[1 0 0 1 0 0] CT
0 5.5 moveto 
1 -1 scale
(Robust Stability) t 
GR
GR
GS
[0.6 0 0 0.6 0 0] CT
0 0 1 RC
1 LJ
0.833 LW
N
433.007 106 M
483.071 106 L
S
GR
GS
[0.6 0 0 0.6 292.09572 74.31354] CT
/Helvetica 13.333 F
GS
[1 0 0 1 0 0] CT
0 5.5 moveto 
1 -1 scale
(Robust Performance) t 
GR
GR
GS
[0.6 0 0 0.6 0 0] CT
1 LJ
0.833 LW
N
433.007 123.856 M
483.071 123.856 L
S
GR
GS
[0.6 0 0 0.6 0 0] CT
0.149 GC
10.0 ML
0.833 LW
N
428 135 M
428 77 L
621 77 L
621 135 L
cp
S
GR
GS
[0.6 0 0 0.6 221.1 33.225] CT
/Helvetica 13.333 F
GS
[1 0 0 1 0 0] CT
-88 -3 moveto 
1 -1 scale
(Mu analysis of LQG/LTR on u) t 
GR
GR
GS
[0.6 0 0 0.6 221.1 292.29999] CT
/Helvetica 13.333 F
GS
[1 0 0 1 0 0] CT
-83 14 moveto 
1 -1 scale
(Frequency \(rad/min\)  \(rad/s\)) t 
GR
GR
%%Trailer
%%Pages: 1
%%EOF
