%!PS-Adobe-3.0 EPSF-3.0
%%Creator: (MATLAB, The Mathworks, Inc. Version 9.5.0.1033004 \(R2018b\) Update 2. Operating System: Windows 10)
%%Title: C:/Users/super/Desktop/column/report/img/mu_an_svd_int.eps
%%CreationDate: 2019-02-27T16:14:16
%%Pages: (atend)
%%BoundingBox: 0 0 420 315
%%LanguageLevel: 3
%%EndComments
%%BeginProlog
%%BeginResource: procset (Apache XML Graphics Std ProcSet) 1.2 0
%%Version: 1.2 0
%%Copyright: (Copyright 2001-2003,2010 The Apache Software Foundation. License terms: http://www.apache.org/licenses/LICENSE-2.0)
/bd{bind def}bind def
/ld{load def}bd
/GR/grestore ld
/GS/gsave ld
/RM/rmoveto ld
/C/curveto ld
/t/show ld
/L/lineto ld
/ML/setmiterlimit ld
/CT/concat ld
/f/fill ld
/N/newpath ld
/S/stroke ld
/CC/setcmykcolor ld
/A/ashow ld
/cp/closepath ld
/RC/setrgbcolor ld
/LJ/setlinejoin ld
/GC/setgray ld
/LW/setlinewidth ld
/M/moveto ld
/re {4 2 roll M
1 index 0 rlineto
0 exch rlineto
neg 0 rlineto
cp } bd
/_ctm matrix def
/_tm matrix def
/BT { _ctm currentmatrix pop matrix _tm copy pop 0 0 moveto } bd
/ET { _ctm setmatrix } bd
/iTm { _ctm setmatrix _tm concat } bd
/Tm { _tm astore pop iTm 0 0 moveto } bd
/ux 0.0 def
/uy 0.0 def
/F {
  /Tp exch def
  /Tf exch def
  Tf findfont Tp scalefont setfont
  /cf Tf def  /cs Tp def
} bd
/ULS {currentpoint /uy exch def /ux exch def} bd
/ULE {
  /Tcx currentpoint pop def
  gsave
  newpath
  cf findfont cs scalefont dup
  /FontMatrix get 0 get /Ts exch def /FontInfo get dup
  /UnderlinePosition get Ts mul /To exch def
  /UnderlineThickness get Ts mul /Tt exch def
  ux uy To add moveto  Tcx uy To add lineto
  Tt setlinewidth stroke
  grestore
} bd
/OLE {
  /Tcx currentpoint pop def
  gsave
  newpath
  cf findfont cs scalefont dup
  /FontMatrix get 0 get /Ts exch def /FontInfo get dup
  /UnderlinePosition get Ts mul /To exch def
  /UnderlineThickness get Ts mul /Tt exch def
  ux uy To add cs add moveto Tcx uy To add cs add lineto
  Tt setlinewidth stroke
  grestore
} bd
/SOE {
  /Tcx currentpoint pop def
  gsave
  newpath
  cf findfont cs scalefont dup
  /FontMatrix get 0 get /Ts exch def /FontInfo get dup
  /UnderlinePosition get Ts mul /To exch def
  /UnderlineThickness get Ts mul /Tt exch def
  ux uy To add cs 10 mul 26 idiv add moveto Tcx uy To add cs 10 mul 26 idiv add lineto
  Tt setlinewidth stroke
  grestore
} bd
/QT {
/Y22 exch store
/X22 exch store
/Y21 exch store
/X21 exch store
currentpoint
/Y21 load 2 mul add 3 div exch
/X21 load 2 mul add 3 div exch
/X21 load 2 mul /X22 load add 3 div
/Y21 load 2 mul /Y22 load add 3 div
/X22 load /Y22 load curveto
} bd
/SSPD {
dup length /d exch dict def
{
/v exch def
/k exch def
currentpagedevice k known {
/cpdv currentpagedevice k get def
v cpdv ne {
/upd false def
/nullv v type /nulltype eq def
/nullcpdv cpdv type /nulltype eq def
nullv nullcpdv or
{
/upd true def
} {
/sametype v type cpdv type eq def
sametype {
v type /arraytype eq {
/vlen v length def
/cpdvlen cpdv length def
vlen cpdvlen eq {
0 1 vlen 1 sub {
/i exch def
/obj v i get def
/cpdobj cpdv i get def
obj cpdobj ne {
/upd true def
exit
} if
} for
} {
/upd true def
} ifelse
} {
v type /dicttype eq {
v {
/dv exch def
/dk exch def
/cpddv cpdv dk get def
dv cpddv ne {
/upd true def
exit
} if
} forall
} {
/upd true def
} ifelse
} ifelse
} if
} ifelse
upd true eq {
d k v put
} if
} if
} if
} forall
d length 0 gt {
d setpagedevice
} if
} bd
/RE { % /NewFontName [NewEncodingArray] /FontName RE -
  findfont dup length dict begin
  {
    1 index /FID ne
    {def} {pop pop} ifelse
  } forall
  /Encoding exch def
  /FontName 1 index def
  currentdict definefont pop
  end
} bind def
%%EndResource
%%BeginResource: procset (Apache XML Graphics EPS ProcSet) 1.0 0
%%Version: 1.0 0
%%Copyright: (Copyright 2002-2003 The Apache Software Foundation. License terms: http://www.apache.org/licenses/LICENSE-2.0)
/BeginEPSF { %def
/b4_Inc_state save def         % Save state for cleanup
/dict_count countdictstack def % Count objects on dict stack
/op_count count 1 sub def      % Count objects on operand stack
userdict begin                 % Push userdict on dict stack
/showpage { } def              % Redefine showpage, { } = null proc
0 setgray 0 setlinecap         % Prepare graphics state
1 setlinewidth 0 setlinejoin
10 setmiterlimit [ ] 0 setdash newpath
/languagelevel where           % If level not equal to 1 then
{pop languagelevel             % set strokeadjust and
1 ne                           % overprint to their defaults.
{false setstrokeadjust false setoverprint
} if
} if
} bd
/EndEPSF { %def
count op_count sub {pop} repeat            % Clean up stacks
countdictstack dict_count sub {end} repeat
b4_Inc_state restore
} bd
%%EndResource
%FOPBeginFontDict
%%IncludeResource: font Courier-Oblique
%%IncludeResource: font Courier-BoldOblique
%%IncludeResource: font Courier-Bold
%%IncludeResource: font ZapfDingbats
%%IncludeResource: font Symbol
%%IncludeResource: font Helvetica
%%IncludeResource: font Helvetica-Oblique
%%IncludeResource: font Helvetica-Bold
%%IncludeResource: font Helvetica-BoldOblique
%%IncludeResource: font Times-Roman
%%IncludeResource: font Times-Italic
%%IncludeResource: font Times-Bold
%%IncludeResource: font Times-BoldItalic
%%IncludeResource: font Courier
%FOPEndFontDict
%%BeginResource: encoding WinAnsiEncoding
/WinAnsiEncoding [
/.notdef /.notdef /.notdef /.notdef /.notdef
/.notdef /.notdef /.notdef /.notdef /.notdef
/.notdef /.notdef /.notdef /.notdef /.notdef
/.notdef /.notdef /.notdef /.notdef /.notdef
/.notdef /.notdef /.notdef /.notdef /.notdef
/.notdef /.notdef /.notdef /.notdef /.notdef
/.notdef /.notdef /space /exclam /quotedbl
/numbersign /dollar /percent /ampersand /quotesingle
/parenleft /parenright /asterisk /plus /comma
/hyphen /period /slash /zero /one
/two /three /four /five /six
/seven /eight /nine /colon /semicolon
/less /equal /greater /question /at
/A /B /C /D /E
/F /G /H /I /J
/K /L /M /N /O
/P /Q /R /S /T
/U /V /W /X /Y
/Z /bracketleft /backslash /bracketright /asciicircum
/underscore /quoteleft /a /b /c
/d /e /f /g /h
/i /j /k /l /m
/n /o /p /q /r
/s /t /u /v /w
/x /y /z /braceleft /bar
/braceright /asciitilde /bullet /Euro /bullet
/quotesinglbase /florin /quotedblbase /ellipsis /dagger
/daggerdbl /circumflex /perthousand /Scaron /guilsinglleft
/OE /bullet /Zcaron /bullet /bullet
/quoteleft /quoteright /quotedblleft /quotedblright /bullet
/endash /emdash /asciitilde /trademark /scaron
/guilsinglright /oe /bullet /zcaron /Ydieresis
/space /exclamdown /cent /sterling /currency
/yen /brokenbar /section /dieresis /copyright
/ordfeminine /guillemotleft /logicalnot /sfthyphen /registered
/macron /degree /plusminus /twosuperior /threesuperior
/acute /mu /paragraph /middot /cedilla
/onesuperior /ordmasculine /guillemotright /onequarter /onehalf
/threequarters /questiondown /Agrave /Aacute /Acircumflex
/Atilde /Adieresis /Aring /AE /Ccedilla
/Egrave /Eacute /Ecircumflex /Edieresis /Igrave
/Iacute /Icircumflex /Idieresis /Eth /Ntilde
/Ograve /Oacute /Ocircumflex /Otilde /Odieresis
/multiply /Oslash /Ugrave /Uacute /Ucircumflex
/Udieresis /Yacute /Thorn /germandbls /agrave
/aacute /acircumflex /atilde /adieresis /aring
/ae /ccedilla /egrave /eacute /ecircumflex
/edieresis /igrave /iacute /icircumflex /idieresis
/eth /ntilde /ograve /oacute /ocircumflex
/otilde /odieresis /divide /oslash /ugrave
/uacute /ucircumflex /udieresis /yacute /thorn
/ydieresis
] def
%%EndResource
%FOPBeginFontReencode
/Courier-Oblique findfont
dup length dict begin
  {1 index /FID ne {def} {pop pop} ifelse} forall
  /Encoding WinAnsiEncoding def
  currentdict
end
/Courier-Oblique exch definefont pop
/Courier-BoldOblique findfont
dup length dict begin
  {1 index /FID ne {def} {pop pop} ifelse} forall
  /Encoding WinAnsiEncoding def
  currentdict
end
/Courier-BoldOblique exch definefont pop
/Courier-Bold findfont
dup length dict begin
  {1 index /FID ne {def} {pop pop} ifelse} forall
  /Encoding WinAnsiEncoding def
  currentdict
end
/Courier-Bold exch definefont pop
/Helvetica findfont
dup length dict begin
  {1 index /FID ne {def} {pop pop} ifelse} forall
  /Encoding WinAnsiEncoding def
  currentdict
end
/Helvetica exch definefont pop
/Helvetica-Oblique findfont
dup length dict begin
  {1 index /FID ne {def} {pop pop} ifelse} forall
  /Encoding WinAnsiEncoding def
  currentdict
end
/Helvetica-Oblique exch definefont pop
/Helvetica-Bold findfont
dup length dict begin
  {1 index /FID ne {def} {pop pop} ifelse} forall
  /Encoding WinAnsiEncoding def
  currentdict
end
/Helvetica-Bold exch definefont pop
/Helvetica-BoldOblique findfont
dup length dict begin
  {1 index /FID ne {def} {pop pop} ifelse} forall
  /Encoding WinAnsiEncoding def
  currentdict
end
/Helvetica-BoldOblique exch definefont pop
/Times-Roman findfont
dup length dict begin
  {1 index /FID ne {def} {pop pop} ifelse} forall
  /Encoding WinAnsiEncoding def
  currentdict
end
/Times-Roman exch definefont pop
/Times-Italic findfont
dup length dict begin
  {1 index /FID ne {def} {pop pop} ifelse} forall
  /Encoding WinAnsiEncoding def
  currentdict
end
/Times-Italic exch definefont pop
/Times-Bold findfont
dup length dict begin
  {1 index /FID ne {def} {pop pop} ifelse} forall
  /Encoding WinAnsiEncoding def
  currentdict
end
/Times-Bold exch definefont pop
/Times-BoldItalic findfont
dup length dict begin
  {1 index /FID ne {def} {pop pop} ifelse} forall
  /Encoding WinAnsiEncoding def
  currentdict
end
/Times-BoldItalic exch definefont pop
/Courier findfont
dup length dict begin
  {1 index /FID ne {def} {pop pop} ifelse} forall
  /Encoding WinAnsiEncoding def
  currentdict
end
/Courier exch definefont pop
%FOPEndFontReencode
%%EndProlog
%%Page: 1 1
%%PageBoundingBox: 0 0 420 315
%%BeginPageSetup
[1 0 0 -1 0 315] CT
%%EndPageSetup
GS
[0.6 0 0 0.6 0 0] CT
1 GC
N
0 0 700 525 re
f
GR
GS
[0.6 0 0 0.6 0 0] CT
1 GC
N
0 0 700 525 re
f
GR
GS
[0.6 0 0 0.6 0 0] CT
1 GC
N
106 467 M
634 467 L
634 64 L
106 64 L
cp
f
GR
GS
[0.6 0 0 0.6 0 0] CT
0.749 GC
[1 3] 0 setdash
2 LJ
0.833 LW
N
132.491 467 M
132.491 64 L
S
GR
GS
[0.6 0 0 0.6 0 0] CT
0.749 GC
[1 3] 0 setdash
2 LJ
0.833 LW
N
147.987 467 M
147.987 64 L
S
GR
GS
[0.6 0 0 0.6 0 0] CT
0.749 GC
[1 3] 0 setdash
2 LJ
0.833 LW
N
158.981 467 M
158.981 64 L
S
GR
GS
[0.6 0 0 0.6 0 0] CT
0.749 GC
[1 3] 0 setdash
2 LJ
0.833 LW
N
167.509 467 M
167.509 64 L
S
GR
GS
[0.6 0 0 0.6 0 0] CT
0.749 GC
[1 3] 0 setdash
2 LJ
0.833 LW
N
174.477 467 M
174.477 64 L
S
GR
GS
[0.6 0 0 0.6 0 0] CT
0.749 GC
[1 3] 0 setdash
2 LJ
0.833 LW
N
180.369 467 M
180.369 64 L
S
GR
GS
[0.6 0 0 0.6 0 0] CT
0.749 GC
[1 3] 0 setdash
2 LJ
0.833 LW
N
185.472 467 M
185.472 64 L
S
GR
GS
[0.6 0 0 0.6 0 0] CT
0.749 GC
[1 3] 0 setdash
2 LJ
0.833 LW
N
189.973 467 M
189.973 64 L
S
GR
GS
[0.6 0 0 0.6 0 0] CT
0.749 GC
[1 3] 0 setdash
2 LJ
0.833 LW
N
220.491 467 M
220.491 64 L
S
GR
GS
[0.6 0 0 0.6 0 0] CT
0.749 GC
[1 3] 0 setdash
2 LJ
0.833 LW
N
235.987 467 M
235.987 64 L
S
GR
GS
[0.6 0 0 0.6 0 0] CT
0.749 GC
[1 3] 0 setdash
2 LJ
0.833 LW
N
246.981 467 M
246.981 64 L
S
GR
GS
[0.6 0 0 0.6 0 0] CT
0.749 GC
[1 3] 0 setdash
2 LJ
0.833 LW
N
255.509 467 M
255.509 64 L
S
GR
GS
[0.6 0 0 0.6 0 0] CT
0.749 GC
[1 3] 0 setdash
2 LJ
0.833 LW
N
262.477 467 M
262.477 64 L
S
GR
GS
[0.6 0 0 0.6 0 0] CT
0.749 GC
[1 3] 0 setdash
2 LJ
0.833 LW
N
268.369 467 M
268.369 64 L
S
GR
GS
[0.6 0 0 0.6 0 0] CT
0.749 GC
[1 3] 0 setdash
2 LJ
0.833 LW
N
273.472 467 M
273.472 64 L
S
GR
GS
[0.6 0 0 0.6 0 0] CT
0.749 GC
[1 3] 0 setdash
2 LJ
0.833 LW
N
277.973 467 M
277.973 64 L
S
GR
GS
[0.6 0 0 0.6 0 0] CT
0.749 GC
[1 3] 0 setdash
2 LJ
0.833 LW
N
308.491 467 M
308.491 64 L
S
GR
GS
[0.6 0 0 0.6 0 0] CT
0.749 GC
[1 3] 0 setdash
2 LJ
0.833 LW
N
323.987 467 M
323.987 64 L
S
GR
GS
[0.6 0 0 0.6 0 0] CT
0.749 GC
[1 3] 0 setdash
2 LJ
0.833 LW
N
334.981 467 M
334.981 64 L
S
GR
GS
[0.6 0 0 0.6 0 0] CT
0.749 GC
[1 3] 0 setdash
2 LJ
0.833 LW
N
343.509 467 M
343.509 64 L
S
GR
GS
[0.6 0 0 0.6 0 0] CT
0.749 GC
[1 3] 0 setdash
2 LJ
0.833 LW
N
350.477 467 M
350.477 64 L
S
GR
GS
[0.6 0 0 0.6 0 0] CT
0.749 GC
[1 3] 0 setdash
2 LJ
0.833 LW
N
356.369 467 M
356.369 64 L
S
GR
GS
[0.6 0 0 0.6 0 0] CT
0.749 GC
[1 3] 0 setdash
2 LJ
0.833 LW
N
361.472 467 M
361.472 64 L
S
GR
GS
[0.6 0 0 0.6 0 0] CT
0.749 GC
[1 3] 0 setdash
2 LJ
0.833 LW
N
365.973 467 M
365.973 64 L
S
GR
GS
[0.6 0 0 0.6 0 0] CT
0.749 GC
[1 3] 0 setdash
2 LJ
0.833 LW
N
396.491 467 M
396.491 64 L
S
GR
GS
[0.6 0 0 0.6 0 0] CT
0.749 GC
[1 3] 0 setdash
2 LJ
0.833 LW
N
411.987 467 M
411.987 64 L
S
GR
GS
[0.6 0 0 0.6 0 0] CT
0.749 GC
[1 3] 0 setdash
2 LJ
0.833 LW
N
422.981 467 M
422.981 64 L
S
GR
GS
[0.6 0 0 0.6 0 0] CT
0.749 GC
[1 3] 0 setdash
2 LJ
0.833 LW
N
431.509 467 M
431.509 64 L
S
GR
GS
[0.6 0 0 0.6 0 0] CT
0.749 GC
[1 3] 0 setdash
2 LJ
0.833 LW
N
438.477 467 M
438.477 64 L
S
GR
GS
[0.6 0 0 0.6 0 0] CT
0.749 GC
[1 3] 0 setdash
2 LJ
0.833 LW
N
444.369 467 M
444.369 64 L
S
GR
GS
[0.6 0 0 0.6 0 0] CT
0.749 GC
[1 3] 0 setdash
2 LJ
0.833 LW
N
449.472 467 M
449.472 64 L
S
GR
GS
[0.6 0 0 0.6 0 0] CT
0.749 GC
[1 3] 0 setdash
2 LJ
0.833 LW
N
453.973 467 M
453.973 64 L
S
GR
GS
[0.6 0 0 0.6 0 0] CT
0.749 GC
[1 3] 0 setdash
2 LJ
0.833 LW
N
484.491 467 M
484.491 64 L
S
GR
GS
[0.6 0 0 0.6 0 0] CT
0.749 GC
[1 3] 0 setdash
2 LJ
0.833 LW
N
499.987 467 M
499.987 64 L
S
GR
GS
[0.6 0 0 0.6 0 0] CT
0.749 GC
[1 3] 0 setdash
2 LJ
0.833 LW
N
510.981 467 M
510.981 64 L
S
GR
GS
[0.6 0 0 0.6 0 0] CT
0.749 GC
[1 3] 0 setdash
2 LJ
0.833 LW
N
519.509 467 M
519.509 64 L
S
GR
GS
[0.6 0 0 0.6 0 0] CT
0.749 GC
[1 3] 0 setdash
2 LJ
0.833 LW
N
526.477 467 M
526.477 64 L
S
GR
GS
[0.6 0 0 0.6 0 0] CT
0.749 GC
[1 3] 0 setdash
2 LJ
0.833 LW
N
532.369 467 M
532.369 64 L
S
GR
GS
[0.6 0 0 0.6 0 0] CT
0.749 GC
[1 3] 0 setdash
2 LJ
0.833 LW
N
537.472 467 M
537.472 64 L
S
GR
GS
[0.6 0 0 0.6 0 0] CT
0.749 GC
[1 3] 0 setdash
2 LJ
0.833 LW
N
541.973 467 M
541.973 64 L
S
GR
GS
[0.6 0 0 0.6 0 0] CT
0.749 GC
[1 3] 0 setdash
2 LJ
0.833 LW
N
572.491 467 M
572.491 64 L
S
GR
GS
[0.6 0 0 0.6 0 0] CT
0.749 GC
[1 3] 0 setdash
2 LJ
0.833 LW
N
587.987 467 M
587.987 64 L
S
GR
GS
[0.6 0 0 0.6 0 0] CT
0.749 GC
[1 3] 0 setdash
2 LJ
0.833 LW
N
598.981 467 M
598.981 64 L
S
GR
GS
[0.6 0 0 0.6 0 0] CT
0.749 GC
[1 3] 0 setdash
2 LJ
0.833 LW
N
607.509 467 M
607.509 64 L
S
GR
GS
[0.6 0 0 0.6 0 0] CT
0.749 GC
[1 3] 0 setdash
2 LJ
0.833 LW
N
614.477 467 M
614.477 64 L
S
GR
GS
[0.6 0 0 0.6 0 0] CT
0.749 GC
[1 3] 0 setdash
2 LJ
0.833 LW
N
620.369 467 M
620.369 64 L
S
GR
GS
[0.6 0 0 0.6 0 0] CT
0.749 GC
[1 3] 0 setdash
2 LJ
0.833 LW
N
625.472 467 M
625.472 64 L
S
GR
GS
[0.6 0 0 0.6 0 0] CT
0.749 GC
[1 3] 0 setdash
2 LJ
0.833 LW
N
629.973 467 M
629.973 64 L
S
GR
GS
[0.6 0 0 0.6 0 0] CT
0.873 GC
1 LJ
0.833 LW
N
106 467 M
106 64 L
S
GR
GS
[0.6 0 0 0.6 0 0] CT
0.873 GC
1 LJ
0.833 LW
N
194 467 M
194 64 L
S
GR
GS
[0.6 0 0 0.6 0 0] CT
0.873 GC
1 LJ
0.833 LW
N
282 467 M
282 64 L
S
GR
GS
[0.6 0 0 0.6 0 0] CT
0.873 GC
1 LJ
0.833 LW
N
370 467 M
370 64 L
S
GR
GS
[0.6 0 0 0.6 0 0] CT
0.873 GC
1 LJ
0.833 LW
N
458 467 M
458 64 L
S
GR
GS
[0.6 0 0 0.6 0 0] CT
0.873 GC
1 LJ
0.833 LW
N
546 467 M
546 64 L
S
GR
GS
[0.6 0 0 0.6 0 0] CT
0.873 GC
1 LJ
0.833 LW
N
634 467 M
634 64 L
S
GR
GS
[0.6 0 0 0.6 0 0] CT
0.873 GC
1 LJ
0.833 LW
N
634 467 M
106 467 L
S
GR
GS
[0.6 0 0 0.6 0 0] CT
0.873 GC
1 LJ
0.833 LW
N
634 399.833 M
106 399.833 L
S
GR
GS
[0.6 0 0 0.6 0 0] CT
0.873 GC
1 LJ
0.833 LW
N
634 332.667 M
106 332.667 L
S
GR
GS
[0.6 0 0 0.6 0 0] CT
0.873 GC
1 LJ
0.833 LW
N
634 265.5 M
106 265.5 L
S
GR
GS
[0.6 0 0 0.6 0 0] CT
0.873 GC
1 LJ
0.833 LW
N
634 198.333 M
106 198.333 L
S
GR
GS
[0.6 0 0 0.6 0 0] CT
0.873 GC
1 LJ
0.833 LW
N
634 131.167 M
106 131.167 L
S
GR
GS
[0.6 0 0 0.6 0 0] CT
0.873 GC
1 LJ
0.833 LW
N
634 64 M
106 64 L
S
GR
GS
[0.6 0 0 0.6 0 0] CT
2 setlinecap
1 LJ
0.833 LW
N
106 467 M
634 467 L
S
GR
GS
[0.6 0 0 0.6 0 0] CT
2 setlinecap
1 LJ
0.833 LW
N
106 64 M
634 64 L
S
GR
GS
[0.6 0 0 0.6 0 0] CT
2 setlinecap
1 LJ
0.833 LW
N
106 467 M
106 461.72 L
S
GR
GS
[0.6 0 0 0.6 0 0] CT
2 setlinecap
1 LJ
0.833 LW
N
194 467 M
194 461.72 L
S
GR
GS
[0.6 0 0 0.6 0 0] CT
2 setlinecap
1 LJ
0.833 LW
N
282 467 M
282 461.72 L
S
GR
GS
[0.6 0 0 0.6 0 0] CT
2 setlinecap
1 LJ
0.833 LW
N
370 467 M
370 461.72 L
S
GR
GS
[0.6 0 0 0.6 0 0] CT
2 setlinecap
1 LJ
0.833 LW
N
458 467 M
458 461.72 L
S
GR
GS
[0.6 0 0 0.6 0 0] CT
2 setlinecap
1 LJ
0.833 LW
N
546 467 M
546 461.72 L
S
GR
GS
[0.6 0 0 0.6 0 0] CT
2 setlinecap
1 LJ
0.833 LW
N
634 467 M
634 461.72 L
S
GR
GS
[0.6 0 0 0.6 0 0] CT
2 setlinecap
1 LJ
0.833 LW
N
106 64 M
106 69.28 L
S
GR
GS
[0.6 0 0 0.6 0 0] CT
2 setlinecap
1 LJ
0.833 LW
N
194 64 M
194 69.28 L
S
GR
GS
[0.6 0 0 0.6 0 0] CT
2 setlinecap
1 LJ
0.833 LW
N
282 64 M
282 69.28 L
S
GR
GS
[0.6 0 0 0.6 0 0] CT
2 setlinecap
1 LJ
0.833 LW
N
370 64 M
370 69.28 L
S
GR
GS
[0.6 0 0 0.6 0 0] CT
2 setlinecap
1 LJ
0.833 LW
N
458 64 M
458 69.28 L
S
GR
GS
[0.6 0 0 0.6 0 0] CT
2 setlinecap
1 LJ
0.833 LW
N
546 64 M
546 69.28 L
S
GR
GS
[0.6 0 0 0.6 0 0] CT
2 setlinecap
1 LJ
0.833 LW
N
634 64 M
634 69.28 L
S
GR
GS
[0.6 0 0 0.6 0 0] CT
2 setlinecap
1 LJ
0.833 LW
N
106 467 M
106 464.36 L
S
GR
GS
[0.6 0 0 0.6 0 0] CT
2 setlinecap
1 LJ
0.833 LW
N
132.491 467 M
132.491 464.36 L
S
GR
GS
[0.6 0 0 0.6 0 0] CT
2 setlinecap
1 LJ
0.833 LW
N
147.987 467 M
147.987 464.36 L
S
GR
GS
[0.6 0 0 0.6 0 0] CT
2 setlinecap
1 LJ
0.833 LW
N
158.981 467 M
158.981 464.36 L
S
GR
GS
[0.6 0 0 0.6 0 0] CT
2 setlinecap
1 LJ
0.833 LW
N
167.509 467 M
167.509 464.36 L
S
GR
GS
[0.6 0 0 0.6 0 0] CT
2 setlinecap
1 LJ
0.833 LW
N
174.477 467 M
174.477 464.36 L
S
GR
GS
[0.6 0 0 0.6 0 0] CT
2 setlinecap
1 LJ
0.833 LW
N
180.369 467 M
180.369 464.36 L
S
GR
GS
[0.6 0 0 0.6 0 0] CT
2 setlinecap
1 LJ
0.833 LW
N
185.472 467 M
185.472 464.36 L
S
GR
GS
[0.6 0 0 0.6 0 0] CT
2 setlinecap
1 LJ
0.833 LW
N
189.973 467 M
189.973 464.36 L
S
GR
GS
[0.6 0 0 0.6 0 0] CT
2 setlinecap
1 LJ
0.833 LW
N
194 467 M
194 464.36 L
S
GR
GS
[0.6 0 0 0.6 0 0] CT
2 setlinecap
1 LJ
0.833 LW
N
220.491 467 M
220.491 464.36 L
S
GR
GS
[0.6 0 0 0.6 0 0] CT
2 setlinecap
1 LJ
0.833 LW
N
235.987 467 M
235.987 464.36 L
S
GR
GS
[0.6 0 0 0.6 0 0] CT
2 setlinecap
1 LJ
0.833 LW
N
246.981 467 M
246.981 464.36 L
S
GR
GS
[0.6 0 0 0.6 0 0] CT
2 setlinecap
1 LJ
0.833 LW
N
255.509 467 M
255.509 464.36 L
S
GR
GS
[0.6 0 0 0.6 0 0] CT
2 setlinecap
1 LJ
0.833 LW
N
262.477 467 M
262.477 464.36 L
S
GR
GS
[0.6 0 0 0.6 0 0] CT
2 setlinecap
1 LJ
0.833 LW
N
268.369 467 M
268.369 464.36 L
S
GR
GS
[0.6 0 0 0.6 0 0] CT
2 setlinecap
1 LJ
0.833 LW
N
273.472 467 M
273.472 464.36 L
S
GR
GS
[0.6 0 0 0.6 0 0] CT
2 setlinecap
1 LJ
0.833 LW
N
277.973 467 M
277.973 464.36 L
S
GR
GS
[0.6 0 0 0.6 0 0] CT
2 setlinecap
1 LJ
0.833 LW
N
282 467 M
282 464.36 L
S
GR
GS
[0.6 0 0 0.6 0 0] CT
2 setlinecap
1 LJ
0.833 LW
N
308.491 467 M
308.491 464.36 L
S
GR
GS
[0.6 0 0 0.6 0 0] CT
2 setlinecap
1 LJ
0.833 LW
N
323.987 467 M
323.987 464.36 L
S
GR
GS
[0.6 0 0 0.6 0 0] CT
2 setlinecap
1 LJ
0.833 LW
N
334.981 467 M
334.981 464.36 L
S
GR
GS
[0.6 0 0 0.6 0 0] CT
2 setlinecap
1 LJ
0.833 LW
N
343.509 467 M
343.509 464.36 L
S
GR
GS
[0.6 0 0 0.6 0 0] CT
2 setlinecap
1 LJ
0.833 LW
N
350.477 467 M
350.477 464.36 L
S
GR
GS
[0.6 0 0 0.6 0 0] CT
2 setlinecap
1 LJ
0.833 LW
N
356.369 467 M
356.369 464.36 L
S
GR
GS
[0.6 0 0 0.6 0 0] CT
2 setlinecap
1 LJ
0.833 LW
N
361.472 467 M
361.472 464.36 L
S
GR
GS
[0.6 0 0 0.6 0 0] CT
2 setlinecap
1 LJ
0.833 LW
N
365.973 467 M
365.973 464.36 L
S
GR
GS
[0.6 0 0 0.6 0 0] CT
2 setlinecap
1 LJ
0.833 LW
N
370 467 M
370 464.36 L
S
GR
GS
[0.6 0 0 0.6 0 0] CT
2 setlinecap
1 LJ
0.833 LW
N
396.491 467 M
396.491 464.36 L
S
GR
GS
[0.6 0 0 0.6 0 0] CT
2 setlinecap
1 LJ
0.833 LW
N
411.987 467 M
411.987 464.36 L
S
GR
GS
[0.6 0 0 0.6 0 0] CT
2 setlinecap
1 LJ
0.833 LW
N
422.981 467 M
422.981 464.36 L
S
GR
GS
[0.6 0 0 0.6 0 0] CT
2 setlinecap
1 LJ
0.833 LW
N
431.509 467 M
431.509 464.36 L
S
GR
GS
[0.6 0 0 0.6 0 0] CT
2 setlinecap
1 LJ
0.833 LW
N
438.477 467 M
438.477 464.36 L
S
GR
GS
[0.6 0 0 0.6 0 0] CT
2 setlinecap
1 LJ
0.833 LW
N
444.369 467 M
444.369 464.36 L
S
GR
GS
[0.6 0 0 0.6 0 0] CT
2 setlinecap
1 LJ
0.833 LW
N
449.472 467 M
449.472 464.36 L
S
GR
GS
[0.6 0 0 0.6 0 0] CT
2 setlinecap
1 LJ
0.833 LW
N
453.973 467 M
453.973 464.36 L
S
GR
GS
[0.6 0 0 0.6 0 0] CT
2 setlinecap
1 LJ
0.833 LW
N
458 467 M
458 464.36 L
S
GR
GS
[0.6 0 0 0.6 0 0] CT
2 setlinecap
1 LJ
0.833 LW
N
484.491 467 M
484.491 464.36 L
S
GR
GS
[0.6 0 0 0.6 0 0] CT
2 setlinecap
1 LJ
0.833 LW
N
499.987 467 M
499.987 464.36 L
S
GR
GS
[0.6 0 0 0.6 0 0] CT
2 setlinecap
1 LJ
0.833 LW
N
510.981 467 M
510.981 464.36 L
S
GR
GS
[0.6 0 0 0.6 0 0] CT
2 setlinecap
1 LJ
0.833 LW
N
519.509 467 M
519.509 464.36 L
S
GR
GS
[0.6 0 0 0.6 0 0] CT
2 setlinecap
1 LJ
0.833 LW
N
526.477 467 M
526.477 464.36 L
S
GR
GS
[0.6 0 0 0.6 0 0] CT
2 setlinecap
1 LJ
0.833 LW
N
532.369 467 M
532.369 464.36 L
S
GR
GS
[0.6 0 0 0.6 0 0] CT
2 setlinecap
1 LJ
0.833 LW
N
537.472 467 M
537.472 464.36 L
S
GR
GS
[0.6 0 0 0.6 0 0] CT
2 setlinecap
1 LJ
0.833 LW
N
541.973 467 M
541.973 464.36 L
S
GR
GS
[0.6 0 0 0.6 0 0] CT
2 setlinecap
1 LJ
0.833 LW
N
546 467 M
546 464.36 L
S
GR
GS
[0.6 0 0 0.6 0 0] CT
2 setlinecap
1 LJ
0.833 LW
N
572.491 467 M
572.491 464.36 L
S
GR
GS
[0.6 0 0 0.6 0 0] CT
2 setlinecap
1 LJ
0.833 LW
N
587.987 467 M
587.987 464.36 L
S
GR
GS
[0.6 0 0 0.6 0 0] CT
2 setlinecap
1 LJ
0.833 LW
N
598.981 467 M
598.981 464.36 L
S
GR
GS
[0.6 0 0 0.6 0 0] CT
2 setlinecap
1 LJ
0.833 LW
N
607.509 467 M
607.509 464.36 L
S
GR
GS
[0.6 0 0 0.6 0 0] CT
2 setlinecap
1 LJ
0.833 LW
N
614.477 467 M
614.477 464.36 L
S
GR
GS
[0.6 0 0 0.6 0 0] CT
2 setlinecap
1 LJ
0.833 LW
N
620.369 467 M
620.369 464.36 L
S
GR
GS
[0.6 0 0 0.6 0 0] CT
2 setlinecap
1 LJ
0.833 LW
N
625.472 467 M
625.472 464.36 L
S
GR
GS
[0.6 0 0 0.6 0 0] CT
2 setlinecap
1 LJ
0.833 LW
N
629.973 467 M
629.973 464.36 L
S
GR
GS
[0.6 0 0 0.6 0 0] CT
2 setlinecap
1 LJ
0.833 LW
N
634 467 M
634 464.36 L
S
GR
GS
[0.6 0 0 0.6 0 0] CT
2 setlinecap
1 LJ
0.833 LW
N
106 64 M
106 66.64 L
S
GR
GS
[0.6 0 0 0.6 0 0] CT
2 setlinecap
1 LJ
0.833 LW
N
132.491 64 M
132.491 66.64 L
S
GR
GS
[0.6 0 0 0.6 0 0] CT
2 setlinecap
1 LJ
0.833 LW
N
147.987 64 M
147.987 66.64 L
S
GR
GS
[0.6 0 0 0.6 0 0] CT
2 setlinecap
1 LJ
0.833 LW
N
158.981 64 M
158.981 66.64 L
S
GR
GS
[0.6 0 0 0.6 0 0] CT
2 setlinecap
1 LJ
0.833 LW
N
167.509 64 M
167.509 66.64 L
S
GR
GS
[0.6 0 0 0.6 0 0] CT
2 setlinecap
1 LJ
0.833 LW
N
174.477 64 M
174.477 66.64 L
S
GR
GS
[0.6 0 0 0.6 0 0] CT
2 setlinecap
1 LJ
0.833 LW
N
180.369 64 M
180.369 66.64 L
S
GR
GS
[0.6 0 0 0.6 0 0] CT
2 setlinecap
1 LJ
0.833 LW
N
185.472 64 M
185.472 66.64 L
S
GR
GS
[0.6 0 0 0.6 0 0] CT
2 setlinecap
1 LJ
0.833 LW
N
189.973 64 M
189.973 66.64 L
S
GR
GS
[0.6 0 0 0.6 0 0] CT
2 setlinecap
1 LJ
0.833 LW
N
194 64 M
194 66.64 L
S
GR
GS
[0.6 0 0 0.6 0 0] CT
2 setlinecap
1 LJ
0.833 LW
N
220.491 64 M
220.491 66.64 L
S
GR
GS
[0.6 0 0 0.6 0 0] CT
2 setlinecap
1 LJ
0.833 LW
N
235.987 64 M
235.987 66.64 L
S
GR
GS
[0.6 0 0 0.6 0 0] CT
2 setlinecap
1 LJ
0.833 LW
N
246.981 64 M
246.981 66.64 L
S
GR
GS
[0.6 0 0 0.6 0 0] CT
2 setlinecap
1 LJ
0.833 LW
N
255.509 64 M
255.509 66.64 L
S
GR
GS
[0.6 0 0 0.6 0 0] CT
2 setlinecap
1 LJ
0.833 LW
N
262.477 64 M
262.477 66.64 L
S
GR
GS
[0.6 0 0 0.6 0 0] CT
2 setlinecap
1 LJ
0.833 LW
N
268.369 64 M
268.369 66.64 L
S
GR
GS
[0.6 0 0 0.6 0 0] CT
2 setlinecap
1 LJ
0.833 LW
N
273.472 64 M
273.472 66.64 L
S
GR
GS
[0.6 0 0 0.6 0 0] CT
2 setlinecap
1 LJ
0.833 LW
N
277.973 64 M
277.973 66.64 L
S
GR
GS
[0.6 0 0 0.6 0 0] CT
2 setlinecap
1 LJ
0.833 LW
N
282 64 M
282 66.64 L
S
GR
GS
[0.6 0 0 0.6 0 0] CT
2 setlinecap
1 LJ
0.833 LW
N
308.491 64 M
308.491 66.64 L
S
GR
GS
[0.6 0 0 0.6 0 0] CT
2 setlinecap
1 LJ
0.833 LW
N
323.987 64 M
323.987 66.64 L
S
GR
GS
[0.6 0 0 0.6 0 0] CT
2 setlinecap
1 LJ
0.833 LW
N
334.981 64 M
334.981 66.64 L
S
GR
GS
[0.6 0 0 0.6 0 0] CT
2 setlinecap
1 LJ
0.833 LW
N
343.509 64 M
343.509 66.64 L
S
GR
GS
[0.6 0 0 0.6 0 0] CT
2 setlinecap
1 LJ
0.833 LW
N
350.477 64 M
350.477 66.64 L
S
GR
GS
[0.6 0 0 0.6 0 0] CT
2 setlinecap
1 LJ
0.833 LW
N
356.369 64 M
356.369 66.64 L
S
GR
GS
[0.6 0 0 0.6 0 0] CT
2 setlinecap
1 LJ
0.833 LW
N
361.472 64 M
361.472 66.64 L
S
GR
GS
[0.6 0 0 0.6 0 0] CT
2 setlinecap
1 LJ
0.833 LW
N
365.973 64 M
365.973 66.64 L
S
GR
GS
[0.6 0 0 0.6 0 0] CT
2 setlinecap
1 LJ
0.833 LW
N
370 64 M
370 66.64 L
S
GR
GS
[0.6 0 0 0.6 0 0] CT
2 setlinecap
1 LJ
0.833 LW
N
396.491 64 M
396.491 66.64 L
S
GR
GS
[0.6 0 0 0.6 0 0] CT
2 setlinecap
1 LJ
0.833 LW
N
411.987 64 M
411.987 66.64 L
S
GR
GS
[0.6 0 0 0.6 0 0] CT
2 setlinecap
1 LJ
0.833 LW
N
422.981 64 M
422.981 66.64 L
S
GR
GS
[0.6 0 0 0.6 0 0] CT
2 setlinecap
1 LJ
0.833 LW
N
431.509 64 M
431.509 66.64 L
S
GR
GS
[0.6 0 0 0.6 0 0] CT
2 setlinecap
1 LJ
0.833 LW
N
438.477 64 M
438.477 66.64 L
S
GR
GS
[0.6 0 0 0.6 0 0] CT
2 setlinecap
1 LJ
0.833 LW
N
444.369 64 M
444.369 66.64 L
S
GR
GS
[0.6 0 0 0.6 0 0] CT
2 setlinecap
1 LJ
0.833 LW
N
449.472 64 M
449.472 66.64 L
S
GR
GS
[0.6 0 0 0.6 0 0] CT
2 setlinecap
1 LJ
0.833 LW
N
453.973 64 M
453.973 66.64 L
S
GR
GS
[0.6 0 0 0.6 0 0] CT
2 setlinecap
1 LJ
0.833 LW
N
458 64 M
458 66.64 L
S
GR
GS
[0.6 0 0 0.6 0 0] CT
2 setlinecap
1 LJ
0.833 LW
N
484.491 64 M
484.491 66.64 L
S
GR
GS
[0.6 0 0 0.6 0 0] CT
2 setlinecap
1 LJ
0.833 LW
N
499.987 64 M
499.987 66.64 L
S
GR
GS
[0.6 0 0 0.6 0 0] CT
2 setlinecap
1 LJ
0.833 LW
N
510.981 64 M
510.981 66.64 L
S
GR
GS
[0.6 0 0 0.6 0 0] CT
2 setlinecap
1 LJ
0.833 LW
N
519.509 64 M
519.509 66.64 L
S
GR
GS
[0.6 0 0 0.6 0 0] CT
2 setlinecap
1 LJ
0.833 LW
N
526.477 64 M
526.477 66.64 L
S
GR
GS
[0.6 0 0 0.6 0 0] CT
2 setlinecap
1 LJ
0.833 LW
N
532.369 64 M
532.369 66.64 L
S
GR
GS
[0.6 0 0 0.6 0 0] CT
2 setlinecap
1 LJ
0.833 LW
N
537.472 64 M
537.472 66.64 L
S
GR
GS
[0.6 0 0 0.6 0 0] CT
2 setlinecap
1 LJ
0.833 LW
N
541.973 64 M
541.973 66.64 L
S
GR
GS
[0.6 0 0 0.6 0 0] CT
2 setlinecap
1 LJ
0.833 LW
N
546 64 M
546 66.64 L
S
GR
GS
[0.6 0 0 0.6 0 0] CT
2 setlinecap
1 LJ
0.833 LW
N
572.491 64 M
572.491 66.64 L
S
GR
GS
[0.6 0 0 0.6 0 0] CT
2 setlinecap
1 LJ
0.833 LW
N
587.987 64 M
587.987 66.64 L
S
GR
GS
[0.6 0 0 0.6 0 0] CT
2 setlinecap
1 LJ
0.833 LW
N
598.981 64 M
598.981 66.64 L
S
GR
GS
[0.6 0 0 0.6 0 0] CT
2 setlinecap
1 LJ
0.833 LW
N
607.509 64 M
607.509 66.64 L
S
GR
GS
[0.6 0 0 0.6 0 0] CT
2 setlinecap
1 LJ
0.833 LW
N
614.477 64 M
614.477 66.64 L
S
GR
GS
[0.6 0 0 0.6 0 0] CT
2 setlinecap
1 LJ
0.833 LW
N
620.369 64 M
620.369 66.64 L
S
GR
GS
[0.6 0 0 0.6 0 0] CT
2 setlinecap
1 LJ
0.833 LW
N
625.472 64 M
625.472 66.64 L
S
GR
GS
[0.6 0 0 0.6 0 0] CT
2 setlinecap
1 LJ
0.833 LW
N
629.973 64 M
629.973 66.64 L
S
GR
GS
[0.6 0 0 0.6 0 0] CT
2 setlinecap
1 LJ
0.833 LW
N
634 64 M
634 66.64 L
S
GR
GS
[0.6 0 0 0.6 55.8 292.2] CT
/Helvetica 13.333 F
GS
[1 0 0 1 0 0] CT
0 0 moveto 
1 -1 scale
(10) t 
GR
GR
GS
[0.6 0 0 0.6 64.8 288.6] CT
/Helvetica 10.667 F
GS
[1 0 0 1 0 0] CT
0 0 moveto 
1 -1 scale
(-4) t 
GR
GR
GS
[0.6 0 0 0.6 108.6 292.2] CT
/Helvetica 13.333 F
GS
[1 0 0 1 0 0] CT
0 0 moveto 
1 -1 scale
(10) t 
GR
GR
GS
[0.6 0 0 0.6 117.6 288.6] CT
/Helvetica 10.667 F
GS
[1 0 0 1 0 0] CT
0 0 moveto 
1 -1 scale
(-3) t 
GR
GR
GS
[0.6 0 0 0.6 161.4 292.2] CT
/Helvetica 13.333 F
GS
[1 0 0 1 0 0] CT
0 0 moveto 
1 -1 scale
(10) t 
GR
GR
GS
[0.6 0 0 0.6 170.4 288.6] CT
/Helvetica 10.667 F
GS
[1 0 0 1 0 0] CT
0 0 moveto 
1 -1 scale
(-2) t 
GR
GR
GS
[0.6 0 0 0.6 214.2 292.2] CT
/Helvetica 13.333 F
GS
[1 0 0 1 0 0] CT
0 0 moveto 
1 -1 scale
(10) t 
GR
GR
GS
[0.6 0 0 0.6 223.2 288.6] CT
/Helvetica 10.667 F
GS
[1 0 0 1 0 0] CT
0 0 moveto 
1 -1 scale
(-1) t 
GR
GR
GS
[0.6 0 0 0.6 268.2 292.2] CT
/Helvetica 13.333 F
GS
[1 0 0 1 0 0] CT
0 0 moveto 
1 -1 scale
(10) t 
GR
GR
GS
[0.6 0 0 0.6 277.2 288.6] CT
/Helvetica 10.667 F
GS
[1 0 0 1 0 0] CT
0 0 moveto 
1 -1 scale
(0) t 
GR
GR
GS
[0.6 0 0 0.6 321 292.2] CT
/Helvetica 13.333 F
GS
[1 0 0 1 0 0] CT
0 0 moveto 
1 -1 scale
(10) t 
GR
GR
GS
[0.6 0 0 0.6 330 288.6] CT
/Helvetica 10.667 F
GS
[1 0 0 1 0 0] CT
0 0 moveto 
1 -1 scale
(1) t 
GR
GR
GS
[0.6 0 0 0.6 373.8 292.2] CT
/Helvetica 13.333 F
GS
[1 0 0 1 0 0] CT
0 0 moveto 
1 -1 scale
(10) t 
GR
GR
GS
[0.6 0 0 0.6 382.8 288.6] CT
/Helvetica 10.667 F
GS
[1 0 0 1 0 0] CT
0 0 moveto 
1 -1 scale
(2) t 
GR
GR
GS
[0.6 0 0 0.6 0 0] CT
2 setlinecap
1 LJ
0.833 LW
N
106 467 M
106 64 L
S
GR
GS
[0.6 0 0 0.6 0 0] CT
2 setlinecap
1 LJ
0.833 LW
N
634 467 M
634 64 L
S
GR
GS
[0.6 0 0 0.6 0 0] CT
2 setlinecap
1 LJ
0.833 LW
N
106 467 M
111.28 467 L
S
GR
GS
[0.6 0 0 0.6 0 0] CT
2 setlinecap
1 LJ
0.833 LW
N
106 399.833 M
111.28 399.833 L
S
GR
GS
[0.6 0 0 0.6 0 0] CT
2 setlinecap
1 LJ
0.833 LW
N
106 332.667 M
111.28 332.667 L
S
GR
GS
[0.6 0 0 0.6 0 0] CT
2 setlinecap
1 LJ
0.833 LW
N
106 265.5 M
111.28 265.5 L
S
GR
GS
[0.6 0 0 0.6 0 0] CT
2 setlinecap
1 LJ
0.833 LW
N
106 198.333 M
111.28 198.333 L
S
GR
GS
[0.6 0 0 0.6 0 0] CT
2 setlinecap
1 LJ
0.833 LW
N
106 131.167 M
111.28 131.167 L
S
GR
GS
[0.6 0 0 0.6 0 0] CT
2 setlinecap
1 LJ
0.833 LW
N
106 64 M
111.28 64 L
S
GR
GS
[0.6 0 0 0.6 0 0] CT
2 setlinecap
1 LJ
0.833 LW
N
634 467 M
628.72 467 L
S
GR
GS
[0.6 0 0 0.6 0 0] CT
2 setlinecap
1 LJ
0.833 LW
N
634 399.833 M
628.72 399.833 L
S
GR
GS
[0.6 0 0 0.6 0 0] CT
2 setlinecap
1 LJ
0.833 LW
N
634 332.667 M
628.72 332.667 L
S
GR
GS
[0.6 0 0 0.6 0 0] CT
2 setlinecap
1 LJ
0.833 LW
N
634 265.5 M
628.72 265.5 L
S
GR
GS
[0.6 0 0 0.6 0 0] CT
2 setlinecap
1 LJ
0.833 LW
N
634 198.333 M
628.72 198.333 L
S
GR
GS
[0.6 0 0 0.6 0 0] CT
2 setlinecap
1 LJ
0.833 LW
N
634 131.167 M
628.72 131.167 L
S
GR
GS
[0.6 0 0 0.6 0 0] CT
2 setlinecap
1 LJ
0.833 LW
N
634 64 M
628.72 64 L
S
GR
GS
[0.6 0 0 0.6 62 280.2] CT
/Helvetica 13.333 F
GS
[1 0 0 1 0 0] CT
-8 5.5 moveto 
1 -1 scale
(0) t 
GR
GR
GS
[0.6 0 0 0.6 62 239.90001] CT
/Helvetica 13.333 F
GS
[1 0 0 1 0 0] CT
-8 5.5 moveto 
1 -1 scale
(5) t 
GR
GR
GS
[0.6 0 0 0.6 62 199.59999] CT
/Helvetica 13.333 F
GS
[1 0 0 1 0 0] CT
-15 5.5 moveto 
1 -1 scale
(10) t 
GR
GR
GS
[0.6 0 0 0.6 62 159.3] CT
/Helvetica 13.333 F
GS
[1 0 0 1 0 0] CT
-15 5.5 moveto 
1 -1 scale
(15) t 
GR
GR
GS
[0.6 0 0 0.6 62 119] CT
/Helvetica 13.333 F
GS
[1 0 0 1 0 0] CT
-15 5.5 moveto 
1 -1 scale
(20) t 
GR
GR
GS
[0.6 0 0 0.6 62 78.7] CT
/Helvetica 13.333 F
GS
[1 0 0 1 0 0] CT
-15 5.5 moveto 
1 -1 scale
(25) t 
GR
GR
GS
[0.6 0 0 0.6 62 38.4] CT
/Helvetica 13.333 F
GS
[1 0 0 1 0 0] CT
-15 5.5 moveto 
1 -1 scale
(30) t 
GR
GR
GS
[0 -0.6 0.6 0 52 159.29989] CT
/Helvetica 13.333 F
GS
[1 0 0 1 0 0] CT
-48.5 -3 moveto 
1 -1 scale
(Magnitude \(abs\)) t 
GR
GR
GS
[0.6 0 0 0.6 0 0] CT
1 0 0 RC
1 LJ
0.833 LW
N
106 255.973 M
111.333 255.514 L
116.667 255.095 L
122 254.697 L
127.333 254.301 L
132.667 253.893 L
138 253.459 L
143.333 252.984 L
148.667 252.457 L
154 251.861 L
159.333 251.182 L
164.667 250.401 L
170 249.496 L
175.333 248.443 L
180.667 247.209 L
186 245.757 L
191.333 244.037 L
196.667 241.987 L
202 239.531 L
207.333 236.57 L
212.667 232.983 L
218 228.626 L
223.333 223.337 L
228.667 216.953 L
234 209.353 L
239.333 200.541 L
244.667 190.792 L
250 180.876 L
255.333 172.312 L
260.667 167.46 L
266 169.082 L
271.333 179.137 L
276.667 197.481 L
282 221.746 L
287.333 248.637 L
292.667 275.368 L
298 300.249 L
303.333 322.55 L
308.667 342.134 L
314 359.163 L
319.333 373.911 L
324.667 386.672 L
330 397.722 L
335.333 407.302 L
340.667 415.619 L
346 422.846 L
351.333 429.125 L
356.667 434.577 L
362 439.3 L
367.333 443.378 L
372.667 446.884 L
378 449.884 L
383.333 452.438 L
388.667 454.6 L
394 456.421 L
399.333 457.948 L
404.667 459.227 L
410 460.303 L
415.333 461.216 L
420.667 462.003 L
426 462.694 L
431.333 463.31 L
436.667 463.861 L
442 464.351 L
447.333 464.779 L
452.667 465.146 L
458 465.454 L
463.333 465.707 L
468.667 465.912 L
474 466.08 L
479.333 466.222 L
484.667 466.331 L
490 466.411 L
495.333 466.48 L
500.667 466.543 L
506 466.598 L
511.333 466.648 L
516.667 466.692 L
522 466.731 L
527.333 466.765 L
532.667 466.795 L
538 466.822 L
543.333 466.845 L
548.667 466.865 L
554 466.883 L
559.333 466.898 L
564.667 466.912 L
570 466.923 L
575.333 466.934 L
580.667 466.943 L
586 466.951 L
591.333 466.958 L
596.667 466.964 L
602 466.969 L
607.333 466.974 L
612.667 466.978 L
618 466.981 L
623.333 466.985 L
628.667 466.987 L
634 466.99 L
S
GR
GS
[0.6 0 0 0.6 0 0] CT
0 0 1 RC
1 LJ
0.833 LW
N
106 464.313 M
111.333 464.313 L
116.667 464.313 L
122 464.313 L
127.333 464.313 L
132.667 464.313 L
138 464.313 L
143.333 464.312 L
148.667 464.312 L
154 464.312 L
159.333 464.311 L
164.667 464.31 L
170 464.309 L
175.333 464.308 L
180.667 464.306 L
186 464.304 L
191.333 464.301 L
196.667 464.297 L
202 464.292 L
207.333 464.286 L
212.667 464.278 L
218 464.268 L
223.333 464.256 L
228.667 464.242 L
234 464.227 L
239.333 464.214 L
244.667 464.206 L
250 464.211 L
255.333 464.243 L
260.667 464.319 L
266 464.452 L
271.333 464.645 L
276.667 464.881 L
282 465.108 L
287.333 465.244 L
292.667 465.317 L
298 465.368 L
303.333 465.406 L
308.667 465.434 L
314 465.454 L
319.333 465.467 L
324.667 465.474 L
330 465.476 L
335.333 465.474 L
340.667 465.469 L
346 465.464 L
351.333 465.459 L
356.667 465.459 L
362 465.465 L
367.333 465.48 L
372.667 465.507 L
378 465.547 L
383.333 465.596 L
388.667 465.65 L
394 465.705 L
399.333 465.756 L
404.667 465.801 L
410 465.839 L
415.333 465.874 L
420.667 465.91 L
426 465.952 L
431.333 466.004 L
436.667 466.069 L
442 466.144 L
447.333 466.227 L
452.667 466.311 L
458 466.393 L
463.333 466.467 L
468.667 466.533 L
474 466.592 L
479.333 466.671 L
484.667 466.799 L
490 466.902 L
495.333 466.952 L
500.667 466.971 L
506 466.979 L
511.333 466.984 L
516.667 466.989 L
522 466.992 L
527.333 466.995 L
532.667 466.997 L
538 466.998 L
543.333 466.998 L
548.667 466.999 L
554 466.999 L
559.333 467 L
564.667 467 L
570 467 L
575.333 467 L
580.667 467 L
586 467 L
591.333 467 L
596.667 467 L
602 467 L
607.333 467 L
612.667 467 L
618 467 L
623.333 467 L
628.667 467 L
634 467 L
S
GR
GS
[0.6 0 0 0.6 0 0] CT
1 LJ
0.833 LW
N
106 96.478 M
111.333 95.978 L
116.667 95.532 L
122 95.118 L
127.333 94.716 L
132.667 94.312 L
138 93.891 L
143.333 93.442 L
148.667 92.953 L
154 92.414 L
159.333 91.814 L
164.667 91.142 L
170 90.386 L
175.333 89.535 L
180.667 88.576 L
186 87.495 L
191.333 86.278 L
196.667 84.908 L
202 83.368 L
207.333 81.638 L
212.667 79.695 L
218 77.514 L
223.333 75.074 L
228.667 74.54 L
234 72.389 L
239.333 70.323 L
244.667 68.662 L
250 68.083 L
255.333 69.836 L
260.667 75.829 L
266 88.367 L
271.333 108.842 L
276.667 136.749 L
282 169.553 L
287.333 203.87 L
292.667 236.941 L
298 267.19 L
303.333 294.005 L
308.667 317.374 L
314 337.572 L
319.333 354.962 L
324.667 369.939 L
330 382.826 L
335.333 393.94 L
340.667 403.529 L
346 411.81 L
351.333 418.965 L
356.667 425.159 L
362 430.52 L
367.333 435.164 L
372.667 439.189 L
378 442.671 L
383.333 445.672 L
388.667 448.24 L
394 450.358 L
399.333 452.21 L
404.667 453.761 L
410 455.065 L
415.333 456.182 L
420.667 457.169 L
426 458.075 L
431.333 458.938 L
436.667 459.775 L
442 460.586 L
447.333 461.358 L
452.667 462.076 L
458 462.729 L
463.333 463.307 L
468.667 463.823 L
474 464.222 L
479.333 464.517 L
484.667 464.852 L
490 465.225 L
495.333 465.547 L
500.667 465.816 L
506 466.038 L
511.333 466.22 L
516.667 466.366 L
522 466.485 L
527.333 466.58 L
532.667 466.656 L
538 466.718 L
543.333 466.768 L
548.667 466.808 L
554 466.841 L
559.333 466.868 L
564.667 466.889 L
570 466.907 L
575.333 466.922 L
580.667 466.935 L
586 466.945 L
591.333 466.953 L
596.667 466.961 L
602 466.967 L
607.333 466.972 L
612.667 466.977 L
618 466.981 L
623.333 466.984 L
628.667 466.987 L
634 466.989 L
S
GR
GS
[0.6 0 0 0.6 0 0] CT
1 GC
N
621 135 M
621 77 L
428 77 L
428 135 L
cp
f
GR
GS
[0.6 0 0 0.6 292.09572 52.88646] CT
/Helvetica 13.333 F
GS
[1 0 0 1 0 0] CT
0 5.5 moveto 
1 -1 scale
(Nominal Performance) t 
GR
GR
GS
[0.6 0 0 0.6 0 0] CT
1 0 0 RC
1 LJ
0.833 LW
N
433.007 88.144 M
483.071 88.144 L
S
GR
GS
[0.6 0 0 0.6 292.09572 63.6] CT
/Helvetica 13.333 F
GS
[1 0 0 1 0 0] CT
0 5.5 moveto 
1 -1 scale
(Robust Stability) t 
GR
GR
GS
[0.6 0 0 0.6 0 0] CT
0 0 1 RC
1 LJ
0.833 LW
N
433.007 106 M
483.071 106 L
S
GR
GS
[0.6 0 0 0.6 292.09572 74.31354] CT
/Helvetica 13.333 F
GS
[1 0 0 1 0 0] CT
0 5.5 moveto 
1 -1 scale
(Robust Performance) t 
GR
GR
GS
[0.6 0 0 0.6 0 0] CT
1 LJ
0.833 LW
N
433.007 123.856 M
483.071 123.856 L
S
GR
GS
[0.6 0 0 0.6 0 0] CT
0.149 GC
10.0 ML
0.833 LW
N
428 135 M
428 77 L
621 77 L
621 135 L
cp
S
GR
GS
[0.6 0 0 0.6 221.1 33.225] CT
/Helvetica 13.333 F
GS
[1 0 0 1 0 0] CT
-131 -3 moveto 
1 -1 scale
(Mu analysis of SVD with integrator controller) t 
GR
GR
GS
[0.6 0 0 0.6 221.1 292.29999] CT
/Helvetica 13.333 F
GS
[1 0 0 1 0 0] CT
-83 14 moveto 
1 -1 scale
(Frequency \(rad/min\)  \(rad/s\)) t 
GR
GR
%%Trailer
%%Pages: 1
%%EOF
