%!PS-Adobe-3.0 EPSF-3.0
%%Creator: (MATLAB, The Mathworks, Inc. Version 9.5.0.1033004 \(R2018b\) Update 2. Operating System: Windows 10)
%%Title: C:/Users/super/Desktop/column/report/img/mu_an_pid.eps
%%CreationDate: 2019-02-27T14:12:33
%%Pages: (atend)
%%BoundingBox: 0 0 420 315
%%LanguageLevel: 3
%%EndComments
%%BeginProlog
%%BeginResource: procset (Apache XML Graphics Std ProcSet) 1.2 0
%%Version: 1.2 0
%%Copyright: (Copyright 2001-2003,2010 The Apache Software Foundation. License terms: http://www.apache.org/licenses/LICENSE-2.0)
/bd{bind def}bind def
/ld{load def}bd
/GR/grestore ld
/GS/gsave ld
/RM/rmoveto ld
/C/curveto ld
/t/show ld
/L/lineto ld
/ML/setmiterlimit ld
/CT/concat ld
/f/fill ld
/N/newpath ld
/S/stroke ld
/CC/setcmykcolor ld
/A/ashow ld
/cp/closepath ld
/RC/setrgbcolor ld
/LJ/setlinejoin ld
/GC/setgray ld
/LW/setlinewidth ld
/M/moveto ld
/re {4 2 roll M
1 index 0 rlineto
0 exch rlineto
neg 0 rlineto
cp } bd
/_ctm matrix def
/_tm matrix def
/BT { _ctm currentmatrix pop matrix _tm copy pop 0 0 moveto } bd
/ET { _ctm setmatrix } bd
/iTm { _ctm setmatrix _tm concat } bd
/Tm { _tm astore pop iTm 0 0 moveto } bd
/ux 0.0 def
/uy 0.0 def
/F {
  /Tp exch def
  /Tf exch def
  Tf findfont Tp scalefont setfont
  /cf Tf def  /cs Tp def
} bd
/ULS {currentpoint /uy exch def /ux exch def} bd
/ULE {
  /Tcx currentpoint pop def
  gsave
  newpath
  cf findfont cs scalefont dup
  /FontMatrix get 0 get /Ts exch def /FontInfo get dup
  /UnderlinePosition get Ts mul /To exch def
  /UnderlineThickness get Ts mul /Tt exch def
  ux uy To add moveto  Tcx uy To add lineto
  Tt setlinewidth stroke
  grestore
} bd
/OLE {
  /Tcx currentpoint pop def
  gsave
  newpath
  cf findfont cs scalefont dup
  /FontMatrix get 0 get /Ts exch def /FontInfo get dup
  /UnderlinePosition get Ts mul /To exch def
  /UnderlineThickness get Ts mul /Tt exch def
  ux uy To add cs add moveto Tcx uy To add cs add lineto
  Tt setlinewidth stroke
  grestore
} bd
/SOE {
  /Tcx currentpoint pop def
  gsave
  newpath
  cf findfont cs scalefont dup
  /FontMatrix get 0 get /Ts exch def /FontInfo get dup
  /UnderlinePosition get Ts mul /To exch def
  /UnderlineThickness get Ts mul /Tt exch def
  ux uy To add cs 10 mul 26 idiv add moveto Tcx uy To add cs 10 mul 26 idiv add lineto
  Tt setlinewidth stroke
  grestore
} bd
/QT {
/Y22 exch store
/X22 exch store
/Y21 exch store
/X21 exch store
currentpoint
/Y21 load 2 mul add 3 div exch
/X21 load 2 mul add 3 div exch
/X21 load 2 mul /X22 load add 3 div
/Y21 load 2 mul /Y22 load add 3 div
/X22 load /Y22 load curveto
} bd
/SSPD {
dup length /d exch dict def
{
/v exch def
/k exch def
currentpagedevice k known {
/cpdv currentpagedevice k get def
v cpdv ne {
/upd false def
/nullv v type /nulltype eq def
/nullcpdv cpdv type /nulltype eq def
nullv nullcpdv or
{
/upd true def
} {
/sametype v type cpdv type eq def
sametype {
v type /arraytype eq {
/vlen v length def
/cpdvlen cpdv length def
vlen cpdvlen eq {
0 1 vlen 1 sub {
/i exch def
/obj v i get def
/cpdobj cpdv i get def
obj cpdobj ne {
/upd true def
exit
} if
} for
} {
/upd true def
} ifelse
} {
v type /dicttype eq {
v {
/dv exch def
/dk exch def
/cpddv cpdv dk get def
dv cpddv ne {
/upd true def
exit
} if
} forall
} {
/upd true def
} ifelse
} ifelse
} if
} ifelse
upd true eq {
d k v put
} if
} if
} if
} forall
d length 0 gt {
d setpagedevice
} if
} bd
/RE { % /NewFontName [NewEncodingArray] /FontName RE -
  findfont dup length dict begin
  {
    1 index /FID ne
    {def} {pop pop} ifelse
  } forall
  /Encoding exch def
  /FontName 1 index def
  currentdict definefont pop
  end
} bind def
%%EndResource
%%BeginResource: procset (Apache XML Graphics EPS ProcSet) 1.0 0
%%Version: 1.0 0
%%Copyright: (Copyright 2002-2003 The Apache Software Foundation. License terms: http://www.apache.org/licenses/LICENSE-2.0)
/BeginEPSF { %def
/b4_Inc_state save def         % Save state for cleanup
/dict_count countdictstack def % Count objects on dict stack
/op_count count 1 sub def      % Count objects on operand stack
userdict begin                 % Push userdict on dict stack
/showpage { } def              % Redefine showpage, { } = null proc
0 setgray 0 setlinecap         % Prepare graphics state
1 setlinewidth 0 setlinejoin
10 setmiterlimit [ ] 0 setdash newpath
/languagelevel where           % If level not equal to 1 then
{pop languagelevel             % set strokeadjust and
1 ne                           % overprint to their defaults.
{false setstrokeadjust false setoverprint
} if
} if
} bd
/EndEPSF { %def
count op_count sub {pop} repeat            % Clean up stacks
countdictstack dict_count sub {end} repeat
b4_Inc_state restore
} bd
%%EndResource
%FOPBeginFontDict
%%IncludeResource: font Courier-Oblique
%%IncludeResource: font Courier-BoldOblique
%%IncludeResource: font Courier-Bold
%%IncludeResource: font ZapfDingbats
%%IncludeResource: font Symbol
%%IncludeResource: font Helvetica
%%IncludeResource: font Helvetica-Oblique
%%IncludeResource: font Helvetica-Bold
%%IncludeResource: font Helvetica-BoldOblique
%%IncludeResource: font Times-Roman
%%IncludeResource: font Times-Italic
%%IncludeResource: font Times-Bold
%%IncludeResource: font Times-BoldItalic
%%IncludeResource: font Courier
%FOPEndFontDict
%%BeginResource: encoding WinAnsiEncoding
/WinAnsiEncoding [
/.notdef /.notdef /.notdef /.notdef /.notdef
/.notdef /.notdef /.notdef /.notdef /.notdef
/.notdef /.notdef /.notdef /.notdef /.notdef
/.notdef /.notdef /.notdef /.notdef /.notdef
/.notdef /.notdef /.notdef /.notdef /.notdef
/.notdef /.notdef /.notdef /.notdef /.notdef
/.notdef /.notdef /space /exclam /quotedbl
/numbersign /dollar /percent /ampersand /quotesingle
/parenleft /parenright /asterisk /plus /comma
/hyphen /period /slash /zero /one
/two /three /four /five /six
/seven /eight /nine /colon /semicolon
/less /equal /greater /question /at
/A /B /C /D /E
/F /G /H /I /J
/K /L /M /N /O
/P /Q /R /S /T
/U /V /W /X /Y
/Z /bracketleft /backslash /bracketright /asciicircum
/underscore /quoteleft /a /b /c
/d /e /f /g /h
/i /j /k /l /m
/n /o /p /q /r
/s /t /u /v /w
/x /y /z /braceleft /bar
/braceright /asciitilde /bullet /Euro /bullet
/quotesinglbase /florin /quotedblbase /ellipsis /dagger
/daggerdbl /circumflex /perthousand /Scaron /guilsinglleft
/OE /bullet /Zcaron /bullet /bullet
/quoteleft /quoteright /quotedblleft /quotedblright /bullet
/endash /emdash /asciitilde /trademark /scaron
/guilsinglright /oe /bullet /zcaron /Ydieresis
/space /exclamdown /cent /sterling /currency
/yen /brokenbar /section /dieresis /copyright
/ordfeminine /guillemotleft /logicalnot /sfthyphen /registered
/macron /degree /plusminus /twosuperior /threesuperior
/acute /mu /paragraph /middot /cedilla
/onesuperior /ordmasculine /guillemotright /onequarter /onehalf
/threequarters /questiondown /Agrave /Aacute /Acircumflex
/Atilde /Adieresis /Aring /AE /Ccedilla
/Egrave /Eacute /Ecircumflex /Edieresis /Igrave
/Iacute /Icircumflex /Idieresis /Eth /Ntilde
/Ograve /Oacute /Ocircumflex /Otilde /Odieresis
/multiply /Oslash /Ugrave /Uacute /Ucircumflex
/Udieresis /Yacute /Thorn /germandbls /agrave
/aacute /acircumflex /atilde /adieresis /aring
/ae /ccedilla /egrave /eacute /ecircumflex
/edieresis /igrave /iacute /icircumflex /idieresis
/eth /ntilde /ograve /oacute /ocircumflex
/otilde /odieresis /divide /oslash /ugrave
/uacute /ucircumflex /udieresis /yacute /thorn
/ydieresis
] def
%%EndResource
%FOPBeginFontReencode
/Courier-Oblique findfont
dup length dict begin
  {1 index /FID ne {def} {pop pop} ifelse} forall
  /Encoding WinAnsiEncoding def
  currentdict
end
/Courier-Oblique exch definefont pop
/Courier-BoldOblique findfont
dup length dict begin
  {1 index /FID ne {def} {pop pop} ifelse} forall
  /Encoding WinAnsiEncoding def
  currentdict
end
/Courier-BoldOblique exch definefont pop
/Courier-Bold findfont
dup length dict begin
  {1 index /FID ne {def} {pop pop} ifelse} forall
  /Encoding WinAnsiEncoding def
  currentdict
end
/Courier-Bold exch definefont pop
/Helvetica findfont
dup length dict begin
  {1 index /FID ne {def} {pop pop} ifelse} forall
  /Encoding WinAnsiEncoding def
  currentdict
end
/Helvetica exch definefont pop
/Helvetica-Oblique findfont
dup length dict begin
  {1 index /FID ne {def} {pop pop} ifelse} forall
  /Encoding WinAnsiEncoding def
  currentdict
end
/Helvetica-Oblique exch definefont pop
/Helvetica-Bold findfont
dup length dict begin
  {1 index /FID ne {def} {pop pop} ifelse} forall
  /Encoding WinAnsiEncoding def
  currentdict
end
/Helvetica-Bold exch definefont pop
/Helvetica-BoldOblique findfont
dup length dict begin
  {1 index /FID ne {def} {pop pop} ifelse} forall
  /Encoding WinAnsiEncoding def
  currentdict
end
/Helvetica-BoldOblique exch definefont pop
/Times-Roman findfont
dup length dict begin
  {1 index /FID ne {def} {pop pop} ifelse} forall
  /Encoding WinAnsiEncoding def
  currentdict
end
/Times-Roman exch definefont pop
/Times-Italic findfont
dup length dict begin
  {1 index /FID ne {def} {pop pop} ifelse} forall
  /Encoding WinAnsiEncoding def
  currentdict
end
/Times-Italic exch definefont pop
/Times-Bold findfont
dup length dict begin
  {1 index /FID ne {def} {pop pop} ifelse} forall
  /Encoding WinAnsiEncoding def
  currentdict
end
/Times-Bold exch definefont pop
/Times-BoldItalic findfont
dup length dict begin
  {1 index /FID ne {def} {pop pop} ifelse} forall
  /Encoding WinAnsiEncoding def
  currentdict
end
/Times-BoldItalic exch definefont pop
/Courier findfont
dup length dict begin
  {1 index /FID ne {def} {pop pop} ifelse} forall
  /Encoding WinAnsiEncoding def
  currentdict
end
/Courier exch definefont pop
%FOPEndFontReencode
%%EndProlog
%%Page: 1 1
%%PageBoundingBox: 0 0 420 315
%%BeginPageSetup
[1 0 0 -1 0 315] CT
%%EndPageSetup
GS
[0.6 0 0 0.6 0 0] CT
1 GC
N
0 0 700 525 re
f
GR
GS
[0.6 0 0 0.6 0 0] CT
1 GC
N
0 0 700 525 re
f
GR
GS
[0.6 0 0 0.6 0 0] CT
1 GC
N
106 467 M
634 467 L
634 64 L
106 64 L
cp
f
GR
GS
[0.6 0 0 0.6 0 0] CT
0.749 GC
[1 3] 0 setdash
2 LJ
0.833 LW
N
132.516 467 M
132.516 64 L
S
GR
GS
[0.6 0 0 0.6 0 0] CT
0.749 GC
[1 3] 0 setdash
2 LJ
0.833 LW
N
148.026 467 M
148.026 64 L
S
GR
GS
[0.6 0 0 0.6 0 0] CT
0.749 GC
[1 3] 0 setdash
2 LJ
0.833 LW
N
159.031 467 M
159.031 64 L
S
GR
GS
[0.6 0 0 0.6 0 0] CT
0.749 GC
[1 3] 0 setdash
2 LJ
0.833 LW
N
167.568 467 M
167.568 64 L
S
GR
GS
[0.6 0 0 0.6 0 0] CT
0.749 GC
[1 3] 0 setdash
2 LJ
0.833 LW
N
174.542 467 M
174.542 64 L
S
GR
GS
[0.6 0 0 0.6 0 0] CT
0.749 GC
[1 3] 0 setdash
2 LJ
0.833 LW
N
180.439 467 M
180.439 64 L
S
GR
GS
[0.6 0 0 0.6 0 0] CT
0.749 GC
[1 3] 0 setdash
2 LJ
0.833 LW
N
185.547 467 M
185.547 64 L
S
GR
GS
[0.6 0 0 0.6 0 0] CT
0.749 GC
[1 3] 0 setdash
2 LJ
0.833 LW
N
190.053 467 M
190.053 64 L
S
GR
GS
[0.6 0 0 0.6 0 0] CT
0.749 GC
[1 3] 0 setdash
2 LJ
0.833 LW
N
220.599 467 M
220.599 64 L
S
GR
GS
[0.6 0 0 0.6 0 0] CT
0.749 GC
[1 3] 0 setdash
2 LJ
0.833 LW
N
236.11 467 M
236.11 64 L
S
GR
GS
[0.6 0 0 0.6 0 0] CT
0.749 GC
[1 3] 0 setdash
2 LJ
0.833 LW
N
247.115 467 M
247.115 64 L
S
GR
GS
[0.6 0 0 0.6 0 0] CT
0.749 GC
[1 3] 0 setdash
2 LJ
0.833 LW
N
255.651 467 M
255.651 64 L
S
GR
GS
[0.6 0 0 0.6 0 0] CT
0.749 GC
[1 3] 0 setdash
2 LJ
0.833 LW
N
262.626 467 M
262.626 64 L
S
GR
GS
[0.6 0 0 0.6 0 0] CT
0.749 GC
[1 3] 0 setdash
2 LJ
0.833 LW
N
268.523 467 M
268.523 64 L
S
GR
GS
[0.6 0 0 0.6 0 0] CT
0.749 GC
[1 3] 0 setdash
2 LJ
0.833 LW
N
273.631 467 M
273.631 64 L
S
GR
GS
[0.6 0 0 0.6 0 0] CT
0.749 GC
[1 3] 0 setdash
2 LJ
0.833 LW
N
278.136 467 M
278.136 64 L
S
GR
GS
[0.6 0 0 0.6 0 0] CT
0.749 GC
[1 3] 0 setdash
2 LJ
0.833 LW
N
308.683 467 M
308.683 64 L
S
GR
GS
[0.6 0 0 0.6 0 0] CT
0.749 GC
[1 3] 0 setdash
2 LJ
0.833 LW
N
324.193 467 M
324.193 64 L
S
GR
GS
[0.6 0 0 0.6 0 0] CT
0.749 GC
[1 3] 0 setdash
2 LJ
0.833 LW
N
335.198 467 M
335.198 64 L
S
GR
GS
[0.6 0 0 0.6 0 0] CT
0.749 GC
[1 3] 0 setdash
2 LJ
0.833 LW
N
343.734 467 M
343.734 64 L
S
GR
GS
[0.6 0 0 0.6 0 0] CT
0.749 GC
[1 3] 0 setdash
2 LJ
0.833 LW
N
350.709 467 M
350.709 64 L
S
GR
GS
[0.6 0 0 0.6 0 0] CT
0.749 GC
[1 3] 0 setdash
2 LJ
0.833 LW
N
356.606 467 M
356.606 64 L
S
GR
GS
[0.6 0 0 0.6 0 0] CT
0.749 GC
[1 3] 0 setdash
2 LJ
0.833 LW
N
361.714 467 M
361.714 64 L
S
GR
GS
[0.6 0 0 0.6 0 0] CT
0.749 GC
[1 3] 0 setdash
2 LJ
0.833 LW
N
366.22 467 M
366.22 64 L
S
GR
GS
[0.6 0 0 0.6 0 0] CT
0.749 GC
[1 3] 0 setdash
2 LJ
0.833 LW
N
396.766 467 M
396.766 64 L
S
GR
GS
[0.6 0 0 0.6 0 0] CT
0.749 GC
[1 3] 0 setdash
2 LJ
0.833 LW
N
412.277 467 M
412.277 64 L
S
GR
GS
[0.6 0 0 0.6 0 0] CT
0.749 GC
[1 3] 0 setdash
2 LJ
0.833 LW
N
423.282 467 M
423.282 64 L
S
GR
GS
[0.6 0 0 0.6 0 0] CT
0.749 GC
[1 3] 0 setdash
2 LJ
0.833 LW
N
431.818 467 M
431.818 64 L
S
GR
GS
[0.6 0 0 0.6 0 0] CT
0.749 GC
[1 3] 0 setdash
2 LJ
0.833 LW
N
438.792 467 M
438.792 64 L
S
GR
GS
[0.6 0 0 0.6 0 0] CT
0.749 GC
[1 3] 0 setdash
2 LJ
0.833 LW
N
444.689 467 M
444.689 64 L
S
GR
GS
[0.6 0 0 0.6 0 0] CT
0.749 GC
[1 3] 0 setdash
2 LJ
0.833 LW
N
449.797 467 M
449.797 64 L
S
GR
GS
[0.6 0 0 0.6 0 0] CT
0.749 GC
[1 3] 0 setdash
2 LJ
0.833 LW
N
454.303 467 M
454.303 64 L
S
GR
GS
[0.6 0 0 0.6 0 0] CT
0.749 GC
[1 3] 0 setdash
2 LJ
0.833 LW
N
484.849 467 M
484.849 64 L
S
GR
GS
[0.6 0 0 0.6 0 0] CT
0.749 GC
[1 3] 0 setdash
2 LJ
0.833 LW
N
500.36 467 M
500.36 64 L
S
GR
GS
[0.6 0 0 0.6 0 0] CT
0.749 GC
[1 3] 0 setdash
2 LJ
0.833 LW
N
511.365 467 M
511.365 64 L
S
GR
GS
[0.6 0 0 0.6 0 0] CT
0.749 GC
[1 3] 0 setdash
2 LJ
0.833 LW
N
519.901 467 M
519.901 64 L
S
GR
GS
[0.6 0 0 0.6 0 0] CT
0.749 GC
[1 3] 0 setdash
2 LJ
0.833 LW
N
526.876 467 M
526.876 64 L
S
GR
GS
[0.6 0 0 0.6 0 0] CT
0.749 GC
[1 3] 0 setdash
2 LJ
0.833 LW
N
532.773 467 M
532.773 64 L
S
GR
GS
[0.6 0 0 0.6 0 0] CT
0.749 GC
[1 3] 0 setdash
2 LJ
0.833 LW
N
537.881 467 M
537.881 64 L
S
GR
GS
[0.6 0 0 0.6 0 0] CT
0.749 GC
[1 3] 0 setdash
2 LJ
0.833 LW
N
542.387 467 M
542.387 64 L
S
GR
GS
[0.6 0 0 0.6 0 0] CT
0.749 GC
[1 3] 0 setdash
2 LJ
0.833 LW
N
572.933 467 M
572.933 64 L
S
GR
GS
[0.6 0 0 0.6 0 0] CT
0.749 GC
[1 3] 0 setdash
2 LJ
0.833 LW
N
588.444 467 M
588.444 64 L
S
GR
GS
[0.6 0 0 0.6 0 0] CT
0.749 GC
[1 3] 0 setdash
2 LJ
0.833 LW
N
599.449 467 M
599.449 64 L
S
GR
GS
[0.6 0 0 0.6 0 0] CT
0.749 GC
[1 3] 0 setdash
2 LJ
0.833 LW
N
607.985 467 M
607.985 64 L
S
GR
GS
[0.6 0 0 0.6 0 0] CT
0.749 GC
[1 3] 0 setdash
2 LJ
0.833 LW
N
614.959 467 M
614.959 64 L
S
GR
GS
[0.6 0 0 0.6 0 0] CT
0.749 GC
[1 3] 0 setdash
2 LJ
0.833 LW
N
620.856 467 M
620.856 64 L
S
GR
GS
[0.6 0 0 0.6 0 0] CT
0.749 GC
[1 3] 0 setdash
2 LJ
0.833 LW
N
625.964 467 M
625.964 64 L
S
GR
GS
[0.6 0 0 0.6 0 0] CT
0.749 GC
[1 3] 0 setdash
2 LJ
0.833 LW
N
630.47 467 M
630.47 64 L
S
GR
GS
[0.6 0 0 0.6 0 0] CT
0.873 GC
1 LJ
0.833 LW
N
106 467 M
106 64 L
S
GR
GS
[0.6 0 0 0.6 0 0] CT
0.873 GC
1 LJ
0.833 LW
N
194.083 467 M
194.083 64 L
S
GR
GS
[0.6 0 0 0.6 0 0] CT
0.873 GC
1 LJ
0.833 LW
N
282.167 467 M
282.167 64 L
S
GR
GS
[0.6 0 0 0.6 0 0] CT
0.873 GC
1 LJ
0.833 LW
N
370.25 467 M
370.25 64 L
S
GR
GS
[0.6 0 0 0.6 0 0] CT
0.873 GC
1 LJ
0.833 LW
N
458.334 467 M
458.334 64 L
S
GR
GS
[0.6 0 0 0.6 0 0] CT
0.873 GC
1 LJ
0.833 LW
N
546.417 467 M
546.417 64 L
S
GR
GS
[0.6 0 0 0.6 0 0] CT
0.873 GC
1 LJ
0.833 LW
N
634 467 M
106 467 L
S
GR
GS
[0.6 0 0 0.6 0 0] CT
0.873 GC
1 LJ
0.833 LW
N
634 412.317 M
106 412.317 L
S
GR
GS
[0.6 0 0 0.6 0 0] CT
0.873 GC
1 LJ
0.833 LW
N
634 357.634 M
106 357.634 L
S
GR
GS
[0.6 0 0 0.6 0 0] CT
0.873 GC
1 LJ
0.833 LW
N
634 302.951 M
106 302.951 L
S
GR
GS
[0.6 0 0 0.6 0 0] CT
0.873 GC
1 LJ
0.833 LW
N
634 248.267 M
106 248.267 L
S
GR
GS
[0.6 0 0 0.6 0 0] CT
0.873 GC
1 LJ
0.833 LW
N
634 193.584 M
106 193.584 L
S
GR
GS
[0.6 0 0 0.6 0 0] CT
0.873 GC
1 LJ
0.833 LW
N
634 138.901 M
106 138.901 L
S
GR
GS
[0.6 0 0 0.6 0 0] CT
0.873 GC
1 LJ
0.833 LW
N
634 84.218 M
106 84.218 L
S
GR
GS
[0.6 0 0 0.6 0 0] CT
2 setlinecap
1 LJ
0.833 LW
N
106 467 M
634 467 L
S
GR
GS
[0.6 0 0 0.6 0 0] CT
2 setlinecap
1 LJ
0.833 LW
N
106 64 M
634 64 L
S
GR
GS
[0.6 0 0 0.6 0 0] CT
2 setlinecap
1 LJ
0.833 LW
N
106 467 M
106 461.72 L
S
GR
GS
[0.6 0 0 0.6 0 0] CT
2 setlinecap
1 LJ
0.833 LW
N
194.083 467 M
194.083 461.72 L
S
GR
GS
[0.6 0 0 0.6 0 0] CT
2 setlinecap
1 LJ
0.833 LW
N
282.167 467 M
282.167 461.72 L
S
GR
GS
[0.6 0 0 0.6 0 0] CT
2 setlinecap
1 LJ
0.833 LW
N
370.25 467 M
370.25 461.72 L
S
GR
GS
[0.6 0 0 0.6 0 0] CT
2 setlinecap
1 LJ
0.833 LW
N
458.334 467 M
458.334 461.72 L
S
GR
GS
[0.6 0 0 0.6 0 0] CT
2 setlinecap
1 LJ
0.833 LW
N
546.417 467 M
546.417 461.72 L
S
GR
GS
[0.6 0 0 0.6 0 0] CT
2 setlinecap
1 LJ
0.833 LW
N
106 64 M
106 69.28 L
S
GR
GS
[0.6 0 0 0.6 0 0] CT
2 setlinecap
1 LJ
0.833 LW
N
194.083 64 M
194.083 69.28 L
S
GR
GS
[0.6 0 0 0.6 0 0] CT
2 setlinecap
1 LJ
0.833 LW
N
282.167 64 M
282.167 69.28 L
S
GR
GS
[0.6 0 0 0.6 0 0] CT
2 setlinecap
1 LJ
0.833 LW
N
370.25 64 M
370.25 69.28 L
S
GR
GS
[0.6 0 0 0.6 0 0] CT
2 setlinecap
1 LJ
0.833 LW
N
458.334 64 M
458.334 69.28 L
S
GR
GS
[0.6 0 0 0.6 0 0] CT
2 setlinecap
1 LJ
0.833 LW
N
546.417 64 M
546.417 69.28 L
S
GR
GS
[0.6 0 0 0.6 0 0] CT
2 setlinecap
1 LJ
0.833 LW
N
106 467 M
106 464.36 L
S
GR
GS
[0.6 0 0 0.6 0 0] CT
2 setlinecap
1 LJ
0.833 LW
N
132.516 467 M
132.516 464.36 L
S
GR
GS
[0.6 0 0 0.6 0 0] CT
2 setlinecap
1 LJ
0.833 LW
N
148.026 467 M
148.026 464.36 L
S
GR
GS
[0.6 0 0 0.6 0 0] CT
2 setlinecap
1 LJ
0.833 LW
N
159.031 467 M
159.031 464.36 L
S
GR
GS
[0.6 0 0 0.6 0 0] CT
2 setlinecap
1 LJ
0.833 LW
N
167.568 467 M
167.568 464.36 L
S
GR
GS
[0.6 0 0 0.6 0 0] CT
2 setlinecap
1 LJ
0.833 LW
N
174.542 467 M
174.542 464.36 L
S
GR
GS
[0.6 0 0 0.6 0 0] CT
2 setlinecap
1 LJ
0.833 LW
N
180.439 467 M
180.439 464.36 L
S
GR
GS
[0.6 0 0 0.6 0 0] CT
2 setlinecap
1 LJ
0.833 LW
N
185.547 467 M
185.547 464.36 L
S
GR
GS
[0.6 0 0 0.6 0 0] CT
2 setlinecap
1 LJ
0.833 LW
N
190.053 467 M
190.053 464.36 L
S
GR
GS
[0.6 0 0 0.6 0 0] CT
2 setlinecap
1 LJ
0.833 LW
N
194.083 467 M
194.083 464.36 L
S
GR
GS
[0.6 0 0 0.6 0 0] CT
2 setlinecap
1 LJ
0.833 LW
N
220.599 467 M
220.599 464.36 L
S
GR
GS
[0.6 0 0 0.6 0 0] CT
2 setlinecap
1 LJ
0.833 LW
N
236.11 467 M
236.11 464.36 L
S
GR
GS
[0.6 0 0 0.6 0 0] CT
2 setlinecap
1 LJ
0.833 LW
N
247.115 467 M
247.115 464.36 L
S
GR
GS
[0.6 0 0 0.6 0 0] CT
2 setlinecap
1 LJ
0.833 LW
N
255.651 467 M
255.651 464.36 L
S
GR
GS
[0.6 0 0 0.6 0 0] CT
2 setlinecap
1 LJ
0.833 LW
N
262.626 467 M
262.626 464.36 L
S
GR
GS
[0.6 0 0 0.6 0 0] CT
2 setlinecap
1 LJ
0.833 LW
N
268.523 467 M
268.523 464.36 L
S
GR
GS
[0.6 0 0 0.6 0 0] CT
2 setlinecap
1 LJ
0.833 LW
N
273.631 467 M
273.631 464.36 L
S
GR
GS
[0.6 0 0 0.6 0 0] CT
2 setlinecap
1 LJ
0.833 LW
N
278.136 467 M
278.136 464.36 L
S
GR
GS
[0.6 0 0 0.6 0 0] CT
2 setlinecap
1 LJ
0.833 LW
N
282.167 467 M
282.167 464.36 L
S
GR
GS
[0.6 0 0 0.6 0 0] CT
2 setlinecap
1 LJ
0.833 LW
N
308.683 467 M
308.683 464.36 L
S
GR
GS
[0.6 0 0 0.6 0 0] CT
2 setlinecap
1 LJ
0.833 LW
N
324.193 467 M
324.193 464.36 L
S
GR
GS
[0.6 0 0 0.6 0 0] CT
2 setlinecap
1 LJ
0.833 LW
N
335.198 467 M
335.198 464.36 L
S
GR
GS
[0.6 0 0 0.6 0 0] CT
2 setlinecap
1 LJ
0.833 LW
N
343.734 467 M
343.734 464.36 L
S
GR
GS
[0.6 0 0 0.6 0 0] CT
2 setlinecap
1 LJ
0.833 LW
N
350.709 467 M
350.709 464.36 L
S
GR
GS
[0.6 0 0 0.6 0 0] CT
2 setlinecap
1 LJ
0.833 LW
N
356.606 467 M
356.606 464.36 L
S
GR
GS
[0.6 0 0 0.6 0 0] CT
2 setlinecap
1 LJ
0.833 LW
N
361.714 467 M
361.714 464.36 L
S
GR
GS
[0.6 0 0 0.6 0 0] CT
2 setlinecap
1 LJ
0.833 LW
N
366.22 467 M
366.22 464.36 L
S
GR
GS
[0.6 0 0 0.6 0 0] CT
2 setlinecap
1 LJ
0.833 LW
N
370.25 467 M
370.25 464.36 L
S
GR
GS
[0.6 0 0 0.6 0 0] CT
2 setlinecap
1 LJ
0.833 LW
N
396.766 467 M
396.766 464.36 L
S
GR
GS
[0.6 0 0 0.6 0 0] CT
2 setlinecap
1 LJ
0.833 LW
N
412.277 467 M
412.277 464.36 L
S
GR
GS
[0.6 0 0 0.6 0 0] CT
2 setlinecap
1 LJ
0.833 LW
N
423.282 467 M
423.282 464.36 L
S
GR
GS
[0.6 0 0 0.6 0 0] CT
2 setlinecap
1 LJ
0.833 LW
N
431.818 467 M
431.818 464.36 L
S
GR
GS
[0.6 0 0 0.6 0 0] CT
2 setlinecap
1 LJ
0.833 LW
N
438.792 467 M
438.792 464.36 L
S
GR
GS
[0.6 0 0 0.6 0 0] CT
2 setlinecap
1 LJ
0.833 LW
N
444.689 467 M
444.689 464.36 L
S
GR
GS
[0.6 0 0 0.6 0 0] CT
2 setlinecap
1 LJ
0.833 LW
N
449.797 467 M
449.797 464.36 L
S
GR
GS
[0.6 0 0 0.6 0 0] CT
2 setlinecap
1 LJ
0.833 LW
N
454.303 467 M
454.303 464.36 L
S
GR
GS
[0.6 0 0 0.6 0 0] CT
2 setlinecap
1 LJ
0.833 LW
N
458.334 467 M
458.334 464.36 L
S
GR
GS
[0.6 0 0 0.6 0 0] CT
2 setlinecap
1 LJ
0.833 LW
N
484.849 467 M
484.849 464.36 L
S
GR
GS
[0.6 0 0 0.6 0 0] CT
2 setlinecap
1 LJ
0.833 LW
N
500.36 467 M
500.36 464.36 L
S
GR
GS
[0.6 0 0 0.6 0 0] CT
2 setlinecap
1 LJ
0.833 LW
N
511.365 467 M
511.365 464.36 L
S
GR
GS
[0.6 0 0 0.6 0 0] CT
2 setlinecap
1 LJ
0.833 LW
N
519.901 467 M
519.901 464.36 L
S
GR
GS
[0.6 0 0 0.6 0 0] CT
2 setlinecap
1 LJ
0.833 LW
N
526.876 467 M
526.876 464.36 L
S
GR
GS
[0.6 0 0 0.6 0 0] CT
2 setlinecap
1 LJ
0.833 LW
N
532.773 467 M
532.773 464.36 L
S
GR
GS
[0.6 0 0 0.6 0 0] CT
2 setlinecap
1 LJ
0.833 LW
N
537.881 467 M
537.881 464.36 L
S
GR
GS
[0.6 0 0 0.6 0 0] CT
2 setlinecap
1 LJ
0.833 LW
N
542.387 467 M
542.387 464.36 L
S
GR
GS
[0.6 0 0 0.6 0 0] CT
2 setlinecap
1 LJ
0.833 LW
N
546.417 467 M
546.417 464.36 L
S
GR
GS
[0.6 0 0 0.6 0 0] CT
2 setlinecap
1 LJ
0.833 LW
N
572.933 467 M
572.933 464.36 L
S
GR
GS
[0.6 0 0 0.6 0 0] CT
2 setlinecap
1 LJ
0.833 LW
N
588.444 467 M
588.444 464.36 L
S
GR
GS
[0.6 0 0 0.6 0 0] CT
2 setlinecap
1 LJ
0.833 LW
N
599.449 467 M
599.449 464.36 L
S
GR
GS
[0.6 0 0 0.6 0 0] CT
2 setlinecap
1 LJ
0.833 LW
N
607.985 467 M
607.985 464.36 L
S
GR
GS
[0.6 0 0 0.6 0 0] CT
2 setlinecap
1 LJ
0.833 LW
N
614.959 467 M
614.959 464.36 L
S
GR
GS
[0.6 0 0 0.6 0 0] CT
2 setlinecap
1 LJ
0.833 LW
N
620.856 467 M
620.856 464.36 L
S
GR
GS
[0.6 0 0 0.6 0 0] CT
2 setlinecap
1 LJ
0.833 LW
N
625.964 467 M
625.964 464.36 L
S
GR
GS
[0.6 0 0 0.6 0 0] CT
2 setlinecap
1 LJ
0.833 LW
N
630.47 467 M
630.47 464.36 L
S
GR
GS
[0.6 0 0 0.6 0 0] CT
2 setlinecap
1 LJ
0.833 LW
N
106 64 M
106 66.64 L
S
GR
GS
[0.6 0 0 0.6 0 0] CT
2 setlinecap
1 LJ
0.833 LW
N
132.516 64 M
132.516 66.64 L
S
GR
GS
[0.6 0 0 0.6 0 0] CT
2 setlinecap
1 LJ
0.833 LW
N
148.026 64 M
148.026 66.64 L
S
GR
GS
[0.6 0 0 0.6 0 0] CT
2 setlinecap
1 LJ
0.833 LW
N
159.031 64 M
159.031 66.64 L
S
GR
GS
[0.6 0 0 0.6 0 0] CT
2 setlinecap
1 LJ
0.833 LW
N
167.568 64 M
167.568 66.64 L
S
GR
GS
[0.6 0 0 0.6 0 0] CT
2 setlinecap
1 LJ
0.833 LW
N
174.542 64 M
174.542 66.64 L
S
GR
GS
[0.6 0 0 0.6 0 0] CT
2 setlinecap
1 LJ
0.833 LW
N
180.439 64 M
180.439 66.64 L
S
GR
GS
[0.6 0 0 0.6 0 0] CT
2 setlinecap
1 LJ
0.833 LW
N
185.547 64 M
185.547 66.64 L
S
GR
GS
[0.6 0 0 0.6 0 0] CT
2 setlinecap
1 LJ
0.833 LW
N
190.053 64 M
190.053 66.64 L
S
GR
GS
[0.6 0 0 0.6 0 0] CT
2 setlinecap
1 LJ
0.833 LW
N
194.083 64 M
194.083 66.64 L
S
GR
GS
[0.6 0 0 0.6 0 0] CT
2 setlinecap
1 LJ
0.833 LW
N
220.599 64 M
220.599 66.64 L
S
GR
GS
[0.6 0 0 0.6 0 0] CT
2 setlinecap
1 LJ
0.833 LW
N
236.11 64 M
236.11 66.64 L
S
GR
GS
[0.6 0 0 0.6 0 0] CT
2 setlinecap
1 LJ
0.833 LW
N
247.115 64 M
247.115 66.64 L
S
GR
GS
[0.6 0 0 0.6 0 0] CT
2 setlinecap
1 LJ
0.833 LW
N
255.651 64 M
255.651 66.64 L
S
GR
GS
[0.6 0 0 0.6 0 0] CT
2 setlinecap
1 LJ
0.833 LW
N
262.626 64 M
262.626 66.64 L
S
GR
GS
[0.6 0 0 0.6 0 0] CT
2 setlinecap
1 LJ
0.833 LW
N
268.523 64 M
268.523 66.64 L
S
GR
GS
[0.6 0 0 0.6 0 0] CT
2 setlinecap
1 LJ
0.833 LW
N
273.631 64 M
273.631 66.64 L
S
GR
GS
[0.6 0 0 0.6 0 0] CT
2 setlinecap
1 LJ
0.833 LW
N
278.136 64 M
278.136 66.64 L
S
GR
GS
[0.6 0 0 0.6 0 0] CT
2 setlinecap
1 LJ
0.833 LW
N
282.167 64 M
282.167 66.64 L
S
GR
GS
[0.6 0 0 0.6 0 0] CT
2 setlinecap
1 LJ
0.833 LW
N
308.683 64 M
308.683 66.64 L
S
GR
GS
[0.6 0 0 0.6 0 0] CT
2 setlinecap
1 LJ
0.833 LW
N
324.193 64 M
324.193 66.64 L
S
GR
GS
[0.6 0 0 0.6 0 0] CT
2 setlinecap
1 LJ
0.833 LW
N
335.198 64 M
335.198 66.64 L
S
GR
GS
[0.6 0 0 0.6 0 0] CT
2 setlinecap
1 LJ
0.833 LW
N
343.734 64 M
343.734 66.64 L
S
GR
GS
[0.6 0 0 0.6 0 0] CT
2 setlinecap
1 LJ
0.833 LW
N
350.709 64 M
350.709 66.64 L
S
GR
GS
[0.6 0 0 0.6 0 0] CT
2 setlinecap
1 LJ
0.833 LW
N
356.606 64 M
356.606 66.64 L
S
GR
GS
[0.6 0 0 0.6 0 0] CT
2 setlinecap
1 LJ
0.833 LW
N
361.714 64 M
361.714 66.64 L
S
GR
GS
[0.6 0 0 0.6 0 0] CT
2 setlinecap
1 LJ
0.833 LW
N
366.22 64 M
366.22 66.64 L
S
GR
GS
[0.6 0 0 0.6 0 0] CT
2 setlinecap
1 LJ
0.833 LW
N
370.25 64 M
370.25 66.64 L
S
GR
GS
[0.6 0 0 0.6 0 0] CT
2 setlinecap
1 LJ
0.833 LW
N
396.766 64 M
396.766 66.64 L
S
GR
GS
[0.6 0 0 0.6 0 0] CT
2 setlinecap
1 LJ
0.833 LW
N
412.277 64 M
412.277 66.64 L
S
GR
GS
[0.6 0 0 0.6 0 0] CT
2 setlinecap
1 LJ
0.833 LW
N
423.282 64 M
423.282 66.64 L
S
GR
GS
[0.6 0 0 0.6 0 0] CT
2 setlinecap
1 LJ
0.833 LW
N
431.818 64 M
431.818 66.64 L
S
GR
GS
[0.6 0 0 0.6 0 0] CT
2 setlinecap
1 LJ
0.833 LW
N
438.792 64 M
438.792 66.64 L
S
GR
GS
[0.6 0 0 0.6 0 0] CT
2 setlinecap
1 LJ
0.833 LW
N
444.689 64 M
444.689 66.64 L
S
GR
GS
[0.6 0 0 0.6 0 0] CT
2 setlinecap
1 LJ
0.833 LW
N
449.797 64 M
449.797 66.64 L
S
GR
GS
[0.6 0 0 0.6 0 0] CT
2 setlinecap
1 LJ
0.833 LW
N
454.303 64 M
454.303 66.64 L
S
GR
GS
[0.6 0 0 0.6 0 0] CT
2 setlinecap
1 LJ
0.833 LW
N
458.334 64 M
458.334 66.64 L
S
GR
GS
[0.6 0 0 0.6 0 0] CT
2 setlinecap
1 LJ
0.833 LW
N
484.849 64 M
484.849 66.64 L
S
GR
GS
[0.6 0 0 0.6 0 0] CT
2 setlinecap
1 LJ
0.833 LW
N
500.36 64 M
500.36 66.64 L
S
GR
GS
[0.6 0 0 0.6 0 0] CT
2 setlinecap
1 LJ
0.833 LW
N
511.365 64 M
511.365 66.64 L
S
GR
GS
[0.6 0 0 0.6 0 0] CT
2 setlinecap
1 LJ
0.833 LW
N
519.901 64 M
519.901 66.64 L
S
GR
GS
[0.6 0 0 0.6 0 0] CT
2 setlinecap
1 LJ
0.833 LW
N
526.876 64 M
526.876 66.64 L
S
GR
GS
[0.6 0 0 0.6 0 0] CT
2 setlinecap
1 LJ
0.833 LW
N
532.773 64 M
532.773 66.64 L
S
GR
GS
[0.6 0 0 0.6 0 0] CT
2 setlinecap
1 LJ
0.833 LW
N
537.881 64 M
537.881 66.64 L
S
GR
GS
[0.6 0 0 0.6 0 0] CT
2 setlinecap
1 LJ
0.833 LW
N
542.387 64 M
542.387 66.64 L
S
GR
GS
[0.6 0 0 0.6 0 0] CT
2 setlinecap
1 LJ
0.833 LW
N
546.417 64 M
546.417 66.64 L
S
GR
GS
[0.6 0 0 0.6 0 0] CT
2 setlinecap
1 LJ
0.833 LW
N
572.933 64 M
572.933 66.64 L
S
GR
GS
[0.6 0 0 0.6 0 0] CT
2 setlinecap
1 LJ
0.833 LW
N
588.444 64 M
588.444 66.64 L
S
GR
GS
[0.6 0 0 0.6 0 0] CT
2 setlinecap
1 LJ
0.833 LW
N
599.449 64 M
599.449 66.64 L
S
GR
GS
[0.6 0 0 0.6 0 0] CT
2 setlinecap
1 LJ
0.833 LW
N
607.985 64 M
607.985 66.64 L
S
GR
GS
[0.6 0 0 0.6 0 0] CT
2 setlinecap
1 LJ
0.833 LW
N
614.959 64 M
614.959 66.64 L
S
GR
GS
[0.6 0 0 0.6 0 0] CT
2 setlinecap
1 LJ
0.833 LW
N
620.856 64 M
620.856 66.64 L
S
GR
GS
[0.6 0 0 0.6 0 0] CT
2 setlinecap
1 LJ
0.833 LW
N
625.964 64 M
625.964 66.64 L
S
GR
GS
[0.6 0 0 0.6 0 0] CT
2 setlinecap
1 LJ
0.833 LW
N
630.47 64 M
630.47 66.64 L
S
GR
GS
[0.6 0 0 0.6 55.8 292.2] CT
/Helvetica 13.333 F
GS
[1 0 0 1 0 0] CT
0 0 moveto 
1 -1 scale
(10) t 
GR
GR
GS
[0.6 0 0 0.6 64.8 288.6] CT
/Helvetica 10.667 F
GS
[1 0 0 1 0 0] CT
0 0 moveto 
1 -1 scale
(-4) t 
GR
GR
GS
[0.6 0 0 0.6 108.6 292.2] CT
/Helvetica 13.333 F
GS
[1 0 0 1 0 0] CT
0 0 moveto 
1 -1 scale
(10) t 
GR
GR
GS
[0.6 0 0 0.6 117.6 288.6] CT
/Helvetica 10.667 F
GS
[1 0 0 1 0 0] CT
0 0 moveto 
1 -1 scale
(-3) t 
GR
GR
GS
[0.6 0 0 0.6 161.4 292.2] CT
/Helvetica 13.333 F
GS
[1 0 0 1 0 0] CT
0 0 moveto 
1 -1 scale
(10) t 
GR
GR
GS
[0.6 0 0 0.6 170.4 288.6] CT
/Helvetica 10.667 F
GS
[1 0 0 1 0 0] CT
0 0 moveto 
1 -1 scale
(-2) t 
GR
GR
GS
[0.6 0 0 0.6 214.2 292.2] CT
/Helvetica 13.333 F
GS
[1 0 0 1 0 0] CT
0 0 moveto 
1 -1 scale
(10) t 
GR
GR
GS
[0.6 0 0 0.6 223.2 288.6] CT
/Helvetica 10.667 F
GS
[1 0 0 1 0 0] CT
0 0 moveto 
1 -1 scale
(-1) t 
GR
GR
GS
[0.6 0 0 0.6 268.2 292.2] CT
/Helvetica 13.333 F
GS
[1 0 0 1 0 0] CT
0 0 moveto 
1 -1 scale
(10) t 
GR
GR
GS
[0.6 0 0 0.6 277.2 288.6] CT
/Helvetica 10.667 F
GS
[1 0 0 1 0 0] CT
0 0 moveto 
1 -1 scale
(0) t 
GR
GR
GS
[0.6 0 0 0.6 321 292.2] CT
/Helvetica 13.333 F
GS
[1 0 0 1 0 0] CT
0 0 moveto 
1 -1 scale
(10) t 
GR
GR
GS
[0.6 0 0 0.6 330 288.6] CT
/Helvetica 10.667 F
GS
[1 0 0 1 0 0] CT
0 0 moveto 
1 -1 scale
(1) t 
GR
GR
GS
[0.6 0 0 0.6 0 0] CT
2 setlinecap
1 LJ
0.833 LW
N
106 467 M
106 64 L
S
GR
GS
[0.6 0 0 0.6 0 0] CT
2 setlinecap
1 LJ
0.833 LW
N
634 467 M
634 64 L
S
GR
GS
[0.6 0 0 0.6 0 0] CT
2 setlinecap
1 LJ
0.833 LW
N
106 467 M
111.28 467 L
S
GR
GS
[0.6 0 0 0.6 0 0] CT
2 setlinecap
1 LJ
0.833 LW
N
106 412.317 M
111.28 412.317 L
S
GR
GS
[0.6 0 0 0.6 0 0] CT
2 setlinecap
1 LJ
0.833 LW
N
106 357.634 M
111.28 357.634 L
S
GR
GS
[0.6 0 0 0.6 0 0] CT
2 setlinecap
1 LJ
0.833 LW
N
106 302.951 M
111.28 302.951 L
S
GR
GS
[0.6 0 0 0.6 0 0] CT
2 setlinecap
1 LJ
0.833 LW
N
106 248.267 M
111.28 248.267 L
S
GR
GS
[0.6 0 0 0.6 0 0] CT
2 setlinecap
1 LJ
0.833 LW
N
106 193.584 M
111.28 193.584 L
S
GR
GS
[0.6 0 0 0.6 0 0] CT
2 setlinecap
1 LJ
0.833 LW
N
106 138.901 M
111.28 138.901 L
S
GR
GS
[0.6 0 0 0.6 0 0] CT
2 setlinecap
1 LJ
0.833 LW
N
106 84.218 M
111.28 84.218 L
S
GR
GS
[0.6 0 0 0.6 0 0] CT
2 setlinecap
1 LJ
0.833 LW
N
634 467 M
628.72 467 L
S
GR
GS
[0.6 0 0 0.6 0 0] CT
2 setlinecap
1 LJ
0.833 LW
N
634 412.317 M
628.72 412.317 L
S
GR
GS
[0.6 0 0 0.6 0 0] CT
2 setlinecap
1 LJ
0.833 LW
N
634 357.634 M
628.72 357.634 L
S
GR
GS
[0.6 0 0 0.6 0 0] CT
2 setlinecap
1 LJ
0.833 LW
N
634 302.951 M
628.72 302.951 L
S
GR
GS
[0.6 0 0 0.6 0 0] CT
2 setlinecap
1 LJ
0.833 LW
N
634 248.267 M
628.72 248.267 L
S
GR
GS
[0.6 0 0 0.6 0 0] CT
2 setlinecap
1 LJ
0.833 LW
N
634 193.584 M
628.72 193.584 L
S
GR
GS
[0.6 0 0 0.6 0 0] CT
2 setlinecap
1 LJ
0.833 LW
N
634 138.901 M
628.72 138.901 L
S
GR
GS
[0.6 0 0 0.6 0 0] CT
2 setlinecap
1 LJ
0.833 LW
N
634 84.218 M
628.72 84.218 L
S
GR
GS
[0.6 0 0 0.6 62 280.2] CT
/Helvetica 13.333 F
GS
[1 0 0 1 0 0] CT
-8 5.5 moveto 
1 -1 scale
(0) t 
GR
GR
GS
[0.6 0 0 0.6 62 247.3901] CT
/Helvetica 13.333 F
GS
[1 0 0 1 0 0] CT
-8 5.5 moveto 
1 -1 scale
(1) t 
GR
GR
GS
[0.6 0 0 0.6 62 214.5802] CT
/Helvetica 13.333 F
GS
[1 0 0 1 0 0] CT
-8 5.5 moveto 
1 -1 scale
(2) t 
GR
GR
GS
[0.6 0 0 0.6 62 181.7703] CT
/Helvetica 13.333 F
GS
[1 0 0 1 0 0] CT
-8 5.5 moveto 
1 -1 scale
(3) t 
GR
GR
GS
[0.6 0 0 0.6 62 148.9604] CT
/Helvetica 13.333 F
GS
[1 0 0 1 0 0] CT
-8 5.5 moveto 
1 -1 scale
(4) t 
GR
GR
GS
[0.6 0 0 0.6 62 116.1505] CT
/Helvetica 13.333 F
GS
[1 0 0 1 0 0] CT
-8 5.5 moveto 
1 -1 scale
(5) t 
GR
GR
GS
[0.6 0 0 0.6 62 83.34061] CT
/Helvetica 13.333 F
GS
[1 0 0 1 0 0] CT
-8 5.5 moveto 
1 -1 scale
(6) t 
GR
GR
GS
[0.6 0 0 0.6 62 50.53071] CT
/Helvetica 13.333 F
GS
[1 0 0 1 0 0] CT
-8 5.5 moveto 
1 -1 scale
(7) t 
GR
GR
GS
[0 -0.6 0.6 0 56.2 159.29989] CT
/Helvetica 13.333 F
GS
[1 0 0 1 0 0] CT
-48.5 -3 moveto 
1 -1 scale
(Magnitude \(abs\)) t 
GR
GR
GS
[0.6 0 0 0.6 0 0] CT
1 0 0 RC
1 LJ
0.833 LW
N
106 370.981 M
111.338 370.855 L
116.677 370.759 L
122.015 370.687 L
127.354 370.632 L
132.692 370.59 L
138.03 370.559 L
143.369 370.535 L
148.707 370.517 L
154.046 370.503 L
159.384 370.493 L
164.722 370.485 L
170.061 370.48 L
175.399 370.476 L
180.737 370.473 L
186.076 370.471 L
191.414 370.47 L
196.753 370.47 L
202.091 370.471 L
207.429 370.472 L
212.768 370.474 L
218.106 370.478 L
223.445 370.483 L
228.783 370.49 L
234.121 370.499 L
239.46 370.511 L
244.798 370.527 L
250.136 370.548 L
255.475 370.575 L
260.813 370.612 L
266.152 370.661 L
271.49 370.724 L
276.828 370.807 L
282.167 370.916 L
287.505 371.058 L
292.844 371.242 L
298.182 371.48 L
303.52 371.785 L
308.859 372.172 L
314.197 372.659 L
319.536 373.263 L
324.874 374.003 L
330.212 374.892 L
335.551 375.941 L
340.889 377.152 L
346.227 378.521 L
351.566 380.029 L
356.904 381.643 L
362.243 383.314 L
367.581 384.979 L
372.919 386.559 L
378.258 387.978 L
383.596 389.174 L
388.935 390.109 L
394.273 390.775 L
399.611 391.183 L
404.95 391.347 L
410.288 391.274 L
415.627 390.966 L
420.965 390.429 L
426.303 389.707 L
431.642 388.92 L
436.98 388.28 L
442.318 387.987 L
447.657 387.975 L
452.995 387.728 L
458.334 386.495 L
463.672 383.664 L
469.01 378.806 L
474.349 371.359 L
479.687 360.855 L
485.026 350.149 L
490.364 339.798 L
495.702 326.634 L
501.041 310.19 L
506.379 290.427 L
511.718 267.115 L
517.056 239.879 L
522.394 208.238 L
527.733 171.619 L
533.071 129.362 L
538.409 80.715 L
540.011 63.952 L
S
GR
GS
[0.6 0 0 0.6 0 0] CT
0 0 1 RC
1 LJ
0.833 LW
N
106 456.063 M
111.338 456.063 L
116.677 456.063 L
122.015 456.063 L
127.354 456.063 L
132.692 456.063 L
138.03 456.063 L
143.369 456.063 L
148.707 456.063 L
154.046 456.063 L
159.384 456.063 L
164.722 456.063 L
170.061 456.063 L
175.399 456.063 L
180.737 456.063 L
186.076 456.063 L
191.414 456.063 L
196.753 456.063 L
202.091 456.063 L
207.429 456.063 L
212.768 456.063 L
218.106 456.062 L
223.445 456.062 L
228.783 456.061 L
234.121 456.061 L
239.46 456.06 L
244.798 456.059 L
250.136 456.058 L
255.475 456.056 L
260.813 456.053 L
266.152 456.05 L
271.49 456.046 L
276.828 456.04 L
282.167 456.033 L
287.505 456.023 L
292.844 456.011 L
298.182 455.994 L
303.52 455.971 L
308.859 455.942 L
314.197 455.903 L
319.536 455.852 L
324.874 455.785 L
330.212 455.697 L
335.551 455.582 L
340.889 455.432 L
346.227 455.236 L
351.566 454.981 L
356.904 454.65 L
362.243 454.224 L
367.581 453.677 L
372.919 452.979 L
378.258 452.097 L
383.596 450.995 L
388.935 449.635 L
394.273 447.979 L
399.611 445.996 L
404.95 443.653 L
410.288 440.923 L
415.627 437.777 L
420.965 434.208 L
426.303 430.263 L
431.642 426.148 L
436.98 422.333 L
442.318 419.574 L
447.657 418.608 L
452.995 419.628 L
458.334 422.13 L
463.672 425.32 L
469.01 428.551 L
474.349 431.412 L
479.687 433.634 L
485.026 436.736 L
490.364 441.372 L
495.702 445.755 L
501.041 449.48 L
506.379 452.571 L
511.718 455.097 L
517.056 457.142 L
522.394 458.795 L
527.733 460.135 L
533.071 461.227 L
538.409 462.123 L
543.748 462.863 L
549.086 463.478 L
554.425 463.992 L
559.763 464.424 L
565.101 464.787 L
570.44 465.093 L
575.778 465.352 L
581.117 465.571 L
586.455 465.754 L
591.793 465.907 L
597.132 466.035 L
602.47 466.141 L
607.809 466.232 L
613.147 466.309 L
618.485 466.376 L
623.824 466.435 L
629.162 466.488 L
634.063 466.532 L
S
GR
GS
[0.6 0 0 0.6 0 0] CT
1 LJ
0.833 LW
N
106 366.888 M
111.338 366.763 L
116.677 366.669 L
122.015 366.597 L
127.354 366.542 L
132.692 366.501 L
138.03 366.47 L
143.369 366.446 L
148.707 366.428 L
154.046 366.415 L
159.384 366.405 L
164.722 366.398 L
170.061 366.392 L
175.399 366.388 L
180.737 366.385 L
186.076 366.384 L
191.414 366.383 L
196.753 366.383 L
202.091 366.384 L
207.429 366.386 L
212.768 366.389 L
218.106 366.393 L
223.445 366.399 L
228.783 366.406 L
234.121 366.417 L
239.46 366.431 L
244.798 366.449 L
250.136 366.474 L
255.475 366.506 L
260.813 366.549 L
266.152 366.605 L
271.49 366.679 L
276.828 366.775 L
282.167 366.901 L
287.505 367.065 L
292.844 367.277 L
298.182 367.549 L
303.52 367.896 L
308.859 368.335 L
314.197 368.881 L
319.536 369.552 L
324.874 370.362 L
330.212 371.317 L
335.551 372.42 L
340.889 373.655 L
346.227 374.997 L
351.566 376.402 L
356.904 377.803 L
362.243 379.11 L
367.581 380.223 L
372.919 381.036 L
378.258 381.461 L
383.596 381.464 L
388.935 381.511 L
394.273 380.927 L
399.611 380.167 L
404.95 379.26 L
410.288 377.612 L
415.627 374.217 L
420.965 369.335 L
426.303 362.757 L
431.642 355.714 L
436.98 348.366 L
442.318 342.255 L
447.657 338.885 L
452.995 338.573 L
458.334 340.091 L
463.672 341.482 L
469.01 340.964 L
474.349 337.113 L
479.687 329.806 L
485.026 324.285 L
490.364 320.629 L
495.702 311.635 L
501.041 297.929 L
506.379 280.188 L
511.718 258.493 L
517.056 231.534 L
522.394 201.092 L
527.733 165.481 L
533.071 124.075 L
538.409 76.151 L
539.588 63.952 L
S
GR
GS
[0.6 0 0 0.6 0 0] CT
1 GC
N
621 135 M
621 77 L
428 77 L
428 135 L
cp
f
GR
GS
[0.6 0 0 0.6 292.09572 52.88646] CT
/Helvetica 13.333 F
GS
[1 0 0 1 0 0] CT
0 5.5 moveto 
1 -1 scale
(Nominal Performance) t 
GR
GR
GS
[0.6 0 0 0.6 0 0] CT
1 0 0 RC
1 LJ
0.833 LW
N
433.007 88.144 M
483.071 88.144 L
S
GR
GS
[0.6 0 0 0.6 292.09572 63.6] CT
/Helvetica 13.333 F
GS
[1 0 0 1 0 0] CT
0 5.5 moveto 
1 -1 scale
(Robust Stability) t 
GR
GR
GS
[0.6 0 0 0.6 0 0] CT
0 0 1 RC
1 LJ
0.833 LW
N
433.007 106 M
483.071 106 L
S
GR
GS
[0.6 0 0 0.6 292.09572 74.31354] CT
/Helvetica 13.333 F
GS
[1 0 0 1 0 0] CT
0 5.5 moveto 
1 -1 scale
(Robust Performance) t 
GR
GR
GS
[0.6 0 0 0.6 0 0] CT
1 LJ
0.833 LW
N
433.007 123.856 M
483.071 123.856 L
S
GR
GS
[0.6 0 0 0.6 0 0] CT
0.149 GC
10.0 ML
0.833 LW
N
428 135 M
428 77 L
621 77 L
621 135 L
cp
S
GR
GS
[0.6 0 0 0.6 221.1 33.225] CT
/Helvetica 13.333 F
GS
[1 0 0 1 0 0] CT
-112 -3 moveto 
1 -1 scale
(Mu analysis of diagonal PID controller) t 
GR
GR
GS
[0.6 0 0 0.6 221.1 292.29999] CT
/Helvetica 13.333 F
GS
[1 0 0 1 0 0] CT
-83 14 moveto 
1 -1 scale
(Frequency \(rad/min\)  \(rad/s\)) t 
GR
GR
%%Trailer
%%Pages: 1
%%EOF
