%!PS-Adobe-3.0 EPSF-3.0
%%Creator: (MATLAB, The Mathworks, Inc. Version 9.5.0.1033004 \(R2018b\) Update 2. Operating System: Windows 10)
%%Title: C:/Users/super/Desktop/column/report/img/mu_an_mu_1dof.eps
%%CreationDate: 2019-02-27T19:11:38
%%Pages: (atend)
%%BoundingBox: 0 0 420 315
%%LanguageLevel: 3
%%EndComments
%%BeginProlog
%%BeginResource: procset (Apache XML Graphics Std ProcSet) 1.2 0
%%Version: 1.2 0
%%Copyright: (Copyright 2001-2003,2010 The Apache Software Foundation. License terms: http://www.apache.org/licenses/LICENSE-2.0)
/bd{bind def}bind def
/ld{load def}bd
/GR/grestore ld
/GS/gsave ld
/RM/rmoveto ld
/C/curveto ld
/t/show ld
/L/lineto ld
/ML/setmiterlimit ld
/CT/concat ld
/f/fill ld
/N/newpath ld
/S/stroke ld
/CC/setcmykcolor ld
/A/ashow ld
/cp/closepath ld
/RC/setrgbcolor ld
/LJ/setlinejoin ld
/GC/setgray ld
/LW/setlinewidth ld
/M/moveto ld
/re {4 2 roll M
1 index 0 rlineto
0 exch rlineto
neg 0 rlineto
cp } bd
/_ctm matrix def
/_tm matrix def
/BT { _ctm currentmatrix pop matrix _tm copy pop 0 0 moveto } bd
/ET { _ctm setmatrix } bd
/iTm { _ctm setmatrix _tm concat } bd
/Tm { _tm astore pop iTm 0 0 moveto } bd
/ux 0.0 def
/uy 0.0 def
/F {
  /Tp exch def
  /Tf exch def
  Tf findfont Tp scalefont setfont
  /cf Tf def  /cs Tp def
} bd
/ULS {currentpoint /uy exch def /ux exch def} bd
/ULE {
  /Tcx currentpoint pop def
  gsave
  newpath
  cf findfont cs scalefont dup
  /FontMatrix get 0 get /Ts exch def /FontInfo get dup
  /UnderlinePosition get Ts mul /To exch def
  /UnderlineThickness get Ts mul /Tt exch def
  ux uy To add moveto  Tcx uy To add lineto
  Tt setlinewidth stroke
  grestore
} bd
/OLE {
  /Tcx currentpoint pop def
  gsave
  newpath
  cf findfont cs scalefont dup
  /FontMatrix get 0 get /Ts exch def /FontInfo get dup
  /UnderlinePosition get Ts mul /To exch def
  /UnderlineThickness get Ts mul /Tt exch def
  ux uy To add cs add moveto Tcx uy To add cs add lineto
  Tt setlinewidth stroke
  grestore
} bd
/SOE {
  /Tcx currentpoint pop def
  gsave
  newpath
  cf findfont cs scalefont dup
  /FontMatrix get 0 get /Ts exch def /FontInfo get dup
  /UnderlinePosition get Ts mul /To exch def
  /UnderlineThickness get Ts mul /Tt exch def
  ux uy To add cs 10 mul 26 idiv add moveto Tcx uy To add cs 10 mul 26 idiv add lineto
  Tt setlinewidth stroke
  grestore
} bd
/QT {
/Y22 exch store
/X22 exch store
/Y21 exch store
/X21 exch store
currentpoint
/Y21 load 2 mul add 3 div exch
/X21 load 2 mul add 3 div exch
/X21 load 2 mul /X22 load add 3 div
/Y21 load 2 mul /Y22 load add 3 div
/X22 load /Y22 load curveto
} bd
/SSPD {
dup length /d exch dict def
{
/v exch def
/k exch def
currentpagedevice k known {
/cpdv currentpagedevice k get def
v cpdv ne {
/upd false def
/nullv v type /nulltype eq def
/nullcpdv cpdv type /nulltype eq def
nullv nullcpdv or
{
/upd true def
} {
/sametype v type cpdv type eq def
sametype {
v type /arraytype eq {
/vlen v length def
/cpdvlen cpdv length def
vlen cpdvlen eq {
0 1 vlen 1 sub {
/i exch def
/obj v i get def
/cpdobj cpdv i get def
obj cpdobj ne {
/upd true def
exit
} if
} for
} {
/upd true def
} ifelse
} {
v type /dicttype eq {
v {
/dv exch def
/dk exch def
/cpddv cpdv dk get def
dv cpddv ne {
/upd true def
exit
} if
} forall
} {
/upd true def
} ifelse
} ifelse
} if
} ifelse
upd true eq {
d k v put
} if
} if
} if
} forall
d length 0 gt {
d setpagedevice
} if
} bd
/RE { % /NewFontName [NewEncodingArray] /FontName RE -
  findfont dup length dict begin
  {
    1 index /FID ne
    {def} {pop pop} ifelse
  } forall
  /Encoding exch def
  /FontName 1 index def
  currentdict definefont pop
  end
} bind def
%%EndResource
%%BeginResource: procset (Apache XML Graphics EPS ProcSet) 1.0 0
%%Version: 1.0 0
%%Copyright: (Copyright 2002-2003 The Apache Software Foundation. License terms: http://www.apache.org/licenses/LICENSE-2.0)
/BeginEPSF { %def
/b4_Inc_state save def         % Save state for cleanup
/dict_count countdictstack def % Count objects on dict stack
/op_count count 1 sub def      % Count objects on operand stack
userdict begin                 % Push userdict on dict stack
/showpage { } def              % Redefine showpage, { } = null proc
0 setgray 0 setlinecap         % Prepare graphics state
1 setlinewidth 0 setlinejoin
10 setmiterlimit [ ] 0 setdash newpath
/languagelevel where           % If level not equal to 1 then
{pop languagelevel             % set strokeadjust and
1 ne                           % overprint to their defaults.
{false setstrokeadjust false setoverprint
} if
} if
} bd
/EndEPSF { %def
count op_count sub {pop} repeat            % Clean up stacks
countdictstack dict_count sub {end} repeat
b4_Inc_state restore
} bd
%%EndResource
%FOPBeginFontDict
%%IncludeResource: font Courier-Oblique
%%IncludeResource: font Courier-BoldOblique
%%IncludeResource: font Courier-Bold
%%IncludeResource: font ZapfDingbats
%%IncludeResource: font Symbol
%%IncludeResource: font Helvetica
%%IncludeResource: font Helvetica-Oblique
%%IncludeResource: font Helvetica-Bold
%%IncludeResource: font Helvetica-BoldOblique
%%IncludeResource: font Times-Roman
%%IncludeResource: font Times-Italic
%%IncludeResource: font Times-Bold
%%IncludeResource: font Times-BoldItalic
%%IncludeResource: font Courier
%FOPEndFontDict
%%BeginResource: encoding WinAnsiEncoding
/WinAnsiEncoding [
/.notdef /.notdef /.notdef /.notdef /.notdef
/.notdef /.notdef /.notdef /.notdef /.notdef
/.notdef /.notdef /.notdef /.notdef /.notdef
/.notdef /.notdef /.notdef /.notdef /.notdef
/.notdef /.notdef /.notdef /.notdef /.notdef
/.notdef /.notdef /.notdef /.notdef /.notdef
/.notdef /.notdef /space /exclam /quotedbl
/numbersign /dollar /percent /ampersand /quotesingle
/parenleft /parenright /asterisk /plus /comma
/hyphen /period /slash /zero /one
/two /three /four /five /six
/seven /eight /nine /colon /semicolon
/less /equal /greater /question /at
/A /B /C /D /E
/F /G /H /I /J
/K /L /M /N /O
/P /Q /R /S /T
/U /V /W /X /Y
/Z /bracketleft /backslash /bracketright /asciicircum
/underscore /quoteleft /a /b /c
/d /e /f /g /h
/i /j /k /l /m
/n /o /p /q /r
/s /t /u /v /w
/x /y /z /braceleft /bar
/braceright /asciitilde /bullet /Euro /bullet
/quotesinglbase /florin /quotedblbase /ellipsis /dagger
/daggerdbl /circumflex /perthousand /Scaron /guilsinglleft
/OE /bullet /Zcaron /bullet /bullet
/quoteleft /quoteright /quotedblleft /quotedblright /bullet
/endash /emdash /asciitilde /trademark /scaron
/guilsinglright /oe /bullet /zcaron /Ydieresis
/space /exclamdown /cent /sterling /currency
/yen /brokenbar /section /dieresis /copyright
/ordfeminine /guillemotleft /logicalnot /sfthyphen /registered
/macron /degree /plusminus /twosuperior /threesuperior
/acute /mu /paragraph /middot /cedilla
/onesuperior /ordmasculine /guillemotright /onequarter /onehalf
/threequarters /questiondown /Agrave /Aacute /Acircumflex
/Atilde /Adieresis /Aring /AE /Ccedilla
/Egrave /Eacute /Ecircumflex /Edieresis /Igrave
/Iacute /Icircumflex /Idieresis /Eth /Ntilde
/Ograve /Oacute /Ocircumflex /Otilde /Odieresis
/multiply /Oslash /Ugrave /Uacute /Ucircumflex
/Udieresis /Yacute /Thorn /germandbls /agrave
/aacute /acircumflex /atilde /adieresis /aring
/ae /ccedilla /egrave /eacute /ecircumflex
/edieresis /igrave /iacute /icircumflex /idieresis
/eth /ntilde /ograve /oacute /ocircumflex
/otilde /odieresis /divide /oslash /ugrave
/uacute /ucircumflex /udieresis /yacute /thorn
/ydieresis
] def
%%EndResource
%FOPBeginFontReencode
/Courier-Oblique findfont
dup length dict begin
  {1 index /FID ne {def} {pop pop} ifelse} forall
  /Encoding WinAnsiEncoding def
  currentdict
end
/Courier-Oblique exch definefont pop
/Courier-BoldOblique findfont
dup length dict begin
  {1 index /FID ne {def} {pop pop} ifelse} forall
  /Encoding WinAnsiEncoding def
  currentdict
end
/Courier-BoldOblique exch definefont pop
/Courier-Bold findfont
dup length dict begin
  {1 index /FID ne {def} {pop pop} ifelse} forall
  /Encoding WinAnsiEncoding def
  currentdict
end
/Courier-Bold exch definefont pop
/Helvetica findfont
dup length dict begin
  {1 index /FID ne {def} {pop pop} ifelse} forall
  /Encoding WinAnsiEncoding def
  currentdict
end
/Helvetica exch definefont pop
/Helvetica-Oblique findfont
dup length dict begin
  {1 index /FID ne {def} {pop pop} ifelse} forall
  /Encoding WinAnsiEncoding def
  currentdict
end
/Helvetica-Oblique exch definefont pop
/Helvetica-Bold findfont
dup length dict begin
  {1 index /FID ne {def} {pop pop} ifelse} forall
  /Encoding WinAnsiEncoding def
  currentdict
end
/Helvetica-Bold exch definefont pop
/Helvetica-BoldOblique findfont
dup length dict begin
  {1 index /FID ne {def} {pop pop} ifelse} forall
  /Encoding WinAnsiEncoding def
  currentdict
end
/Helvetica-BoldOblique exch definefont pop
/Times-Roman findfont
dup length dict begin
  {1 index /FID ne {def} {pop pop} ifelse} forall
  /Encoding WinAnsiEncoding def
  currentdict
end
/Times-Roman exch definefont pop
/Times-Italic findfont
dup length dict begin
  {1 index /FID ne {def} {pop pop} ifelse} forall
  /Encoding WinAnsiEncoding def
  currentdict
end
/Times-Italic exch definefont pop
/Times-Bold findfont
dup length dict begin
  {1 index /FID ne {def} {pop pop} ifelse} forall
  /Encoding WinAnsiEncoding def
  currentdict
end
/Times-Bold exch definefont pop
/Times-BoldItalic findfont
dup length dict begin
  {1 index /FID ne {def} {pop pop} ifelse} forall
  /Encoding WinAnsiEncoding def
  currentdict
end
/Times-BoldItalic exch definefont pop
/Courier findfont
dup length dict begin
  {1 index /FID ne {def} {pop pop} ifelse} forall
  /Encoding WinAnsiEncoding def
  currentdict
end
/Courier exch definefont pop
%FOPEndFontReencode
%%EndProlog
%%Page: 1 1
%%PageBoundingBox: 0 0 420 315
%%BeginPageSetup
[1 0 0 -1 0 315] CT
%%EndPageSetup
GS
[0.6 0 0 0.6 0 0] CT
1 GC
N
0 0 700 525 re
f
GR
GS
[0.6 0 0 0.6 0 0] CT
1 GC
N
0 0 700 525 re
f
GR
GS
[0.6 0 0 0.6 0 0] CT
1 GC
N
106 467 M
634 467 L
634 64 L
106 64 L
cp
f
GR
GS
[0.6 0 0 0.6 0 0] CT
0.749 GC
[1 3] 0 setdash
2 LJ
0.833 LW
N
132.491 467 M
132.491 64 L
S
GR
GS
[0.6 0 0 0.6 0 0] CT
0.749 GC
[1 3] 0 setdash
2 LJ
0.833 LW
N
147.987 467 M
147.987 64 L
S
GR
GS
[0.6 0 0 0.6 0 0] CT
0.749 GC
[1 3] 0 setdash
2 LJ
0.833 LW
N
158.981 467 M
158.981 64 L
S
GR
GS
[0.6 0 0 0.6 0 0] CT
0.749 GC
[1 3] 0 setdash
2 LJ
0.833 LW
N
167.509 467 M
167.509 64 L
S
GR
GS
[0.6 0 0 0.6 0 0] CT
0.749 GC
[1 3] 0 setdash
2 LJ
0.833 LW
N
174.477 467 M
174.477 64 L
S
GR
GS
[0.6 0 0 0.6 0 0] CT
0.749 GC
[1 3] 0 setdash
2 LJ
0.833 LW
N
180.369 467 M
180.369 64 L
S
GR
GS
[0.6 0 0 0.6 0 0] CT
0.749 GC
[1 3] 0 setdash
2 LJ
0.833 LW
N
185.472 467 M
185.472 64 L
S
GR
GS
[0.6 0 0 0.6 0 0] CT
0.749 GC
[1 3] 0 setdash
2 LJ
0.833 LW
N
189.973 467 M
189.973 64 L
S
GR
GS
[0.6 0 0 0.6 0 0] CT
0.749 GC
[1 3] 0 setdash
2 LJ
0.833 LW
N
220.491 467 M
220.491 64 L
S
GR
GS
[0.6 0 0 0.6 0 0] CT
0.749 GC
[1 3] 0 setdash
2 LJ
0.833 LW
N
235.987 467 M
235.987 64 L
S
GR
GS
[0.6 0 0 0.6 0 0] CT
0.749 GC
[1 3] 0 setdash
2 LJ
0.833 LW
N
246.981 467 M
246.981 64 L
S
GR
GS
[0.6 0 0 0.6 0 0] CT
0.749 GC
[1 3] 0 setdash
2 LJ
0.833 LW
N
255.509 467 M
255.509 64 L
S
GR
GS
[0.6 0 0 0.6 0 0] CT
0.749 GC
[1 3] 0 setdash
2 LJ
0.833 LW
N
262.477 467 M
262.477 64 L
S
GR
GS
[0.6 0 0 0.6 0 0] CT
0.749 GC
[1 3] 0 setdash
2 LJ
0.833 LW
N
268.369 467 M
268.369 64 L
S
GR
GS
[0.6 0 0 0.6 0 0] CT
0.749 GC
[1 3] 0 setdash
2 LJ
0.833 LW
N
273.472 467 M
273.472 64 L
S
GR
GS
[0.6 0 0 0.6 0 0] CT
0.749 GC
[1 3] 0 setdash
2 LJ
0.833 LW
N
277.973 467 M
277.973 64 L
S
GR
GS
[0.6 0 0 0.6 0 0] CT
0.749 GC
[1 3] 0 setdash
2 LJ
0.833 LW
N
308.491 467 M
308.491 64 L
S
GR
GS
[0.6 0 0 0.6 0 0] CT
0.749 GC
[1 3] 0 setdash
2 LJ
0.833 LW
N
323.987 467 M
323.987 64 L
S
GR
GS
[0.6 0 0 0.6 0 0] CT
0.749 GC
[1 3] 0 setdash
2 LJ
0.833 LW
N
334.981 467 M
334.981 64 L
S
GR
GS
[0.6 0 0 0.6 0 0] CT
0.749 GC
[1 3] 0 setdash
2 LJ
0.833 LW
N
343.509 467 M
343.509 64 L
S
GR
GS
[0.6 0 0 0.6 0 0] CT
0.749 GC
[1 3] 0 setdash
2 LJ
0.833 LW
N
350.477 467 M
350.477 64 L
S
GR
GS
[0.6 0 0 0.6 0 0] CT
0.749 GC
[1 3] 0 setdash
2 LJ
0.833 LW
N
356.369 467 M
356.369 64 L
S
GR
GS
[0.6 0 0 0.6 0 0] CT
0.749 GC
[1 3] 0 setdash
2 LJ
0.833 LW
N
361.472 467 M
361.472 64 L
S
GR
GS
[0.6 0 0 0.6 0 0] CT
0.749 GC
[1 3] 0 setdash
2 LJ
0.833 LW
N
365.973 467 M
365.973 64 L
S
GR
GS
[0.6 0 0 0.6 0 0] CT
0.749 GC
[1 3] 0 setdash
2 LJ
0.833 LW
N
396.491 467 M
396.491 64 L
S
GR
GS
[0.6 0 0 0.6 0 0] CT
0.749 GC
[1 3] 0 setdash
2 LJ
0.833 LW
N
411.987 467 M
411.987 64 L
S
GR
GS
[0.6 0 0 0.6 0 0] CT
0.749 GC
[1 3] 0 setdash
2 LJ
0.833 LW
N
422.981 467 M
422.981 64 L
S
GR
GS
[0.6 0 0 0.6 0 0] CT
0.749 GC
[1 3] 0 setdash
2 LJ
0.833 LW
N
431.509 467 M
431.509 64 L
S
GR
GS
[0.6 0 0 0.6 0 0] CT
0.749 GC
[1 3] 0 setdash
2 LJ
0.833 LW
N
438.477 467 M
438.477 64 L
S
GR
GS
[0.6 0 0 0.6 0 0] CT
0.749 GC
[1 3] 0 setdash
2 LJ
0.833 LW
N
444.369 467 M
444.369 64 L
S
GR
GS
[0.6 0 0 0.6 0 0] CT
0.749 GC
[1 3] 0 setdash
2 LJ
0.833 LW
N
449.472 467 M
449.472 64 L
S
GR
GS
[0.6 0 0 0.6 0 0] CT
0.749 GC
[1 3] 0 setdash
2 LJ
0.833 LW
N
453.973 467 M
453.973 64 L
S
GR
GS
[0.6 0 0 0.6 0 0] CT
0.749 GC
[1 3] 0 setdash
2 LJ
0.833 LW
N
484.491 467 M
484.491 64 L
S
GR
GS
[0.6 0 0 0.6 0 0] CT
0.749 GC
[1 3] 0 setdash
2 LJ
0.833 LW
N
499.987 467 M
499.987 64 L
S
GR
GS
[0.6 0 0 0.6 0 0] CT
0.749 GC
[1 3] 0 setdash
2 LJ
0.833 LW
N
510.981 467 M
510.981 64 L
S
GR
GS
[0.6 0 0 0.6 0 0] CT
0.749 GC
[1 3] 0 setdash
2 LJ
0.833 LW
N
519.509 467 M
519.509 64 L
S
GR
GS
[0.6 0 0 0.6 0 0] CT
0.749 GC
[1 3] 0 setdash
2 LJ
0.833 LW
N
526.477 467 M
526.477 64 L
S
GR
GS
[0.6 0 0 0.6 0 0] CT
0.749 GC
[1 3] 0 setdash
2 LJ
0.833 LW
N
532.369 467 M
532.369 64 L
S
GR
GS
[0.6 0 0 0.6 0 0] CT
0.749 GC
[1 3] 0 setdash
2 LJ
0.833 LW
N
537.472 467 M
537.472 64 L
S
GR
GS
[0.6 0 0 0.6 0 0] CT
0.749 GC
[1 3] 0 setdash
2 LJ
0.833 LW
N
541.973 467 M
541.973 64 L
S
GR
GS
[0.6 0 0 0.6 0 0] CT
0.749 GC
[1 3] 0 setdash
2 LJ
0.833 LW
N
572.491 467 M
572.491 64 L
S
GR
GS
[0.6 0 0 0.6 0 0] CT
0.749 GC
[1 3] 0 setdash
2 LJ
0.833 LW
N
587.987 467 M
587.987 64 L
S
GR
GS
[0.6 0 0 0.6 0 0] CT
0.749 GC
[1 3] 0 setdash
2 LJ
0.833 LW
N
598.981 467 M
598.981 64 L
S
GR
GS
[0.6 0 0 0.6 0 0] CT
0.749 GC
[1 3] 0 setdash
2 LJ
0.833 LW
N
607.509 467 M
607.509 64 L
S
GR
GS
[0.6 0 0 0.6 0 0] CT
0.749 GC
[1 3] 0 setdash
2 LJ
0.833 LW
N
614.477 467 M
614.477 64 L
S
GR
GS
[0.6 0 0 0.6 0 0] CT
0.749 GC
[1 3] 0 setdash
2 LJ
0.833 LW
N
620.369 467 M
620.369 64 L
S
GR
GS
[0.6 0 0 0.6 0 0] CT
0.749 GC
[1 3] 0 setdash
2 LJ
0.833 LW
N
625.472 467 M
625.472 64 L
S
GR
GS
[0.6 0 0 0.6 0 0] CT
0.749 GC
[1 3] 0 setdash
2 LJ
0.833 LW
N
629.973 467 M
629.973 64 L
S
GR
GS
[0.6 0 0 0.6 0 0] CT
0.873 GC
1 LJ
0.833 LW
N
106 467 M
106 64 L
S
GR
GS
[0.6 0 0 0.6 0 0] CT
0.873 GC
1 LJ
0.833 LW
N
194 467 M
194 64 L
S
GR
GS
[0.6 0 0 0.6 0 0] CT
0.873 GC
1 LJ
0.833 LW
N
282 467 M
282 64 L
S
GR
GS
[0.6 0 0 0.6 0 0] CT
0.873 GC
1 LJ
0.833 LW
N
370 467 M
370 64 L
S
GR
GS
[0.6 0 0 0.6 0 0] CT
0.873 GC
1 LJ
0.833 LW
N
458 467 M
458 64 L
S
GR
GS
[0.6 0 0 0.6 0 0] CT
0.873 GC
1 LJ
0.833 LW
N
546 467 M
546 64 L
S
GR
GS
[0.6 0 0 0.6 0 0] CT
0.873 GC
1 LJ
0.833 LW
N
634 467 M
634 64 L
S
GR
GS
[0.6 0 0 0.6 0 0] CT
0.873 GC
1 LJ
0.833 LW
N
634 467 M
106 467 L
S
GR
GS
[0.6 0 0 0.6 0 0] CT
0.873 GC
1 LJ
0.833 LW
N
634 422.222 M
106 422.222 L
S
GR
GS
[0.6 0 0 0.6 0 0] CT
0.873 GC
1 LJ
0.833 LW
N
634 377.444 M
106 377.444 L
S
GR
GS
[0.6 0 0 0.6 0 0] CT
0.873 GC
1 LJ
0.833 LW
N
634 332.667 M
106 332.667 L
S
GR
GS
[0.6 0 0 0.6 0 0] CT
0.873 GC
1 LJ
0.833 LW
N
634 287.889 M
106 287.889 L
S
GR
GS
[0.6 0 0 0.6 0 0] CT
0.873 GC
1 LJ
0.833 LW
N
634 243.111 M
106 243.111 L
S
GR
GS
[0.6 0 0 0.6 0 0] CT
0.873 GC
1 LJ
0.833 LW
N
634 198.333 M
106 198.333 L
S
GR
GS
[0.6 0 0 0.6 0 0] CT
0.873 GC
1 LJ
0.833 LW
N
634 153.556 M
106 153.556 L
S
GR
GS
[0.6 0 0 0.6 0 0] CT
0.873 GC
1 LJ
0.833 LW
N
634 108.778 M
106 108.778 L
S
GR
GS
[0.6 0 0 0.6 0 0] CT
0.873 GC
1 LJ
0.833 LW
N
634 64 M
106 64 L
S
GR
GS
[0.6 0 0 0.6 0 0] CT
2 setlinecap
1 LJ
0.833 LW
N
106 467 M
634 467 L
S
GR
GS
[0.6 0 0 0.6 0 0] CT
2 setlinecap
1 LJ
0.833 LW
N
106 64 M
634 64 L
S
GR
GS
[0.6 0 0 0.6 0 0] CT
2 setlinecap
1 LJ
0.833 LW
N
106 467 M
106 461.72 L
S
GR
GS
[0.6 0 0 0.6 0 0] CT
2 setlinecap
1 LJ
0.833 LW
N
194 467 M
194 461.72 L
S
GR
GS
[0.6 0 0 0.6 0 0] CT
2 setlinecap
1 LJ
0.833 LW
N
282 467 M
282 461.72 L
S
GR
GS
[0.6 0 0 0.6 0 0] CT
2 setlinecap
1 LJ
0.833 LW
N
370 467 M
370 461.72 L
S
GR
GS
[0.6 0 0 0.6 0 0] CT
2 setlinecap
1 LJ
0.833 LW
N
458 467 M
458 461.72 L
S
GR
GS
[0.6 0 0 0.6 0 0] CT
2 setlinecap
1 LJ
0.833 LW
N
546 467 M
546 461.72 L
S
GR
GS
[0.6 0 0 0.6 0 0] CT
2 setlinecap
1 LJ
0.833 LW
N
634 467 M
634 461.72 L
S
GR
GS
[0.6 0 0 0.6 0 0] CT
2 setlinecap
1 LJ
0.833 LW
N
106 64 M
106 69.28 L
S
GR
GS
[0.6 0 0 0.6 0 0] CT
2 setlinecap
1 LJ
0.833 LW
N
194 64 M
194 69.28 L
S
GR
GS
[0.6 0 0 0.6 0 0] CT
2 setlinecap
1 LJ
0.833 LW
N
282 64 M
282 69.28 L
S
GR
GS
[0.6 0 0 0.6 0 0] CT
2 setlinecap
1 LJ
0.833 LW
N
370 64 M
370 69.28 L
S
GR
GS
[0.6 0 0 0.6 0 0] CT
2 setlinecap
1 LJ
0.833 LW
N
458 64 M
458 69.28 L
S
GR
GS
[0.6 0 0 0.6 0 0] CT
2 setlinecap
1 LJ
0.833 LW
N
546 64 M
546 69.28 L
S
GR
GS
[0.6 0 0 0.6 0 0] CT
2 setlinecap
1 LJ
0.833 LW
N
634 64 M
634 69.28 L
S
GR
GS
[0.6 0 0 0.6 0 0] CT
2 setlinecap
1 LJ
0.833 LW
N
106 467 M
106 464.36 L
S
GR
GS
[0.6 0 0 0.6 0 0] CT
2 setlinecap
1 LJ
0.833 LW
N
132.491 467 M
132.491 464.36 L
S
GR
GS
[0.6 0 0 0.6 0 0] CT
2 setlinecap
1 LJ
0.833 LW
N
147.987 467 M
147.987 464.36 L
S
GR
GS
[0.6 0 0 0.6 0 0] CT
2 setlinecap
1 LJ
0.833 LW
N
158.981 467 M
158.981 464.36 L
S
GR
GS
[0.6 0 0 0.6 0 0] CT
2 setlinecap
1 LJ
0.833 LW
N
167.509 467 M
167.509 464.36 L
S
GR
GS
[0.6 0 0 0.6 0 0] CT
2 setlinecap
1 LJ
0.833 LW
N
174.477 467 M
174.477 464.36 L
S
GR
GS
[0.6 0 0 0.6 0 0] CT
2 setlinecap
1 LJ
0.833 LW
N
180.369 467 M
180.369 464.36 L
S
GR
GS
[0.6 0 0 0.6 0 0] CT
2 setlinecap
1 LJ
0.833 LW
N
185.472 467 M
185.472 464.36 L
S
GR
GS
[0.6 0 0 0.6 0 0] CT
2 setlinecap
1 LJ
0.833 LW
N
189.973 467 M
189.973 464.36 L
S
GR
GS
[0.6 0 0 0.6 0 0] CT
2 setlinecap
1 LJ
0.833 LW
N
194 467 M
194 464.36 L
S
GR
GS
[0.6 0 0 0.6 0 0] CT
2 setlinecap
1 LJ
0.833 LW
N
220.491 467 M
220.491 464.36 L
S
GR
GS
[0.6 0 0 0.6 0 0] CT
2 setlinecap
1 LJ
0.833 LW
N
235.987 467 M
235.987 464.36 L
S
GR
GS
[0.6 0 0 0.6 0 0] CT
2 setlinecap
1 LJ
0.833 LW
N
246.981 467 M
246.981 464.36 L
S
GR
GS
[0.6 0 0 0.6 0 0] CT
2 setlinecap
1 LJ
0.833 LW
N
255.509 467 M
255.509 464.36 L
S
GR
GS
[0.6 0 0 0.6 0 0] CT
2 setlinecap
1 LJ
0.833 LW
N
262.477 467 M
262.477 464.36 L
S
GR
GS
[0.6 0 0 0.6 0 0] CT
2 setlinecap
1 LJ
0.833 LW
N
268.369 467 M
268.369 464.36 L
S
GR
GS
[0.6 0 0 0.6 0 0] CT
2 setlinecap
1 LJ
0.833 LW
N
273.472 467 M
273.472 464.36 L
S
GR
GS
[0.6 0 0 0.6 0 0] CT
2 setlinecap
1 LJ
0.833 LW
N
277.973 467 M
277.973 464.36 L
S
GR
GS
[0.6 0 0 0.6 0 0] CT
2 setlinecap
1 LJ
0.833 LW
N
282 467 M
282 464.36 L
S
GR
GS
[0.6 0 0 0.6 0 0] CT
2 setlinecap
1 LJ
0.833 LW
N
308.491 467 M
308.491 464.36 L
S
GR
GS
[0.6 0 0 0.6 0 0] CT
2 setlinecap
1 LJ
0.833 LW
N
323.987 467 M
323.987 464.36 L
S
GR
GS
[0.6 0 0 0.6 0 0] CT
2 setlinecap
1 LJ
0.833 LW
N
334.981 467 M
334.981 464.36 L
S
GR
GS
[0.6 0 0 0.6 0 0] CT
2 setlinecap
1 LJ
0.833 LW
N
343.509 467 M
343.509 464.36 L
S
GR
GS
[0.6 0 0 0.6 0 0] CT
2 setlinecap
1 LJ
0.833 LW
N
350.477 467 M
350.477 464.36 L
S
GR
GS
[0.6 0 0 0.6 0 0] CT
2 setlinecap
1 LJ
0.833 LW
N
356.369 467 M
356.369 464.36 L
S
GR
GS
[0.6 0 0 0.6 0 0] CT
2 setlinecap
1 LJ
0.833 LW
N
361.472 467 M
361.472 464.36 L
S
GR
GS
[0.6 0 0 0.6 0 0] CT
2 setlinecap
1 LJ
0.833 LW
N
365.973 467 M
365.973 464.36 L
S
GR
GS
[0.6 0 0 0.6 0 0] CT
2 setlinecap
1 LJ
0.833 LW
N
370 467 M
370 464.36 L
S
GR
GS
[0.6 0 0 0.6 0 0] CT
2 setlinecap
1 LJ
0.833 LW
N
396.491 467 M
396.491 464.36 L
S
GR
GS
[0.6 0 0 0.6 0 0] CT
2 setlinecap
1 LJ
0.833 LW
N
411.987 467 M
411.987 464.36 L
S
GR
GS
[0.6 0 0 0.6 0 0] CT
2 setlinecap
1 LJ
0.833 LW
N
422.981 467 M
422.981 464.36 L
S
GR
GS
[0.6 0 0 0.6 0 0] CT
2 setlinecap
1 LJ
0.833 LW
N
431.509 467 M
431.509 464.36 L
S
GR
GS
[0.6 0 0 0.6 0 0] CT
2 setlinecap
1 LJ
0.833 LW
N
438.477 467 M
438.477 464.36 L
S
GR
GS
[0.6 0 0 0.6 0 0] CT
2 setlinecap
1 LJ
0.833 LW
N
444.369 467 M
444.369 464.36 L
S
GR
GS
[0.6 0 0 0.6 0 0] CT
2 setlinecap
1 LJ
0.833 LW
N
449.472 467 M
449.472 464.36 L
S
GR
GS
[0.6 0 0 0.6 0 0] CT
2 setlinecap
1 LJ
0.833 LW
N
453.973 467 M
453.973 464.36 L
S
GR
GS
[0.6 0 0 0.6 0 0] CT
2 setlinecap
1 LJ
0.833 LW
N
458 467 M
458 464.36 L
S
GR
GS
[0.6 0 0 0.6 0 0] CT
2 setlinecap
1 LJ
0.833 LW
N
484.491 467 M
484.491 464.36 L
S
GR
GS
[0.6 0 0 0.6 0 0] CT
2 setlinecap
1 LJ
0.833 LW
N
499.987 467 M
499.987 464.36 L
S
GR
GS
[0.6 0 0 0.6 0 0] CT
2 setlinecap
1 LJ
0.833 LW
N
510.981 467 M
510.981 464.36 L
S
GR
GS
[0.6 0 0 0.6 0 0] CT
2 setlinecap
1 LJ
0.833 LW
N
519.509 467 M
519.509 464.36 L
S
GR
GS
[0.6 0 0 0.6 0 0] CT
2 setlinecap
1 LJ
0.833 LW
N
526.477 467 M
526.477 464.36 L
S
GR
GS
[0.6 0 0 0.6 0 0] CT
2 setlinecap
1 LJ
0.833 LW
N
532.369 467 M
532.369 464.36 L
S
GR
GS
[0.6 0 0 0.6 0 0] CT
2 setlinecap
1 LJ
0.833 LW
N
537.472 467 M
537.472 464.36 L
S
GR
GS
[0.6 0 0 0.6 0 0] CT
2 setlinecap
1 LJ
0.833 LW
N
541.973 467 M
541.973 464.36 L
S
GR
GS
[0.6 0 0 0.6 0 0] CT
2 setlinecap
1 LJ
0.833 LW
N
546 467 M
546 464.36 L
S
GR
GS
[0.6 0 0 0.6 0 0] CT
2 setlinecap
1 LJ
0.833 LW
N
572.491 467 M
572.491 464.36 L
S
GR
GS
[0.6 0 0 0.6 0 0] CT
2 setlinecap
1 LJ
0.833 LW
N
587.987 467 M
587.987 464.36 L
S
GR
GS
[0.6 0 0 0.6 0 0] CT
2 setlinecap
1 LJ
0.833 LW
N
598.981 467 M
598.981 464.36 L
S
GR
GS
[0.6 0 0 0.6 0 0] CT
2 setlinecap
1 LJ
0.833 LW
N
607.509 467 M
607.509 464.36 L
S
GR
GS
[0.6 0 0 0.6 0 0] CT
2 setlinecap
1 LJ
0.833 LW
N
614.477 467 M
614.477 464.36 L
S
GR
GS
[0.6 0 0 0.6 0 0] CT
2 setlinecap
1 LJ
0.833 LW
N
620.369 467 M
620.369 464.36 L
S
GR
GS
[0.6 0 0 0.6 0 0] CT
2 setlinecap
1 LJ
0.833 LW
N
625.472 467 M
625.472 464.36 L
S
GR
GS
[0.6 0 0 0.6 0 0] CT
2 setlinecap
1 LJ
0.833 LW
N
629.973 467 M
629.973 464.36 L
S
GR
GS
[0.6 0 0 0.6 0 0] CT
2 setlinecap
1 LJ
0.833 LW
N
634 467 M
634 464.36 L
S
GR
GS
[0.6 0 0 0.6 0 0] CT
2 setlinecap
1 LJ
0.833 LW
N
106 64 M
106 66.64 L
S
GR
GS
[0.6 0 0 0.6 0 0] CT
2 setlinecap
1 LJ
0.833 LW
N
132.491 64 M
132.491 66.64 L
S
GR
GS
[0.6 0 0 0.6 0 0] CT
2 setlinecap
1 LJ
0.833 LW
N
147.987 64 M
147.987 66.64 L
S
GR
GS
[0.6 0 0 0.6 0 0] CT
2 setlinecap
1 LJ
0.833 LW
N
158.981 64 M
158.981 66.64 L
S
GR
GS
[0.6 0 0 0.6 0 0] CT
2 setlinecap
1 LJ
0.833 LW
N
167.509 64 M
167.509 66.64 L
S
GR
GS
[0.6 0 0 0.6 0 0] CT
2 setlinecap
1 LJ
0.833 LW
N
174.477 64 M
174.477 66.64 L
S
GR
GS
[0.6 0 0 0.6 0 0] CT
2 setlinecap
1 LJ
0.833 LW
N
180.369 64 M
180.369 66.64 L
S
GR
GS
[0.6 0 0 0.6 0 0] CT
2 setlinecap
1 LJ
0.833 LW
N
185.472 64 M
185.472 66.64 L
S
GR
GS
[0.6 0 0 0.6 0 0] CT
2 setlinecap
1 LJ
0.833 LW
N
189.973 64 M
189.973 66.64 L
S
GR
GS
[0.6 0 0 0.6 0 0] CT
2 setlinecap
1 LJ
0.833 LW
N
194 64 M
194 66.64 L
S
GR
GS
[0.6 0 0 0.6 0 0] CT
2 setlinecap
1 LJ
0.833 LW
N
220.491 64 M
220.491 66.64 L
S
GR
GS
[0.6 0 0 0.6 0 0] CT
2 setlinecap
1 LJ
0.833 LW
N
235.987 64 M
235.987 66.64 L
S
GR
GS
[0.6 0 0 0.6 0 0] CT
2 setlinecap
1 LJ
0.833 LW
N
246.981 64 M
246.981 66.64 L
S
GR
GS
[0.6 0 0 0.6 0 0] CT
2 setlinecap
1 LJ
0.833 LW
N
255.509 64 M
255.509 66.64 L
S
GR
GS
[0.6 0 0 0.6 0 0] CT
2 setlinecap
1 LJ
0.833 LW
N
262.477 64 M
262.477 66.64 L
S
GR
GS
[0.6 0 0 0.6 0 0] CT
2 setlinecap
1 LJ
0.833 LW
N
268.369 64 M
268.369 66.64 L
S
GR
GS
[0.6 0 0 0.6 0 0] CT
2 setlinecap
1 LJ
0.833 LW
N
273.472 64 M
273.472 66.64 L
S
GR
GS
[0.6 0 0 0.6 0 0] CT
2 setlinecap
1 LJ
0.833 LW
N
277.973 64 M
277.973 66.64 L
S
GR
GS
[0.6 0 0 0.6 0 0] CT
2 setlinecap
1 LJ
0.833 LW
N
282 64 M
282 66.64 L
S
GR
GS
[0.6 0 0 0.6 0 0] CT
2 setlinecap
1 LJ
0.833 LW
N
308.491 64 M
308.491 66.64 L
S
GR
GS
[0.6 0 0 0.6 0 0] CT
2 setlinecap
1 LJ
0.833 LW
N
323.987 64 M
323.987 66.64 L
S
GR
GS
[0.6 0 0 0.6 0 0] CT
2 setlinecap
1 LJ
0.833 LW
N
334.981 64 M
334.981 66.64 L
S
GR
GS
[0.6 0 0 0.6 0 0] CT
2 setlinecap
1 LJ
0.833 LW
N
343.509 64 M
343.509 66.64 L
S
GR
GS
[0.6 0 0 0.6 0 0] CT
2 setlinecap
1 LJ
0.833 LW
N
350.477 64 M
350.477 66.64 L
S
GR
GS
[0.6 0 0 0.6 0 0] CT
2 setlinecap
1 LJ
0.833 LW
N
356.369 64 M
356.369 66.64 L
S
GR
GS
[0.6 0 0 0.6 0 0] CT
2 setlinecap
1 LJ
0.833 LW
N
361.472 64 M
361.472 66.64 L
S
GR
GS
[0.6 0 0 0.6 0 0] CT
2 setlinecap
1 LJ
0.833 LW
N
365.973 64 M
365.973 66.64 L
S
GR
GS
[0.6 0 0 0.6 0 0] CT
2 setlinecap
1 LJ
0.833 LW
N
370 64 M
370 66.64 L
S
GR
GS
[0.6 0 0 0.6 0 0] CT
2 setlinecap
1 LJ
0.833 LW
N
396.491 64 M
396.491 66.64 L
S
GR
GS
[0.6 0 0 0.6 0 0] CT
2 setlinecap
1 LJ
0.833 LW
N
411.987 64 M
411.987 66.64 L
S
GR
GS
[0.6 0 0 0.6 0 0] CT
2 setlinecap
1 LJ
0.833 LW
N
422.981 64 M
422.981 66.64 L
S
GR
GS
[0.6 0 0 0.6 0 0] CT
2 setlinecap
1 LJ
0.833 LW
N
431.509 64 M
431.509 66.64 L
S
GR
GS
[0.6 0 0 0.6 0 0] CT
2 setlinecap
1 LJ
0.833 LW
N
438.477 64 M
438.477 66.64 L
S
GR
GS
[0.6 0 0 0.6 0 0] CT
2 setlinecap
1 LJ
0.833 LW
N
444.369 64 M
444.369 66.64 L
S
GR
GS
[0.6 0 0 0.6 0 0] CT
2 setlinecap
1 LJ
0.833 LW
N
449.472 64 M
449.472 66.64 L
S
GR
GS
[0.6 0 0 0.6 0 0] CT
2 setlinecap
1 LJ
0.833 LW
N
453.973 64 M
453.973 66.64 L
S
GR
GS
[0.6 0 0 0.6 0 0] CT
2 setlinecap
1 LJ
0.833 LW
N
458 64 M
458 66.64 L
S
GR
GS
[0.6 0 0 0.6 0 0] CT
2 setlinecap
1 LJ
0.833 LW
N
484.491 64 M
484.491 66.64 L
S
GR
GS
[0.6 0 0 0.6 0 0] CT
2 setlinecap
1 LJ
0.833 LW
N
499.987 64 M
499.987 66.64 L
S
GR
GS
[0.6 0 0 0.6 0 0] CT
2 setlinecap
1 LJ
0.833 LW
N
510.981 64 M
510.981 66.64 L
S
GR
GS
[0.6 0 0 0.6 0 0] CT
2 setlinecap
1 LJ
0.833 LW
N
519.509 64 M
519.509 66.64 L
S
GR
GS
[0.6 0 0 0.6 0 0] CT
2 setlinecap
1 LJ
0.833 LW
N
526.477 64 M
526.477 66.64 L
S
GR
GS
[0.6 0 0 0.6 0 0] CT
2 setlinecap
1 LJ
0.833 LW
N
532.369 64 M
532.369 66.64 L
S
GR
GS
[0.6 0 0 0.6 0 0] CT
2 setlinecap
1 LJ
0.833 LW
N
537.472 64 M
537.472 66.64 L
S
GR
GS
[0.6 0 0 0.6 0 0] CT
2 setlinecap
1 LJ
0.833 LW
N
541.973 64 M
541.973 66.64 L
S
GR
GS
[0.6 0 0 0.6 0 0] CT
2 setlinecap
1 LJ
0.833 LW
N
546 64 M
546 66.64 L
S
GR
GS
[0.6 0 0 0.6 0 0] CT
2 setlinecap
1 LJ
0.833 LW
N
572.491 64 M
572.491 66.64 L
S
GR
GS
[0.6 0 0 0.6 0 0] CT
2 setlinecap
1 LJ
0.833 LW
N
587.987 64 M
587.987 66.64 L
S
GR
GS
[0.6 0 0 0.6 0 0] CT
2 setlinecap
1 LJ
0.833 LW
N
598.981 64 M
598.981 66.64 L
S
GR
GS
[0.6 0 0 0.6 0 0] CT
2 setlinecap
1 LJ
0.833 LW
N
607.509 64 M
607.509 66.64 L
S
GR
GS
[0.6 0 0 0.6 0 0] CT
2 setlinecap
1 LJ
0.833 LW
N
614.477 64 M
614.477 66.64 L
S
GR
GS
[0.6 0 0 0.6 0 0] CT
2 setlinecap
1 LJ
0.833 LW
N
620.369 64 M
620.369 66.64 L
S
GR
GS
[0.6 0 0 0.6 0 0] CT
2 setlinecap
1 LJ
0.833 LW
N
625.472 64 M
625.472 66.64 L
S
GR
GS
[0.6 0 0 0.6 0 0] CT
2 setlinecap
1 LJ
0.833 LW
N
629.973 64 M
629.973 66.64 L
S
GR
GS
[0.6 0 0 0.6 0 0] CT
2 setlinecap
1 LJ
0.833 LW
N
634 64 M
634 66.64 L
S
GR
GS
[0.6 0 0 0.6 55.8 292.2] CT
/Helvetica 13.333 F
GS
[1 0 0 1 0 0] CT
0 0 moveto 
1 -1 scale
(10) t 
GR
GR
GS
[0.6 0 0 0.6 64.8 288.6] CT
/Helvetica 10.667 F
GS
[1 0 0 1 0 0] CT
0 0 moveto 
1 -1 scale
(-4) t 
GR
GR
GS
[0.6 0 0 0.6 108.6 292.2] CT
/Helvetica 13.333 F
GS
[1 0 0 1 0 0] CT
0 0 moveto 
1 -1 scale
(10) t 
GR
GR
GS
[0.6 0 0 0.6 117.6 288.6] CT
/Helvetica 10.667 F
GS
[1 0 0 1 0 0] CT
0 0 moveto 
1 -1 scale
(-3) t 
GR
GR
GS
[0.6 0 0 0.6 161.4 292.2] CT
/Helvetica 13.333 F
GS
[1 0 0 1 0 0] CT
0 0 moveto 
1 -1 scale
(10) t 
GR
GR
GS
[0.6 0 0 0.6 170.4 288.6] CT
/Helvetica 10.667 F
GS
[1 0 0 1 0 0] CT
0 0 moveto 
1 -1 scale
(-2) t 
GR
GR
GS
[0.6 0 0 0.6 214.2 292.2] CT
/Helvetica 13.333 F
GS
[1 0 0 1 0 0] CT
0 0 moveto 
1 -1 scale
(10) t 
GR
GR
GS
[0.6 0 0 0.6 223.2 288.6] CT
/Helvetica 10.667 F
GS
[1 0 0 1 0 0] CT
0 0 moveto 
1 -1 scale
(-1) t 
GR
GR
GS
[0.6 0 0 0.6 268.2 292.2] CT
/Helvetica 13.333 F
GS
[1 0 0 1 0 0] CT
0 0 moveto 
1 -1 scale
(10) t 
GR
GR
GS
[0.6 0 0 0.6 277.2 288.6] CT
/Helvetica 10.667 F
GS
[1 0 0 1 0 0] CT
0 0 moveto 
1 -1 scale
(0) t 
GR
GR
GS
[0.6 0 0 0.6 321 292.2] CT
/Helvetica 13.333 F
GS
[1 0 0 1 0 0] CT
0 0 moveto 
1 -1 scale
(10) t 
GR
GR
GS
[0.6 0 0 0.6 330 288.6] CT
/Helvetica 10.667 F
GS
[1 0 0 1 0 0] CT
0 0 moveto 
1 -1 scale
(1) t 
GR
GR
GS
[0.6 0 0 0.6 373.8 292.2] CT
/Helvetica 13.333 F
GS
[1 0 0 1 0 0] CT
0 0 moveto 
1 -1 scale
(10) t 
GR
GR
GS
[0.6 0 0 0.6 382.8 288.6] CT
/Helvetica 10.667 F
GS
[1 0 0 1 0 0] CT
0 0 moveto 
1 -1 scale
(2) t 
GR
GR
GS
[0.6 0 0 0.6 0 0] CT
2 setlinecap
1 LJ
0.833 LW
N
106 467 M
106 64 L
S
GR
GS
[0.6 0 0 0.6 0 0] CT
2 setlinecap
1 LJ
0.833 LW
N
634 467 M
634 64 L
S
GR
GS
[0.6 0 0 0.6 0 0] CT
2 setlinecap
1 LJ
0.833 LW
N
106 467 M
111.28 467 L
S
GR
GS
[0.6 0 0 0.6 0 0] CT
2 setlinecap
1 LJ
0.833 LW
N
106 422.222 M
111.28 422.222 L
S
GR
GS
[0.6 0 0 0.6 0 0] CT
2 setlinecap
1 LJ
0.833 LW
N
106 377.444 M
111.28 377.444 L
S
GR
GS
[0.6 0 0 0.6 0 0] CT
2 setlinecap
1 LJ
0.833 LW
N
106 332.667 M
111.28 332.667 L
S
GR
GS
[0.6 0 0 0.6 0 0] CT
2 setlinecap
1 LJ
0.833 LW
N
106 287.889 M
111.28 287.889 L
S
GR
GS
[0.6 0 0 0.6 0 0] CT
2 setlinecap
1 LJ
0.833 LW
N
106 243.111 M
111.28 243.111 L
S
GR
GS
[0.6 0 0 0.6 0 0] CT
2 setlinecap
1 LJ
0.833 LW
N
106 198.333 M
111.28 198.333 L
S
GR
GS
[0.6 0 0 0.6 0 0] CT
2 setlinecap
1 LJ
0.833 LW
N
106 153.556 M
111.28 153.556 L
S
GR
GS
[0.6 0 0 0.6 0 0] CT
2 setlinecap
1 LJ
0.833 LW
N
106 108.778 M
111.28 108.778 L
S
GR
GS
[0.6 0 0 0.6 0 0] CT
2 setlinecap
1 LJ
0.833 LW
N
106 64 M
111.28 64 L
S
GR
GS
[0.6 0 0 0.6 0 0] CT
2 setlinecap
1 LJ
0.833 LW
N
634 467 M
628.72 467 L
S
GR
GS
[0.6 0 0 0.6 0 0] CT
2 setlinecap
1 LJ
0.833 LW
N
634 422.222 M
628.72 422.222 L
S
GR
GS
[0.6 0 0 0.6 0 0] CT
2 setlinecap
1 LJ
0.833 LW
N
634 377.444 M
628.72 377.444 L
S
GR
GS
[0.6 0 0 0.6 0 0] CT
2 setlinecap
1 LJ
0.833 LW
N
634 332.667 M
628.72 332.667 L
S
GR
GS
[0.6 0 0 0.6 0 0] CT
2 setlinecap
1 LJ
0.833 LW
N
634 287.889 M
628.72 287.889 L
S
GR
GS
[0.6 0 0 0.6 0 0] CT
2 setlinecap
1 LJ
0.833 LW
N
634 243.111 M
628.72 243.111 L
S
GR
GS
[0.6 0 0 0.6 0 0] CT
2 setlinecap
1 LJ
0.833 LW
N
634 198.333 M
628.72 198.333 L
S
GR
GS
[0.6 0 0 0.6 0 0] CT
2 setlinecap
1 LJ
0.833 LW
N
634 153.556 M
628.72 153.556 L
S
GR
GS
[0.6 0 0 0.6 0 0] CT
2 setlinecap
1 LJ
0.833 LW
N
634 108.778 M
628.72 108.778 L
S
GR
GS
[0.6 0 0 0.6 0 0] CT
2 setlinecap
1 LJ
0.833 LW
N
634 64 M
628.72 64 L
S
GR
GS
[0.6 0 0 0.6 62 280.2] CT
/Helvetica 13.333 F
GS
[1 0 0 1 0 0] CT
-8 5.5 moveto 
1 -1 scale
(0) t 
GR
GR
GS
[0.6 0 0 0.6 62 253.33334] CT
/Helvetica 13.333 F
GS
[1 0 0 1 0 0] CT
-19 5.5 moveto 
1 -1 scale
(0.2) t 
GR
GR
GS
[0.6 0 0 0.6 62 226.46667] CT
/Helvetica 13.333 F
GS
[1 0 0 1 0 0] CT
-19 5.5 moveto 
1 -1 scale
(0.4) t 
GR
GR
GS
[0.6 0 0 0.6 62 199.59999] CT
/Helvetica 13.333 F
GS
[1 0 0 1 0 0] CT
-19 5.5 moveto 
1 -1 scale
(0.6) t 
GR
GR
GS
[0.6 0 0 0.6 62 172.73333] CT
/Helvetica 13.333 F
GS
[1 0 0 1 0 0] CT
-19 5.5 moveto 
1 -1 scale
(0.8) t 
GR
GR
GS
[0.6 0 0 0.6 62 145.86666] CT
/Helvetica 13.333 F
GS
[1 0 0 1 0 0] CT
-8 5.5 moveto 
1 -1 scale
(1) t 
GR
GR
GS
[0.6 0 0 0.6 62 119] CT
/Helvetica 13.333 F
GS
[1 0 0 1 0 0] CT
-19 5.5 moveto 
1 -1 scale
(1.2) t 
GR
GR
GS
[0.6 0 0 0.6 62 92.13333] CT
/Helvetica 13.333 F
GS
[1 0 0 1 0 0] CT
-19 5.5 moveto 
1 -1 scale
(1.4) t 
GR
GR
GS
[0.6 0 0 0.6 62 65.26667] CT
/Helvetica 13.333 F
GS
[1 0 0 1 0 0] CT
-19 5.5 moveto 
1 -1 scale
(1.6) t 
GR
GR
GS
[0.6 0 0 0.6 62 38.4] CT
/Helvetica 13.333 F
GS
[1 0 0 1 0 0] CT
-19 5.5 moveto 
1 -1 scale
(1.8) t 
GR
GR
GS
[0 -0.6 0.6 0 49.6 159.29989] CT
/Helvetica 13.333 F
GS
[1 0 0 1 0 0] CT
-48.5 -3 moveto 
1 -1 scale
(Magnitude \(abs\)) t 
GR
GR
GS
[0.6 0 0 0.6 0 0] CT
1 0 0 RC
1 LJ
0.833 LW
N
106 98.048 M
111.333 97.557 L
116.667 97.184 L
122 96.901 L
127.333 96.687 L
132.667 96.524 L
138 96.401 L
143.333 96.308 L
148.667 96.238 L
154 96.185 L
159.333 96.144 L
164.667 96.114 L
170 96.091 L
175.333 96.074 L
180.667 96.062 L
186 96.052 L
191.333 96.046 L
196.667 96.042 L
202 96.039 L
207.333 96.038 L
212.667 96.039 L
218 96.042 L
223.333 96.046 L
228.667 96.053 L
234 96.062 L
239.333 96.075 L
244.667 96.092 L
250 96.115 L
255.333 96.146 L
260.667 96.187 L
266 96.242 L
271.333 96.314 L
276.667 96.409 L
282 96.536 L
287.333 96.704 L
292.667 96.927 L
298 97.224 L
303.333 97.62 L
308.667 98.147 L
314 98.852 L
319.333 99.793 L
324.667 101.05 L
330 102.726 L
335.333 104.951 L
340.667 107.88 L
346 111.685 L
351.333 116.534 L
356.667 122.554 L
362 129.783 L
367.333 138.12 L
372.667 147.301 L
378 156.911 L
383.333 166.456 L
388.667 175.455 L
394 183.58 L
399.333 190.834 L
404.667 197.749 L
410 205.411 L
415.333 214.995 L
420.667 226.968 L
426 240.786 L
431.333 254.947 L
436.667 267.473 L
442 276.849 L
447.333 282.355 L
452.667 283.856 L
458 281.662 L
463.333 276.572 L
468.667 269.947 L
474 264.128 L
479.333 263.831 L
484.667 269.712 L
490 269.995 L
495.333 267.755 L
500.667 268.399 L
506 273.142 L
511.333 281.681 L
516.667 293.134 L
522 306.449 L
527.333 320.661 L
532.667 335 L
538 348.914 L
543.333 362.044 L
548.667 374.185 L
554 385.241 L
559.333 395.197 L
564.667 404.087 L
570 411.973 L
575.333 418.936 L
580.667 425.061 L
586 430.434 L
591.333 435.137 L
596.667 439.248 L
602 442.837 L
607.333 445.968 L
612.667 448.696 L
618 451.073 L
623.333 453.142 L
628.667 454.944 L
634 456.512 L
S
GR
GS
[0.6 0 0 0.6 0 0] CT
0 0 1 RC
1 LJ
0.833 LW
N
106 422.222 M
111.333 422.222 L
116.667 422.222 L
122 422.222 L
127.333 422.222 L
132.667 422.222 L
138 422.222 L
143.333 422.222 L
148.667 422.222 L
154 422.222 L
159.333 422.222 L
164.667 422.222 L
170 422.222 L
175.333 422.222 L
180.667 422.221 L
186 422.221 L
191.333 422.221 L
196.667 422.22 L
202 422.219 L
207.333 422.217 L
212.667 422.216 L
218 422.213 L
223.333 422.21 L
228.667 422.206 L
234 422.2 L
239.333 422.193 L
244.667 422.184 L
250 422.171 L
255.333 422.154 L
260.667 422.132 L
266 422.103 L
271.333 422.064 L
276.667 422.013 L
282 421.947 L
287.333 421.859 L
292.667 421.743 L
298 421.592 L
303.333 421.395 L
308.667 421.138 L
314 420.804 L
319.333 420.374 L
324.667 419.823 L
330 419.121 L
335.333 418.235 L
340.667 417.129 L
346 415.765 L
351.333 414.104 L
356.667 412.111 L
362 409.75 L
367.333 406.981 L
372.667 403.738 L
378 399.902 L
383.333 395.279 L
388.667 389.589 L
394 382.52 L
399.333 373.888 L
404.667 363.984 L
410 354.088 L
415.333 346.233 L
420.667 340.714 L
426 335.511 L
431.333 330.673 L
436.667 327.082 L
442 324.832 L
447.333 323.996 L
452.667 325.027 L
458 328.633 L
463.333 335.462 L
468.667 345.661 L
474 357.424 L
479.333 365.746 L
484.667 372.386 L
490 384.082 L
495.333 399.562 L
500.667 414.945 L
506 428.351 L
511.333 439.151 L
516.667 447.383 L
522 453.414 L
527.333 457.709 L
532.667 460.705 L
538 462.765 L
543.333 464.165 L
548.667 465.11 L
554 465.743 L
559.333 466.165 L
564.667 466.446 L
570 466.633 L
575.333 466.756 L
580.667 466.838 L
586 466.892 L
591.333 466.928 L
596.667 466.952 L
602 466.968 L
607.333 466.978 L
612.667 466.985 L
618 466.99 L
623.333 466.993 L
628.667 466.995 L
634 466.997 L
S
GR
GS
[0.6 0 0 0.6 0 0] CT
1 LJ
0.833 LW
N
106 93.101 M
111.333 93.018 L
116.667 92.892 L
122 92.843 L
127.333 92.761 L
132.667 92.712 L
138 92.674 L
143.333 92.689 L
148.667 92.674 L
154 92.618 L
159.333 92.645 L
164.667 92.583 L
170 92.641 L
175.333 92.582 L
180.667 92.611 L
186 92.581 L
191.333 92.581 L
196.667 92.61 L
202 92.61 L
207.333 92.611 L
212.667 92.581 L
218 92.573 L
223.333 92.572 L
228.667 92.571 L
234 92.57 L
239.333 92.569 L
244.667 92.556 L
250 92.526 L
255.333 92.525 L
260.667 92.525 L
266 92.513 L
271.333 92.52 L
276.667 92.534 L
282 92.549 L
287.333 92.536 L
292.667 92.586 L
298 92.589 L
303.333 92.766 L
308.667 92.911 L
314 93.118 L
319.333 93.397 L
324.667 93.833 L
330 94.407 L
335.333 95.243 L
340.667 96.37 L
346 97.903 L
351.333 100.004 L
356.667 102.644 L
362 106.009 L
367.333 110.058 L
372.667 114.724 L
378 119.86 L
383.333 125.05 L
388.667 129.647 L
394 132.727 L
399.333 133.183 L
404.667 130.303 L
410 125.012 L
415.333 120.15 L
420.667 117.597 L
426 114.868 L
431.333 114.493 L
436.667 114.235 L
442 113.395 L
447.333 111.925 L
452.667 110.754 L
458 111.367 L
463.333 115.194 L
468.667 123.217 L
474 133.998 L
479.333 144.318 L
484.667 156.717 L
490 171.903 L
495.333 189.38 L
500.667 208.876 L
506 229.484 L
511.333 250.444 L
516.667 271.147 L
522 291.122 L
527.333 310.806 L
532.667 328.367 L
538 344.474 L
543.333 359.084 L
548.667 372.216 L
554 383.935 L
559.333 394.331 L
564.667 403.513 L
570 411.593 L
575.333 418.683 L
580.667 424.893 L
586 430.257 L
591.333 435.019 L
596.667 439.168 L
602 442.783 L
607.333 445.93 L
612.667 448.67 L
618 451.054 L
623.333 453.129 L
628.667 454.934 L
634 456.505 L
S
GR
GS
[0.6 0 0 0.6 0 0] CT
1 GC
N
621 135 M
621 77 L
428 77 L
428 135 L
cp
f
GR
GS
[0.6 0 0 0.6 292.09572 52.88646] CT
/Helvetica 13.333 F
GS
[1 0 0 1 0 0] CT
0 5.5 moveto 
1 -1 scale
(Nominal Performance) t 
GR
GR
GS
[0.6 0 0 0.6 0 0] CT
1 0 0 RC
1 LJ
0.833 LW
N
433.007 88.144 M
483.071 88.144 L
S
GR
GS
[0.6 0 0 0.6 292.09572 63.6] CT
/Helvetica 13.333 F
GS
[1 0 0 1 0 0] CT
0 5.5 moveto 
1 -1 scale
(Robust Stability) t 
GR
GR
GS
[0.6 0 0 0.6 0 0] CT
0 0 1 RC
1 LJ
0.833 LW
N
433.007 106 M
483.071 106 L
S
GR
GS
[0.6 0 0 0.6 292.09572 74.31354] CT
/Helvetica 13.333 F
GS
[1 0 0 1 0 0] CT
0 5.5 moveto 
1 -1 scale
(Robust Performance) t 
GR
GR
GS
[0.6 0 0 0.6 0 0] CT
1 LJ
0.833 LW
N
433.007 123.856 M
483.071 123.856 L
S
GR
GS
[0.6 0 0 0.6 0 0] CT
0.149 GC
10.0 ML
0.833 LW
N
428 135 M
428 77 L
621 77 L
621 135 L
cp
S
GR
GS
[0.6 0 0 0.6 221.1 33.225] CT
/Helvetica 13.333 F
GS
[1 0 0 1 0 0] CT
-98 -3 moveto 
1 -1 scale
(Mu analysis of 1dof Mu controller) t 
GR
GR
GS
[0.6 0 0 0.6 221.1 292.29999] CT
/Helvetica 13.333 F
GS
[1 0 0 1 0 0] CT
-83 14 moveto 
1 -1 scale
(Frequency \(rad/min\)  \(rad/s\)) t 
GR
GR
%%Trailer
%%Pages: 1
%%EOF
