%!PS-Adobe-3.0 EPSF-3.0
%%Creator: (MATLAB, The Mathworks, Inc. Version 9.5.0.1033004 \(R2018b\) Update 2. Operating System: Windows 10)
%%Title: C:/Users/super/Desktop/column/report/img/mu_an_Hinf_1dof.eps
%%CreationDate: 2019-02-28T11:24:48
%%Pages: (atend)
%%BoundingBox: 0 0 420 315
%%LanguageLevel: 3
%%EndComments
%%BeginProlog
%%BeginResource: procset (Apache XML Graphics Std ProcSet) 1.2 0
%%Version: 1.2 0
%%Copyright: (Copyright 2001-2003,2010 The Apache Software Foundation. License terms: http://www.apache.org/licenses/LICENSE-2.0)
/bd{bind def}bind def
/ld{load def}bd
/GR/grestore ld
/GS/gsave ld
/RM/rmoveto ld
/C/curveto ld
/t/show ld
/L/lineto ld
/ML/setmiterlimit ld
/CT/concat ld
/f/fill ld
/N/newpath ld
/S/stroke ld
/CC/setcmykcolor ld
/A/ashow ld
/cp/closepath ld
/RC/setrgbcolor ld
/LJ/setlinejoin ld
/GC/setgray ld
/LW/setlinewidth ld
/M/moveto ld
/re {4 2 roll M
1 index 0 rlineto
0 exch rlineto
neg 0 rlineto
cp } bd
/_ctm matrix def
/_tm matrix def
/BT { _ctm currentmatrix pop matrix _tm copy pop 0 0 moveto } bd
/ET { _ctm setmatrix } bd
/iTm { _ctm setmatrix _tm concat } bd
/Tm { _tm astore pop iTm 0 0 moveto } bd
/ux 0.0 def
/uy 0.0 def
/F {
  /Tp exch def
  /Tf exch def
  Tf findfont Tp scalefont setfont
  /cf Tf def  /cs Tp def
} bd
/ULS {currentpoint /uy exch def /ux exch def} bd
/ULE {
  /Tcx currentpoint pop def
  gsave
  newpath
  cf findfont cs scalefont dup
  /FontMatrix get 0 get /Ts exch def /FontInfo get dup
  /UnderlinePosition get Ts mul /To exch def
  /UnderlineThickness get Ts mul /Tt exch def
  ux uy To add moveto  Tcx uy To add lineto
  Tt setlinewidth stroke
  grestore
} bd
/OLE {
  /Tcx currentpoint pop def
  gsave
  newpath
  cf findfont cs scalefont dup
  /FontMatrix get 0 get /Ts exch def /FontInfo get dup
  /UnderlinePosition get Ts mul /To exch def
  /UnderlineThickness get Ts mul /Tt exch def
  ux uy To add cs add moveto Tcx uy To add cs add lineto
  Tt setlinewidth stroke
  grestore
} bd
/SOE {
  /Tcx currentpoint pop def
  gsave
  newpath
  cf findfont cs scalefont dup
  /FontMatrix get 0 get /Ts exch def /FontInfo get dup
  /UnderlinePosition get Ts mul /To exch def
  /UnderlineThickness get Ts mul /Tt exch def
  ux uy To add cs 10 mul 26 idiv add moveto Tcx uy To add cs 10 mul 26 idiv add lineto
  Tt setlinewidth stroke
  grestore
} bd
/QT {
/Y22 exch store
/X22 exch store
/Y21 exch store
/X21 exch store
currentpoint
/Y21 load 2 mul add 3 div exch
/X21 load 2 mul add 3 div exch
/X21 load 2 mul /X22 load add 3 div
/Y21 load 2 mul /Y22 load add 3 div
/X22 load /Y22 load curveto
} bd
/SSPD {
dup length /d exch dict def
{
/v exch def
/k exch def
currentpagedevice k known {
/cpdv currentpagedevice k get def
v cpdv ne {
/upd false def
/nullv v type /nulltype eq def
/nullcpdv cpdv type /nulltype eq def
nullv nullcpdv or
{
/upd true def
} {
/sametype v type cpdv type eq def
sametype {
v type /arraytype eq {
/vlen v length def
/cpdvlen cpdv length def
vlen cpdvlen eq {
0 1 vlen 1 sub {
/i exch def
/obj v i get def
/cpdobj cpdv i get def
obj cpdobj ne {
/upd true def
exit
} if
} for
} {
/upd true def
} ifelse
} {
v type /dicttype eq {
v {
/dv exch def
/dk exch def
/cpddv cpdv dk get def
dv cpddv ne {
/upd true def
exit
} if
} forall
} {
/upd true def
} ifelse
} ifelse
} if
} ifelse
upd true eq {
d k v put
} if
} if
} if
} forall
d length 0 gt {
d setpagedevice
} if
} bd
/RE { % /NewFontName [NewEncodingArray] /FontName RE -
  findfont dup length dict begin
  {
    1 index /FID ne
    {def} {pop pop} ifelse
  } forall
  /Encoding exch def
  /FontName 1 index def
  currentdict definefont pop
  end
} bind def
%%EndResource
%%BeginResource: procset (Apache XML Graphics EPS ProcSet) 1.0 0
%%Version: 1.0 0
%%Copyright: (Copyright 2002-2003 The Apache Software Foundation. License terms: http://www.apache.org/licenses/LICENSE-2.0)
/BeginEPSF { %def
/b4_Inc_state save def         % Save state for cleanup
/dict_count countdictstack def % Count objects on dict stack
/op_count count 1 sub def      % Count objects on operand stack
userdict begin                 % Push userdict on dict stack
/showpage { } def              % Redefine showpage, { } = null proc
0 setgray 0 setlinecap         % Prepare graphics state
1 setlinewidth 0 setlinejoin
10 setmiterlimit [ ] 0 setdash newpath
/languagelevel where           % If level not equal to 1 then
{pop languagelevel             % set strokeadjust and
1 ne                           % overprint to their defaults.
{false setstrokeadjust false setoverprint
} if
} if
} bd
/EndEPSF { %def
count op_count sub {pop} repeat            % Clean up stacks
countdictstack dict_count sub {end} repeat
b4_Inc_state restore
} bd
%%EndResource
%FOPBeginFontDict
%%IncludeResource: font Courier-Oblique
%%IncludeResource: font Courier-BoldOblique
%%IncludeResource: font Courier-Bold
%%IncludeResource: font ZapfDingbats
%%IncludeResource: font Symbol
%%IncludeResource: font Helvetica
%%IncludeResource: font Helvetica-Oblique
%%IncludeResource: font Helvetica-Bold
%%IncludeResource: font Helvetica-BoldOblique
%%IncludeResource: font Times-Roman
%%IncludeResource: font Times-Italic
%%IncludeResource: font Times-Bold
%%IncludeResource: font Times-BoldItalic
%%IncludeResource: font Courier
%FOPEndFontDict
%%BeginResource: encoding WinAnsiEncoding
/WinAnsiEncoding [
/.notdef /.notdef /.notdef /.notdef /.notdef
/.notdef /.notdef /.notdef /.notdef /.notdef
/.notdef /.notdef /.notdef /.notdef /.notdef
/.notdef /.notdef /.notdef /.notdef /.notdef
/.notdef /.notdef /.notdef /.notdef /.notdef
/.notdef /.notdef /.notdef /.notdef /.notdef
/.notdef /.notdef /space /exclam /quotedbl
/numbersign /dollar /percent /ampersand /quotesingle
/parenleft /parenright /asterisk /plus /comma
/hyphen /period /slash /zero /one
/two /three /four /five /six
/seven /eight /nine /colon /semicolon
/less /equal /greater /question /at
/A /B /C /D /E
/F /G /H /I /J
/K /L /M /N /O
/P /Q /R /S /T
/U /V /W /X /Y
/Z /bracketleft /backslash /bracketright /asciicircum
/underscore /quoteleft /a /b /c
/d /e /f /g /h
/i /j /k /l /m
/n /o /p /q /r
/s /t /u /v /w
/x /y /z /braceleft /bar
/braceright /asciitilde /bullet /Euro /bullet
/quotesinglbase /florin /quotedblbase /ellipsis /dagger
/daggerdbl /circumflex /perthousand /Scaron /guilsinglleft
/OE /bullet /Zcaron /bullet /bullet
/quoteleft /quoteright /quotedblleft /quotedblright /bullet
/endash /emdash /asciitilde /trademark /scaron
/guilsinglright /oe /bullet /zcaron /Ydieresis
/space /exclamdown /cent /sterling /currency
/yen /brokenbar /section /dieresis /copyright
/ordfeminine /guillemotleft /logicalnot /sfthyphen /registered
/macron /degree /plusminus /twosuperior /threesuperior
/acute /mu /paragraph /middot /cedilla
/onesuperior /ordmasculine /guillemotright /onequarter /onehalf
/threequarters /questiondown /Agrave /Aacute /Acircumflex
/Atilde /Adieresis /Aring /AE /Ccedilla
/Egrave /Eacute /Ecircumflex /Edieresis /Igrave
/Iacute /Icircumflex /Idieresis /Eth /Ntilde
/Ograve /Oacute /Ocircumflex /Otilde /Odieresis
/multiply /Oslash /Ugrave /Uacute /Ucircumflex
/Udieresis /Yacute /Thorn /germandbls /agrave
/aacute /acircumflex /atilde /adieresis /aring
/ae /ccedilla /egrave /eacute /ecircumflex
/edieresis /igrave /iacute /icircumflex /idieresis
/eth /ntilde /ograve /oacute /ocircumflex
/otilde /odieresis /divide /oslash /ugrave
/uacute /ucircumflex /udieresis /yacute /thorn
/ydieresis
] def
%%EndResource
%FOPBeginFontReencode
/Courier-Oblique findfont
dup length dict begin
  {1 index /FID ne {def} {pop pop} ifelse} forall
  /Encoding WinAnsiEncoding def
  currentdict
end
/Courier-Oblique exch definefont pop
/Courier-BoldOblique findfont
dup length dict begin
  {1 index /FID ne {def} {pop pop} ifelse} forall
  /Encoding WinAnsiEncoding def
  currentdict
end
/Courier-BoldOblique exch definefont pop
/Courier-Bold findfont
dup length dict begin
  {1 index /FID ne {def} {pop pop} ifelse} forall
  /Encoding WinAnsiEncoding def
  currentdict
end
/Courier-Bold exch definefont pop
/Helvetica findfont
dup length dict begin
  {1 index /FID ne {def} {pop pop} ifelse} forall
  /Encoding WinAnsiEncoding def
  currentdict
end
/Helvetica exch definefont pop
/Helvetica-Oblique findfont
dup length dict begin
  {1 index /FID ne {def} {pop pop} ifelse} forall
  /Encoding WinAnsiEncoding def
  currentdict
end
/Helvetica-Oblique exch definefont pop
/Helvetica-Bold findfont
dup length dict begin
  {1 index /FID ne {def} {pop pop} ifelse} forall
  /Encoding WinAnsiEncoding def
  currentdict
end
/Helvetica-Bold exch definefont pop
/Helvetica-BoldOblique findfont
dup length dict begin
  {1 index /FID ne {def} {pop pop} ifelse} forall
  /Encoding WinAnsiEncoding def
  currentdict
end
/Helvetica-BoldOblique exch definefont pop
/Times-Roman findfont
dup length dict begin
  {1 index /FID ne {def} {pop pop} ifelse} forall
  /Encoding WinAnsiEncoding def
  currentdict
end
/Times-Roman exch definefont pop
/Times-Italic findfont
dup length dict begin
  {1 index /FID ne {def} {pop pop} ifelse} forall
  /Encoding WinAnsiEncoding def
  currentdict
end
/Times-Italic exch definefont pop
/Times-Bold findfont
dup length dict begin
  {1 index /FID ne {def} {pop pop} ifelse} forall
  /Encoding WinAnsiEncoding def
  currentdict
end
/Times-Bold exch definefont pop
/Times-BoldItalic findfont
dup length dict begin
  {1 index /FID ne {def} {pop pop} ifelse} forall
  /Encoding WinAnsiEncoding def
  currentdict
end
/Times-BoldItalic exch definefont pop
/Courier findfont
dup length dict begin
  {1 index /FID ne {def} {pop pop} ifelse} forall
  /Encoding WinAnsiEncoding def
  currentdict
end
/Courier exch definefont pop
%FOPEndFontReencode
%%EndProlog
%%Page: 1 1
%%PageBoundingBox: 0 0 420 315
%%BeginPageSetup
[1 0 0 -1 0 315] CT
%%EndPageSetup
GS
[0.6 0 0 0.6 0 0] CT
1 GC
N
0 0 700 525 re
f
GR
GS
[0.6 0 0 0.6 0 0] CT
1 GC
N
0 0 700 525 re
f
GR
GS
[0.6 0 0 0.6 0 0] CT
1 GC
N
106 467 M
634 467 L
634 64 L
106 64 L
cp
f
GR
GS
[0.6 0 0 0.6 0 0] CT
0.749 GC
[1 3] 0 setdash
2 LJ
0.833 LW
N
114.82 467 M
114.82 64 L
S
GR
GS
[0.6 0 0 0.6 0 0] CT
0.749 GC
[1 3] 0 setdash
2 LJ
0.833 LW
N
122.635 467 M
122.635 64 L
S
GR
GS
[0.6 0 0 0.6 0 0] CT
0.749 GC
[1 3] 0 setdash
2 LJ
0.833 LW
N
128.18 467 M
128.18 64 L
S
GR
GS
[0.6 0 0 0.6 0 0] CT
0.749 GC
[1 3] 0 setdash
2 LJ
0.833 LW
N
132.48 467 M
132.48 64 L
S
GR
GS
[0.6 0 0 0.6 0 0] CT
0.749 GC
[1 3] 0 setdash
2 LJ
0.833 LW
N
135.994 467 M
135.994 64 L
S
GR
GS
[0.6 0 0 0.6 0 0] CT
0.749 GC
[1 3] 0 setdash
2 LJ
0.833 LW
N
138.965 467 M
138.965 64 L
S
GR
GS
[0.6 0 0 0.6 0 0] CT
0.749 GC
[1 3] 0 setdash
2 LJ
0.833 LW
N
141.539 467 M
141.539 64 L
S
GR
GS
[0.6 0 0 0.6 0 0] CT
0.749 GC
[1 3] 0 setdash
2 LJ
0.833 LW
N
143.809 467 M
143.809 64 L
S
GR
GS
[0.6 0 0 0.6 0 0] CT
0.749 GC
[1 3] 0 setdash
2 LJ
0.833 LW
N
145.84 467 M
145.84 64 L
S
GR
GS
[0.6 0 0 0.6 0 0] CT
0.749 GC
[1 3] 0 setdash
2 LJ
0.833 LW
N
159.199 467 M
159.199 64 L
S
GR
GS
[0.6 0 0 0.6 0 0] CT
0.749 GC
[1 3] 0 setdash
2 LJ
0.833 LW
N
167.013 467 M
167.013 64 L
S
GR
GS
[0.6 0 0 0.6 0 0] CT
0.749 GC
[1 3] 0 setdash
2 LJ
0.833 LW
N
172.558 467 M
172.558 64 L
S
GR
GS
[0.6 0 0 0.6 0 0] CT
0.749 GC
[1 3] 0 setdash
2 LJ
0.833 LW
N
176.859 467 M
176.859 64 L
S
GR
GS
[0.6 0 0 0.6 0 0] CT
0.749 GC
[1 3] 0 setdash
2 LJ
0.833 LW
N
180.373 467 M
180.373 64 L
S
GR
GS
[0.6 0 0 0.6 0 0] CT
0.749 GC
[1 3] 0 setdash
2 LJ
0.833 LW
N
183.343 467 M
183.343 64 L
S
GR
GS
[0.6 0 0 0.6 0 0] CT
0.749 GC
[1 3] 0 setdash
2 LJ
0.833 LW
N
185.917 467 M
185.917 64 L
S
GR
GS
[0.6 0 0 0.6 0 0] CT
0.749 GC
[1 3] 0 setdash
2 LJ
0.833 LW
N
188.187 467 M
188.187 64 L
S
GR
GS
[0.6 0 0 0.6 0 0] CT
0.749 GC
[1 3] 0 setdash
2 LJ
0.833 LW
N
203.577 467 M
203.577 64 L
S
GR
GS
[0.6 0 0 0.6 0 0] CT
0.749 GC
[1 3] 0 setdash
2 LJ
0.833 LW
N
211.392 467 M
211.392 64 L
S
GR
GS
[0.6 0 0 0.6 0 0] CT
0.749 GC
[1 3] 0 setdash
2 LJ
0.833 LW
N
216.936 467 M
216.936 64 L
S
GR
GS
[0.6 0 0 0.6 0 0] CT
0.749 GC
[1 3] 0 setdash
2 LJ
0.833 LW
N
221.237 467 M
221.237 64 L
S
GR
GS
[0.6 0 0 0.6 0 0] CT
0.749 GC
[1 3] 0 setdash
2 LJ
0.833 LW
N
224.751 467 M
224.751 64 L
S
GR
GS
[0.6 0 0 0.6 0 0] CT
0.749 GC
[1 3] 0 setdash
2 LJ
0.833 LW
N
227.722 467 M
227.722 64 L
S
GR
GS
[0.6 0 0 0.6 0 0] CT
0.749 GC
[1 3] 0 setdash
2 LJ
0.833 LW
N
230.295 467 M
230.295 64 L
S
GR
GS
[0.6 0 0 0.6 0 0] CT
0.749 GC
[1 3] 0 setdash
2 LJ
0.833 LW
N
232.565 467 M
232.565 64 L
S
GR
GS
[0.6 0 0 0.6 0 0] CT
0.749 GC
[1 3] 0 setdash
2 LJ
0.833 LW
N
234.596 467 M
234.596 64 L
S
GR
GS
[0.6 0 0 0.6 0 0] CT
0.749 GC
[1 3] 0 setdash
2 LJ
0.833 LW
N
247.955 467 M
247.955 64 L
S
GR
GS
[0.6 0 0 0.6 0 0] CT
0.749 GC
[1 3] 0 setdash
2 LJ
0.833 LW
N
255.77 467 M
255.77 64 L
S
GR
GS
[0.6 0 0 0.6 0 0] CT
0.749 GC
[1 3] 0 setdash
2 LJ
0.833 LW
N
261.314 467 M
261.314 64 L
S
GR
GS
[0.6 0 0 0.6 0 0] CT
0.749 GC
[1 3] 0 setdash
2 LJ
0.833 LW
N
265.615 467 M
265.615 64 L
S
GR
GS
[0.6 0 0 0.6 0 0] CT
0.749 GC
[1 3] 0 setdash
2 LJ
0.833 LW
N
269.129 467 M
269.129 64 L
S
GR
GS
[0.6 0 0 0.6 0 0] CT
0.749 GC
[1 3] 0 setdash
2 LJ
0.833 LW
N
272.1 467 M
272.1 64 L
S
GR
GS
[0.6 0 0 0.6 0 0] CT
0.749 GC
[1 3] 0 setdash
2 LJ
0.833 LW
N
274.674 467 M
274.674 64 L
S
GR
GS
[0.6 0 0 0.6 0 0] CT
0.749 GC
[1 3] 0 setdash
2 LJ
0.833 LW
N
276.944 467 M
276.944 64 L
S
GR
GS
[0.6 0 0 0.6 0 0] CT
0.749 GC
[1 3] 0 setdash
2 LJ
0.833 LW
N
292.333 467 M
292.333 64 L
S
GR
GS
[0.6 0 0 0.6 0 0] CT
0.749 GC
[1 3] 0 setdash
2 LJ
0.833 LW
N
300.148 467 M
300.148 64 L
S
GR
GS
[0.6 0 0 0.6 0 0] CT
0.749 GC
[1 3] 0 setdash
2 LJ
0.833 LW
N
305.693 467 M
305.693 64 L
S
GR
GS
[0.6 0 0 0.6 0 0] CT
0.749 GC
[1 3] 0 setdash
2 LJ
0.833 LW
N
309.993 467 M
309.993 64 L
S
GR
GS
[0.6 0 0 0.6 0 0] CT
0.749 GC
[1 3] 0 setdash
2 LJ
0.833 LW
N
313.507 467 M
313.507 64 L
S
GR
GS
[0.6 0 0 0.6 0 0] CT
0.749 GC
[1 3] 0 setdash
2 LJ
0.833 LW
N
316.478 467 M
316.478 64 L
S
GR
GS
[0.6 0 0 0.6 0 0] CT
0.749 GC
[1 3] 0 setdash
2 LJ
0.833 LW
N
319.052 467 M
319.052 64 L
S
GR
GS
[0.6 0 0 0.6 0 0] CT
0.749 GC
[1 3] 0 setdash
2 LJ
0.833 LW
N
321.322 467 M
321.322 64 L
S
GR
GS
[0.6 0 0 0.6 0 0] CT
0.749 GC
[1 3] 0 setdash
2 LJ
0.833 LW
N
323.352 467 M
323.352 64 L
S
GR
GS
[0.6 0 0 0.6 0 0] CT
0.749 GC
[1 3] 0 setdash
2 LJ
0.833 LW
N
336.712 467 M
336.712 64 L
S
GR
GS
[0.6 0 0 0.6 0 0] CT
0.749 GC
[1 3] 0 setdash
2 LJ
0.833 LW
N
344.526 467 M
344.526 64 L
S
GR
GS
[0.6 0 0 0.6 0 0] CT
0.749 GC
[1 3] 0 setdash
2 LJ
0.833 LW
N
350.071 467 M
350.071 64 L
S
GR
GS
[0.6 0 0 0.6 0 0] CT
0.749 GC
[1 3] 0 setdash
2 LJ
0.833 LW
N
354.371 467 M
354.371 64 L
S
GR
GS
[0.6 0 0 0.6 0 0] CT
0.749 GC
[1 3] 0 setdash
2 LJ
0.833 LW
N
357.885 467 M
357.885 64 L
S
GR
GS
[0.6 0 0 0.6 0 0] CT
0.749 GC
[1 3] 0 setdash
2 LJ
0.833 LW
N
360.856 467 M
360.856 64 L
S
GR
GS
[0.6 0 0 0.6 0 0] CT
0.749 GC
[1 3] 0 setdash
2 LJ
0.833 LW
N
363.43 467 M
363.43 64 L
S
GR
GS
[0.6 0 0 0.6 0 0] CT
0.749 GC
[1 3] 0 setdash
2 LJ
0.833 LW
N
365.7 467 M
365.7 64 L
S
GR
GS
[0.6 0 0 0.6 0 0] CT
0.749 GC
[1 3] 0 setdash
2 LJ
0.833 LW
N
367.731 467 M
367.731 64 L
S
GR
GS
[0.6 0 0 0.6 0 0] CT
0.749 GC
[1 3] 0 setdash
2 LJ
0.833 LW
N
381.09 467 M
381.09 64 L
S
GR
GS
[0.6 0 0 0.6 0 0] CT
0.749 GC
[1 3] 0 setdash
2 LJ
0.833 LW
N
388.904 467 M
388.904 64 L
S
GR
GS
[0.6 0 0 0.6 0 0] CT
0.749 GC
[1 3] 0 setdash
2 LJ
0.833 LW
N
394.449 467 M
394.449 64 L
S
GR
GS
[0.6 0 0 0.6 0 0] CT
0.749 GC
[1 3] 0 setdash
2 LJ
0.833 LW
N
398.75 467 M
398.75 64 L
S
GR
GS
[0.6 0 0 0.6 0 0] CT
0.749 GC
[1 3] 0 setdash
2 LJ
0.833 LW
N
402.264 467 M
402.264 64 L
S
GR
GS
[0.6 0 0 0.6 0 0] CT
0.749 GC
[1 3] 0 setdash
2 LJ
0.833 LW
N
405.235 467 M
405.235 64 L
S
GR
GS
[0.6 0 0 0.6 0 0] CT
0.749 GC
[1 3] 0 setdash
2 LJ
0.833 LW
N
407.808 467 M
407.808 64 L
S
GR
GS
[0.6 0 0 0.6 0 0] CT
0.749 GC
[1 3] 0 setdash
2 LJ
0.833 LW
N
410.078 467 M
410.078 64 L
S
GR
GS
[0.6 0 0 0.6 0 0] CT
0.749 GC
[1 3] 0 setdash
2 LJ
0.833 LW
N
412.109 467 M
412.109 64 L
S
GR
GS
[0.6 0 0 0.6 0 0] CT
0.749 GC
[1 3] 0 setdash
2 LJ
0.833 LW
N
425.468 467 M
425.468 64 L
S
GR
GS
[0.6 0 0 0.6 0 0] CT
0.749 GC
[1 3] 0 setdash
2 LJ
0.833 LW
N
433.283 467 M
433.283 64 L
S
GR
GS
[0.6 0 0 0.6 0 0] CT
0.749 GC
[1 3] 0 setdash
2 LJ
0.833 LW
N
438.827 467 M
438.827 64 L
S
GR
GS
[0.6 0 0 0.6 0 0] CT
0.749 GC
[1 3] 0 setdash
2 LJ
0.833 LW
N
443.128 467 M
443.128 64 L
S
GR
GS
[0.6 0 0 0.6 0 0] CT
0.749 GC
[1 3] 0 setdash
2 LJ
0.833 LW
N
446.642 467 M
446.642 64 L
S
GR
GS
[0.6 0 0 0.6 0 0] CT
0.749 GC
[1 3] 0 setdash
2 LJ
0.833 LW
N
449.613 467 M
449.613 64 L
S
GR
GS
[0.6 0 0 0.6 0 0] CT
0.749 GC
[1 3] 0 setdash
2 LJ
0.833 LW
N
452.186 467 M
452.186 64 L
S
GR
GS
[0.6 0 0 0.6 0 0] CT
0.749 GC
[1 3] 0 setdash
2 LJ
0.833 LW
N
454.456 467 M
454.456 64 L
S
GR
GS
[0.6 0 0 0.6 0 0] CT
0.749 GC
[1 3] 0 setdash
2 LJ
0.833 LW
N
469.846 467 M
469.846 64 L
S
GR
GS
[0.6 0 0 0.6 0 0] CT
0.749 GC
[1 3] 0 setdash
2 LJ
0.833 LW
N
477.661 467 M
477.661 64 L
S
GR
GS
[0.6 0 0 0.6 0 0] CT
0.749 GC
[1 3] 0 setdash
2 LJ
0.833 LW
N
483.205 467 M
483.205 64 L
S
GR
GS
[0.6 0 0 0.6 0 0] CT
0.749 GC
[1 3] 0 setdash
2 LJ
0.833 LW
N
487.506 467 M
487.506 64 L
S
GR
GS
[0.6 0 0 0.6 0 0] CT
0.749 GC
[1 3] 0 setdash
2 LJ
0.833 LW
N
491.02 467 M
491.02 64 L
S
GR
GS
[0.6 0 0 0.6 0 0] CT
0.749 GC
[1 3] 0 setdash
2 LJ
0.833 LW
N
493.991 467 M
493.991 64 L
S
GR
GS
[0.6 0 0 0.6 0 0] CT
0.749 GC
[1 3] 0 setdash
2 LJ
0.833 LW
N
496.565 467 M
496.565 64 L
S
GR
GS
[0.6 0 0 0.6 0 0] CT
0.749 GC
[1 3] 0 setdash
2 LJ
0.833 LW
N
498.835 467 M
498.835 64 L
S
GR
GS
[0.6 0 0 0.6 0 0] CT
0.749 GC
[1 3] 0 setdash
2 LJ
0.833 LW
N
500.865 467 M
500.865 64 L
S
GR
GS
[0.6 0 0 0.6 0 0] CT
0.749 GC
[1 3] 0 setdash
2 LJ
0.833 LW
N
514.224 467 M
514.224 64 L
S
GR
GS
[0.6 0 0 0.6 0 0] CT
0.749 GC
[1 3] 0 setdash
2 LJ
0.833 LW
N
522.039 467 M
522.039 64 L
S
GR
GS
[0.6 0 0 0.6 0 0] CT
0.749 GC
[1 3] 0 setdash
2 LJ
0.833 LW
N
527.584 467 M
527.584 64 L
S
GR
GS
[0.6 0 0 0.6 0 0] CT
0.749 GC
[1 3] 0 setdash
2 LJ
0.833 LW
N
531.884 467 M
531.884 64 L
S
GR
GS
[0.6 0 0 0.6 0 0] CT
0.749 GC
[1 3] 0 setdash
2 LJ
0.833 LW
N
535.398 467 M
535.398 64 L
S
GR
GS
[0.6 0 0 0.6 0 0] CT
0.749 GC
[1 3] 0 setdash
2 LJ
0.833 LW
N
538.369 467 M
538.369 64 L
S
GR
GS
[0.6 0 0 0.6 0 0] CT
0.749 GC
[1 3] 0 setdash
2 LJ
0.833 LW
N
540.943 467 M
540.943 64 L
S
GR
GS
[0.6 0 0 0.6 0 0] CT
0.749 GC
[1 3] 0 setdash
2 LJ
0.833 LW
N
543.213 467 M
543.213 64 L
S
GR
GS
[0.6 0 0 0.6 0 0] CT
0.749 GC
[1 3] 0 setdash
2 LJ
0.833 LW
N
558.603 467 M
558.603 64 L
S
GR
GS
[0.6 0 0 0.6 0 0] CT
0.749 GC
[1 3] 0 setdash
2 LJ
0.833 LW
N
566.417 467 M
566.417 64 L
S
GR
GS
[0.6 0 0 0.6 0 0] CT
0.749 GC
[1 3] 0 setdash
2 LJ
0.833 LW
N
571.962 467 M
571.962 64 L
S
GR
GS
[0.6 0 0 0.6 0 0] CT
0.749 GC
[1 3] 0 setdash
2 LJ
0.833 LW
N
576.263 467 M
576.263 64 L
S
GR
GS
[0.6 0 0 0.6 0 0] CT
0.749 GC
[1 3] 0 setdash
2 LJ
0.833 LW
N
579.776 467 M
579.776 64 L
S
GR
GS
[0.6 0 0 0.6 0 0] CT
0.749 GC
[1 3] 0 setdash
2 LJ
0.833 LW
N
582.747 467 M
582.747 64 L
S
GR
GS
[0.6 0 0 0.6 0 0] CT
0.749 GC
[1 3] 0 setdash
2 LJ
0.833 LW
N
585.321 467 M
585.321 64 L
S
GR
GS
[0.6 0 0 0.6 0 0] CT
0.749 GC
[1 3] 0 setdash
2 LJ
0.833 LW
N
587.591 467 M
587.591 64 L
S
GR
GS
[0.6 0 0 0.6 0 0] CT
0.749 GC
[1 3] 0 setdash
2 LJ
0.833 LW
N
589.622 467 M
589.622 64 L
S
GR
GS
[0.6 0 0 0.6 0 0] CT
0.749 GC
[1 3] 0 setdash
2 LJ
0.833 LW
N
602.981 467 M
602.981 64 L
S
GR
GS
[0.6 0 0 0.6 0 0] CT
0.749 GC
[1 3] 0 setdash
2 LJ
0.833 LW
N
610.796 467 M
610.796 64 L
S
GR
GS
[0.6 0 0 0.6 0 0] CT
0.749 GC
[1 3] 0 setdash
2 LJ
0.833 LW
N
616.34 467 M
616.34 64 L
S
GR
GS
[0.6 0 0 0.6 0 0] CT
0.749 GC
[1 3] 0 setdash
2 LJ
0.833 LW
N
620.641 467 M
620.641 64 L
S
GR
GS
[0.6 0 0 0.6 0 0] CT
0.749 GC
[1 3] 0 setdash
2 LJ
0.833 LW
N
624.155 467 M
624.155 64 L
S
GR
GS
[0.6 0 0 0.6 0 0] CT
0.749 GC
[1 3] 0 setdash
2 LJ
0.833 LW
N
627.126 467 M
627.126 64 L
S
GR
GS
[0.6 0 0 0.6 0 0] CT
0.749 GC
[1 3] 0 setdash
2 LJ
0.833 LW
N
629.699 467 M
629.699 64 L
S
GR
GS
[0.6 0 0 0.6 0 0] CT
0.749 GC
[1 3] 0 setdash
2 LJ
0.833 LW
N
631.969 467 M
631.969 64 L
S
GR
GS
[0.6 0 0 0.6 0 0] CT
0.873 GC
1 LJ
0.833 LW
N
190.218 467 M
190.218 64 L
S
GR
GS
[0.6 0 0 0.6 0 0] CT
0.873 GC
1 LJ
0.833 LW
N
278.974 467 M
278.974 64 L
S
GR
GS
[0.6 0 0 0.6 0 0] CT
0.873 GC
1 LJ
0.833 LW
N
367.731 467 M
367.731 64 L
S
GR
GS
[0.6 0 0 0.6 0 0] CT
0.873 GC
1 LJ
0.833 LW
N
456.487 467 M
456.487 64 L
S
GR
GS
[0.6 0 0 0.6 0 0] CT
0.873 GC
1 LJ
0.833 LW
N
545.244 467 M
545.244 64 L
S
GR
GS
[0.6 0 0 0.6 0 0] CT
0.873 GC
1 LJ
0.833 LW
N
634 467 M
634 64 L
S
GR
GS
[0.6 0 0 0.6 0 0] CT
0.873 GC
1 LJ
0.833 LW
N
634 467 M
106 467 L
S
GR
GS
[0.6 0 0 0.6 0 0] CT
0.873 GC
1 LJ
0.833 LW
N
634 384.768 M
106 384.768 L
S
GR
GS
[0.6 0 0 0.6 0 0] CT
0.873 GC
1 LJ
0.833 LW
N
634 302.535 M
106 302.535 L
S
GR
GS
[0.6 0 0 0.6 0 0] CT
0.873 GC
1 LJ
0.833 LW
N
634 220.303 M
106 220.303 L
S
GR
GS
[0.6 0 0 0.6 0 0] CT
0.873 GC
1 LJ
0.833 LW
N
634 138.07 M
106 138.07 L
S
GR
GS
[0.6 0 0 0.6 0 0] CT
2 setlinecap
1 LJ
0.833 LW
N
106 467 M
634 467 L
S
GR
GS
[0.6 0 0 0.6 0 0] CT
2 setlinecap
1 LJ
0.833 LW
N
106 64 M
634 64 L
S
GR
GS
[0.6 0 0 0.6 0 0] CT
2 setlinecap
1 LJ
0.833 LW
N
190.218 467 M
190.218 461.72 L
S
GR
GS
[0.6 0 0 0.6 0 0] CT
2 setlinecap
1 LJ
0.833 LW
N
278.974 467 M
278.974 461.72 L
S
GR
GS
[0.6 0 0 0.6 0 0] CT
2 setlinecap
1 LJ
0.833 LW
N
367.731 467 M
367.731 461.72 L
S
GR
GS
[0.6 0 0 0.6 0 0] CT
2 setlinecap
1 LJ
0.833 LW
N
456.487 467 M
456.487 461.72 L
S
GR
GS
[0.6 0 0 0.6 0 0] CT
2 setlinecap
1 LJ
0.833 LW
N
545.244 467 M
545.244 461.72 L
S
GR
GS
[0.6 0 0 0.6 0 0] CT
2 setlinecap
1 LJ
0.833 LW
N
634 467 M
634 461.72 L
S
GR
GS
[0.6 0 0 0.6 0 0] CT
2 setlinecap
1 LJ
0.833 LW
N
190.218 64 M
190.218 69.28 L
S
GR
GS
[0.6 0 0 0.6 0 0] CT
2 setlinecap
1 LJ
0.833 LW
N
278.974 64 M
278.974 69.28 L
S
GR
GS
[0.6 0 0 0.6 0 0] CT
2 setlinecap
1 LJ
0.833 LW
N
367.731 64 M
367.731 69.28 L
S
GR
GS
[0.6 0 0 0.6 0 0] CT
2 setlinecap
1 LJ
0.833 LW
N
456.487 64 M
456.487 69.28 L
S
GR
GS
[0.6 0 0 0.6 0 0] CT
2 setlinecap
1 LJ
0.833 LW
N
545.244 64 M
545.244 69.28 L
S
GR
GS
[0.6 0 0 0.6 0 0] CT
2 setlinecap
1 LJ
0.833 LW
N
634 64 M
634 69.28 L
S
GR
GS
[0.6 0 0 0.6 0 0] CT
2 setlinecap
1 LJ
0.833 LW
N
114.82 467 M
114.82 464.36 L
S
GR
GS
[0.6 0 0 0.6 0 0] CT
2 setlinecap
1 LJ
0.833 LW
N
122.635 467 M
122.635 464.36 L
S
GR
GS
[0.6 0 0 0.6 0 0] CT
2 setlinecap
1 LJ
0.833 LW
N
128.18 467 M
128.18 464.36 L
S
GR
GS
[0.6 0 0 0.6 0 0] CT
2 setlinecap
1 LJ
0.833 LW
N
132.48 467 M
132.48 464.36 L
S
GR
GS
[0.6 0 0 0.6 0 0] CT
2 setlinecap
1 LJ
0.833 LW
N
135.994 467 M
135.994 464.36 L
S
GR
GS
[0.6 0 0 0.6 0 0] CT
2 setlinecap
1 LJ
0.833 LW
N
138.965 467 M
138.965 464.36 L
S
GR
GS
[0.6 0 0 0.6 0 0] CT
2 setlinecap
1 LJ
0.833 LW
N
141.539 467 M
141.539 464.36 L
S
GR
GS
[0.6 0 0 0.6 0 0] CT
2 setlinecap
1 LJ
0.833 LW
N
143.809 467 M
143.809 464.36 L
S
GR
GS
[0.6 0 0 0.6 0 0] CT
2 setlinecap
1 LJ
0.833 LW
N
145.84 467 M
145.84 464.36 L
S
GR
GS
[0.6 0 0 0.6 0 0] CT
2 setlinecap
1 LJ
0.833 LW
N
159.199 467 M
159.199 464.36 L
S
GR
GS
[0.6 0 0 0.6 0 0] CT
2 setlinecap
1 LJ
0.833 LW
N
167.013 467 M
167.013 464.36 L
S
GR
GS
[0.6 0 0 0.6 0 0] CT
2 setlinecap
1 LJ
0.833 LW
N
172.558 467 M
172.558 464.36 L
S
GR
GS
[0.6 0 0 0.6 0 0] CT
2 setlinecap
1 LJ
0.833 LW
N
176.859 467 M
176.859 464.36 L
S
GR
GS
[0.6 0 0 0.6 0 0] CT
2 setlinecap
1 LJ
0.833 LW
N
180.373 467 M
180.373 464.36 L
S
GR
GS
[0.6 0 0 0.6 0 0] CT
2 setlinecap
1 LJ
0.833 LW
N
183.343 467 M
183.343 464.36 L
S
GR
GS
[0.6 0 0 0.6 0 0] CT
2 setlinecap
1 LJ
0.833 LW
N
185.917 467 M
185.917 464.36 L
S
GR
GS
[0.6 0 0 0.6 0 0] CT
2 setlinecap
1 LJ
0.833 LW
N
188.187 467 M
188.187 464.36 L
S
GR
GS
[0.6 0 0 0.6 0 0] CT
2 setlinecap
1 LJ
0.833 LW
N
190.218 467 M
190.218 464.36 L
S
GR
GS
[0.6 0 0 0.6 0 0] CT
2 setlinecap
1 LJ
0.833 LW
N
203.577 467 M
203.577 464.36 L
S
GR
GS
[0.6 0 0 0.6 0 0] CT
2 setlinecap
1 LJ
0.833 LW
N
211.392 467 M
211.392 464.36 L
S
GR
GS
[0.6 0 0 0.6 0 0] CT
2 setlinecap
1 LJ
0.833 LW
N
216.936 467 M
216.936 464.36 L
S
GR
GS
[0.6 0 0 0.6 0 0] CT
2 setlinecap
1 LJ
0.833 LW
N
221.237 467 M
221.237 464.36 L
S
GR
GS
[0.6 0 0 0.6 0 0] CT
2 setlinecap
1 LJ
0.833 LW
N
224.751 467 M
224.751 464.36 L
S
GR
GS
[0.6 0 0 0.6 0 0] CT
2 setlinecap
1 LJ
0.833 LW
N
227.722 467 M
227.722 464.36 L
S
GR
GS
[0.6 0 0 0.6 0 0] CT
2 setlinecap
1 LJ
0.833 LW
N
230.295 467 M
230.295 464.36 L
S
GR
GS
[0.6 0 0 0.6 0 0] CT
2 setlinecap
1 LJ
0.833 LW
N
232.565 467 M
232.565 464.36 L
S
GR
GS
[0.6 0 0 0.6 0 0] CT
2 setlinecap
1 LJ
0.833 LW
N
234.596 467 M
234.596 464.36 L
S
GR
GS
[0.6 0 0 0.6 0 0] CT
2 setlinecap
1 LJ
0.833 LW
N
247.955 467 M
247.955 464.36 L
S
GR
GS
[0.6 0 0 0.6 0 0] CT
2 setlinecap
1 LJ
0.833 LW
N
255.77 467 M
255.77 464.36 L
S
GR
GS
[0.6 0 0 0.6 0 0] CT
2 setlinecap
1 LJ
0.833 LW
N
261.314 467 M
261.314 464.36 L
S
GR
GS
[0.6 0 0 0.6 0 0] CT
2 setlinecap
1 LJ
0.833 LW
N
265.615 467 M
265.615 464.36 L
S
GR
GS
[0.6 0 0 0.6 0 0] CT
2 setlinecap
1 LJ
0.833 LW
N
269.129 467 M
269.129 464.36 L
S
GR
GS
[0.6 0 0 0.6 0 0] CT
2 setlinecap
1 LJ
0.833 LW
N
272.1 467 M
272.1 464.36 L
S
GR
GS
[0.6 0 0 0.6 0 0] CT
2 setlinecap
1 LJ
0.833 LW
N
274.674 467 M
274.674 464.36 L
S
GR
GS
[0.6 0 0 0.6 0 0] CT
2 setlinecap
1 LJ
0.833 LW
N
276.944 467 M
276.944 464.36 L
S
GR
GS
[0.6 0 0 0.6 0 0] CT
2 setlinecap
1 LJ
0.833 LW
N
278.974 467 M
278.974 464.36 L
S
GR
GS
[0.6 0 0 0.6 0 0] CT
2 setlinecap
1 LJ
0.833 LW
N
292.333 467 M
292.333 464.36 L
S
GR
GS
[0.6 0 0 0.6 0 0] CT
2 setlinecap
1 LJ
0.833 LW
N
300.148 467 M
300.148 464.36 L
S
GR
GS
[0.6 0 0 0.6 0 0] CT
2 setlinecap
1 LJ
0.833 LW
N
305.693 467 M
305.693 464.36 L
S
GR
GS
[0.6 0 0 0.6 0 0] CT
2 setlinecap
1 LJ
0.833 LW
N
309.993 467 M
309.993 464.36 L
S
GR
GS
[0.6 0 0 0.6 0 0] CT
2 setlinecap
1 LJ
0.833 LW
N
313.507 467 M
313.507 464.36 L
S
GR
GS
[0.6 0 0 0.6 0 0] CT
2 setlinecap
1 LJ
0.833 LW
N
316.478 467 M
316.478 464.36 L
S
GR
GS
[0.6 0 0 0.6 0 0] CT
2 setlinecap
1 LJ
0.833 LW
N
319.052 467 M
319.052 464.36 L
S
GR
GS
[0.6 0 0 0.6 0 0] CT
2 setlinecap
1 LJ
0.833 LW
N
321.322 467 M
321.322 464.36 L
S
GR
GS
[0.6 0 0 0.6 0 0] CT
2 setlinecap
1 LJ
0.833 LW
N
323.352 467 M
323.352 464.36 L
S
GR
GS
[0.6 0 0 0.6 0 0] CT
2 setlinecap
1 LJ
0.833 LW
N
336.712 467 M
336.712 464.36 L
S
GR
GS
[0.6 0 0 0.6 0 0] CT
2 setlinecap
1 LJ
0.833 LW
N
344.526 467 M
344.526 464.36 L
S
GR
GS
[0.6 0 0 0.6 0 0] CT
2 setlinecap
1 LJ
0.833 LW
N
350.071 467 M
350.071 464.36 L
S
GR
GS
[0.6 0 0 0.6 0 0] CT
2 setlinecap
1 LJ
0.833 LW
N
354.371 467 M
354.371 464.36 L
S
GR
GS
[0.6 0 0 0.6 0 0] CT
2 setlinecap
1 LJ
0.833 LW
N
357.885 467 M
357.885 464.36 L
S
GR
GS
[0.6 0 0 0.6 0 0] CT
2 setlinecap
1 LJ
0.833 LW
N
360.856 467 M
360.856 464.36 L
S
GR
GS
[0.6 0 0 0.6 0 0] CT
2 setlinecap
1 LJ
0.833 LW
N
363.43 467 M
363.43 464.36 L
S
GR
GS
[0.6 0 0 0.6 0 0] CT
2 setlinecap
1 LJ
0.833 LW
N
365.7 467 M
365.7 464.36 L
S
GR
GS
[0.6 0 0 0.6 0 0] CT
2 setlinecap
1 LJ
0.833 LW
N
367.731 467 M
367.731 464.36 L
S
GR
GS
[0.6 0 0 0.6 0 0] CT
2 setlinecap
1 LJ
0.833 LW
N
367.731 467 M
367.731 464.36 L
S
GR
GS
[0.6 0 0 0.6 0 0] CT
2 setlinecap
1 LJ
0.833 LW
N
381.09 467 M
381.09 464.36 L
S
GR
GS
[0.6 0 0 0.6 0 0] CT
2 setlinecap
1 LJ
0.833 LW
N
388.904 467 M
388.904 464.36 L
S
GR
GS
[0.6 0 0 0.6 0 0] CT
2 setlinecap
1 LJ
0.833 LW
N
394.449 467 M
394.449 464.36 L
S
GR
GS
[0.6 0 0 0.6 0 0] CT
2 setlinecap
1 LJ
0.833 LW
N
398.75 467 M
398.75 464.36 L
S
GR
GS
[0.6 0 0 0.6 0 0] CT
2 setlinecap
1 LJ
0.833 LW
N
402.264 467 M
402.264 464.36 L
S
GR
GS
[0.6 0 0 0.6 0 0] CT
2 setlinecap
1 LJ
0.833 LW
N
405.235 467 M
405.235 464.36 L
S
GR
GS
[0.6 0 0 0.6 0 0] CT
2 setlinecap
1 LJ
0.833 LW
N
407.808 467 M
407.808 464.36 L
S
GR
GS
[0.6 0 0 0.6 0 0] CT
2 setlinecap
1 LJ
0.833 LW
N
410.078 467 M
410.078 464.36 L
S
GR
GS
[0.6 0 0 0.6 0 0] CT
2 setlinecap
1 LJ
0.833 LW
N
412.109 467 M
412.109 464.36 L
S
GR
GS
[0.6 0 0 0.6 0 0] CT
2 setlinecap
1 LJ
0.833 LW
N
425.468 467 M
425.468 464.36 L
S
GR
GS
[0.6 0 0 0.6 0 0] CT
2 setlinecap
1 LJ
0.833 LW
N
433.283 467 M
433.283 464.36 L
S
GR
GS
[0.6 0 0 0.6 0 0] CT
2 setlinecap
1 LJ
0.833 LW
N
438.827 467 M
438.827 464.36 L
S
GR
GS
[0.6 0 0 0.6 0 0] CT
2 setlinecap
1 LJ
0.833 LW
N
443.128 467 M
443.128 464.36 L
S
GR
GS
[0.6 0 0 0.6 0 0] CT
2 setlinecap
1 LJ
0.833 LW
N
446.642 467 M
446.642 464.36 L
S
GR
GS
[0.6 0 0 0.6 0 0] CT
2 setlinecap
1 LJ
0.833 LW
N
449.613 467 M
449.613 464.36 L
S
GR
GS
[0.6 0 0 0.6 0 0] CT
2 setlinecap
1 LJ
0.833 LW
N
452.186 467 M
452.186 464.36 L
S
GR
GS
[0.6 0 0 0.6 0 0] CT
2 setlinecap
1 LJ
0.833 LW
N
454.456 467 M
454.456 464.36 L
S
GR
GS
[0.6 0 0 0.6 0 0] CT
2 setlinecap
1 LJ
0.833 LW
N
456.487 467 M
456.487 464.36 L
S
GR
GS
[0.6 0 0 0.6 0 0] CT
2 setlinecap
1 LJ
0.833 LW
N
469.846 467 M
469.846 464.36 L
S
GR
GS
[0.6 0 0 0.6 0 0] CT
2 setlinecap
1 LJ
0.833 LW
N
477.661 467 M
477.661 464.36 L
S
GR
GS
[0.6 0 0 0.6 0 0] CT
2 setlinecap
1 LJ
0.833 LW
N
483.205 467 M
483.205 464.36 L
S
GR
GS
[0.6 0 0 0.6 0 0] CT
2 setlinecap
1 LJ
0.833 LW
N
487.506 467 M
487.506 464.36 L
S
GR
GS
[0.6 0 0 0.6 0 0] CT
2 setlinecap
1 LJ
0.833 LW
N
491.02 467 M
491.02 464.36 L
S
GR
GS
[0.6 0 0 0.6 0 0] CT
2 setlinecap
1 LJ
0.833 LW
N
493.991 467 M
493.991 464.36 L
S
GR
GS
[0.6 0 0 0.6 0 0] CT
2 setlinecap
1 LJ
0.833 LW
N
496.565 467 M
496.565 464.36 L
S
GR
GS
[0.6 0 0 0.6 0 0] CT
2 setlinecap
1 LJ
0.833 LW
N
498.835 467 M
498.835 464.36 L
S
GR
GS
[0.6 0 0 0.6 0 0] CT
2 setlinecap
1 LJ
0.833 LW
N
500.865 467 M
500.865 464.36 L
S
GR
GS
[0.6 0 0 0.6 0 0] CT
2 setlinecap
1 LJ
0.833 LW
N
514.224 467 M
514.224 464.36 L
S
GR
GS
[0.6 0 0 0.6 0 0] CT
2 setlinecap
1 LJ
0.833 LW
N
522.039 467 M
522.039 464.36 L
S
GR
GS
[0.6 0 0 0.6 0 0] CT
2 setlinecap
1 LJ
0.833 LW
N
527.584 467 M
527.584 464.36 L
S
GR
GS
[0.6 0 0 0.6 0 0] CT
2 setlinecap
1 LJ
0.833 LW
N
531.884 467 M
531.884 464.36 L
S
GR
GS
[0.6 0 0 0.6 0 0] CT
2 setlinecap
1 LJ
0.833 LW
N
535.398 467 M
535.398 464.36 L
S
GR
GS
[0.6 0 0 0.6 0 0] CT
2 setlinecap
1 LJ
0.833 LW
N
538.369 467 M
538.369 464.36 L
S
GR
GS
[0.6 0 0 0.6 0 0] CT
2 setlinecap
1 LJ
0.833 LW
N
540.943 467 M
540.943 464.36 L
S
GR
GS
[0.6 0 0 0.6 0 0] CT
2 setlinecap
1 LJ
0.833 LW
N
543.213 467 M
543.213 464.36 L
S
GR
GS
[0.6 0 0 0.6 0 0] CT
2 setlinecap
1 LJ
0.833 LW
N
545.244 467 M
545.244 464.36 L
S
GR
GS
[0.6 0 0 0.6 0 0] CT
2 setlinecap
1 LJ
0.833 LW
N
558.603 467 M
558.603 464.36 L
S
GR
GS
[0.6 0 0 0.6 0 0] CT
2 setlinecap
1 LJ
0.833 LW
N
566.417 467 M
566.417 464.36 L
S
GR
GS
[0.6 0 0 0.6 0 0] CT
2 setlinecap
1 LJ
0.833 LW
N
571.962 467 M
571.962 464.36 L
S
GR
GS
[0.6 0 0 0.6 0 0] CT
2 setlinecap
1 LJ
0.833 LW
N
576.263 467 M
576.263 464.36 L
S
GR
GS
[0.6 0 0 0.6 0 0] CT
2 setlinecap
1 LJ
0.833 LW
N
579.776 467 M
579.776 464.36 L
S
GR
GS
[0.6 0 0 0.6 0 0] CT
2 setlinecap
1 LJ
0.833 LW
N
582.747 467 M
582.747 464.36 L
S
GR
GS
[0.6 0 0 0.6 0 0] CT
2 setlinecap
1 LJ
0.833 LW
N
585.321 467 M
585.321 464.36 L
S
GR
GS
[0.6 0 0 0.6 0 0] CT
2 setlinecap
1 LJ
0.833 LW
N
587.591 467 M
587.591 464.36 L
S
GR
GS
[0.6 0 0 0.6 0 0] CT
2 setlinecap
1 LJ
0.833 LW
N
589.622 467 M
589.622 464.36 L
S
GR
GS
[0.6 0 0 0.6 0 0] CT
2 setlinecap
1 LJ
0.833 LW
N
602.981 467 M
602.981 464.36 L
S
GR
GS
[0.6 0 0 0.6 0 0] CT
2 setlinecap
1 LJ
0.833 LW
N
610.796 467 M
610.796 464.36 L
S
GR
GS
[0.6 0 0 0.6 0 0] CT
2 setlinecap
1 LJ
0.833 LW
N
616.34 467 M
616.34 464.36 L
S
GR
GS
[0.6 0 0 0.6 0 0] CT
2 setlinecap
1 LJ
0.833 LW
N
620.641 467 M
620.641 464.36 L
S
GR
GS
[0.6 0 0 0.6 0 0] CT
2 setlinecap
1 LJ
0.833 LW
N
624.155 467 M
624.155 464.36 L
S
GR
GS
[0.6 0 0 0.6 0 0] CT
2 setlinecap
1 LJ
0.833 LW
N
627.126 467 M
627.126 464.36 L
S
GR
GS
[0.6 0 0 0.6 0 0] CT
2 setlinecap
1 LJ
0.833 LW
N
629.699 467 M
629.699 464.36 L
S
GR
GS
[0.6 0 0 0.6 0 0] CT
2 setlinecap
1 LJ
0.833 LW
N
631.969 467 M
631.969 464.36 L
S
GR
GS
[0.6 0 0 0.6 0 0] CT
2 setlinecap
1 LJ
0.833 LW
N
634 467 M
634 464.36 L
S
GR
GS
[0.6 0 0 0.6 0 0] CT
2 setlinecap
1 LJ
0.833 LW
N
114.82 64 M
114.82 66.64 L
S
GR
GS
[0.6 0 0 0.6 0 0] CT
2 setlinecap
1 LJ
0.833 LW
N
122.635 64 M
122.635 66.64 L
S
GR
GS
[0.6 0 0 0.6 0 0] CT
2 setlinecap
1 LJ
0.833 LW
N
128.18 64 M
128.18 66.64 L
S
GR
GS
[0.6 0 0 0.6 0 0] CT
2 setlinecap
1 LJ
0.833 LW
N
132.48 64 M
132.48 66.64 L
S
GR
GS
[0.6 0 0 0.6 0 0] CT
2 setlinecap
1 LJ
0.833 LW
N
135.994 64 M
135.994 66.64 L
S
GR
GS
[0.6 0 0 0.6 0 0] CT
2 setlinecap
1 LJ
0.833 LW
N
138.965 64 M
138.965 66.64 L
S
GR
GS
[0.6 0 0 0.6 0 0] CT
2 setlinecap
1 LJ
0.833 LW
N
141.539 64 M
141.539 66.64 L
S
GR
GS
[0.6 0 0 0.6 0 0] CT
2 setlinecap
1 LJ
0.833 LW
N
143.809 64 M
143.809 66.64 L
S
GR
GS
[0.6 0 0 0.6 0 0] CT
2 setlinecap
1 LJ
0.833 LW
N
145.84 64 M
145.84 66.64 L
S
GR
GS
[0.6 0 0 0.6 0 0] CT
2 setlinecap
1 LJ
0.833 LW
N
159.199 64 M
159.199 66.64 L
S
GR
GS
[0.6 0 0 0.6 0 0] CT
2 setlinecap
1 LJ
0.833 LW
N
167.013 64 M
167.013 66.64 L
S
GR
GS
[0.6 0 0 0.6 0 0] CT
2 setlinecap
1 LJ
0.833 LW
N
172.558 64 M
172.558 66.64 L
S
GR
GS
[0.6 0 0 0.6 0 0] CT
2 setlinecap
1 LJ
0.833 LW
N
176.859 64 M
176.859 66.64 L
S
GR
GS
[0.6 0 0 0.6 0 0] CT
2 setlinecap
1 LJ
0.833 LW
N
180.373 64 M
180.373 66.64 L
S
GR
GS
[0.6 0 0 0.6 0 0] CT
2 setlinecap
1 LJ
0.833 LW
N
183.343 64 M
183.343 66.64 L
S
GR
GS
[0.6 0 0 0.6 0 0] CT
2 setlinecap
1 LJ
0.833 LW
N
185.917 64 M
185.917 66.64 L
S
GR
GS
[0.6 0 0 0.6 0 0] CT
2 setlinecap
1 LJ
0.833 LW
N
188.187 64 M
188.187 66.64 L
S
GR
GS
[0.6 0 0 0.6 0 0] CT
2 setlinecap
1 LJ
0.833 LW
N
190.218 64 M
190.218 66.64 L
S
GR
GS
[0.6 0 0 0.6 0 0] CT
2 setlinecap
1 LJ
0.833 LW
N
203.577 64 M
203.577 66.64 L
S
GR
GS
[0.6 0 0 0.6 0 0] CT
2 setlinecap
1 LJ
0.833 LW
N
211.392 64 M
211.392 66.64 L
S
GR
GS
[0.6 0 0 0.6 0 0] CT
2 setlinecap
1 LJ
0.833 LW
N
216.936 64 M
216.936 66.64 L
S
GR
GS
[0.6 0 0 0.6 0 0] CT
2 setlinecap
1 LJ
0.833 LW
N
221.237 64 M
221.237 66.64 L
S
GR
GS
[0.6 0 0 0.6 0 0] CT
2 setlinecap
1 LJ
0.833 LW
N
224.751 64 M
224.751 66.64 L
S
GR
GS
[0.6 0 0 0.6 0 0] CT
2 setlinecap
1 LJ
0.833 LW
N
227.722 64 M
227.722 66.64 L
S
GR
GS
[0.6 0 0 0.6 0 0] CT
2 setlinecap
1 LJ
0.833 LW
N
230.295 64 M
230.295 66.64 L
S
GR
GS
[0.6 0 0 0.6 0 0] CT
2 setlinecap
1 LJ
0.833 LW
N
232.565 64 M
232.565 66.64 L
S
GR
GS
[0.6 0 0 0.6 0 0] CT
2 setlinecap
1 LJ
0.833 LW
N
234.596 64 M
234.596 66.64 L
S
GR
GS
[0.6 0 0 0.6 0 0] CT
2 setlinecap
1 LJ
0.833 LW
N
247.955 64 M
247.955 66.64 L
S
GR
GS
[0.6 0 0 0.6 0 0] CT
2 setlinecap
1 LJ
0.833 LW
N
255.77 64 M
255.77 66.64 L
S
GR
GS
[0.6 0 0 0.6 0 0] CT
2 setlinecap
1 LJ
0.833 LW
N
261.314 64 M
261.314 66.64 L
S
GR
GS
[0.6 0 0 0.6 0 0] CT
2 setlinecap
1 LJ
0.833 LW
N
265.615 64 M
265.615 66.64 L
S
GR
GS
[0.6 0 0 0.6 0 0] CT
2 setlinecap
1 LJ
0.833 LW
N
269.129 64 M
269.129 66.64 L
S
GR
GS
[0.6 0 0 0.6 0 0] CT
2 setlinecap
1 LJ
0.833 LW
N
272.1 64 M
272.1 66.64 L
S
GR
GS
[0.6 0 0 0.6 0 0] CT
2 setlinecap
1 LJ
0.833 LW
N
274.674 64 M
274.674 66.64 L
S
GR
GS
[0.6 0 0 0.6 0 0] CT
2 setlinecap
1 LJ
0.833 LW
N
276.944 64 M
276.944 66.64 L
S
GR
GS
[0.6 0 0 0.6 0 0] CT
2 setlinecap
1 LJ
0.833 LW
N
278.974 64 M
278.974 66.64 L
S
GR
GS
[0.6 0 0 0.6 0 0] CT
2 setlinecap
1 LJ
0.833 LW
N
292.333 64 M
292.333 66.64 L
S
GR
GS
[0.6 0 0 0.6 0 0] CT
2 setlinecap
1 LJ
0.833 LW
N
300.148 64 M
300.148 66.64 L
S
GR
GS
[0.6 0 0 0.6 0 0] CT
2 setlinecap
1 LJ
0.833 LW
N
305.693 64 M
305.693 66.64 L
S
GR
GS
[0.6 0 0 0.6 0 0] CT
2 setlinecap
1 LJ
0.833 LW
N
309.993 64 M
309.993 66.64 L
S
GR
GS
[0.6 0 0 0.6 0 0] CT
2 setlinecap
1 LJ
0.833 LW
N
313.507 64 M
313.507 66.64 L
S
GR
GS
[0.6 0 0 0.6 0 0] CT
2 setlinecap
1 LJ
0.833 LW
N
316.478 64 M
316.478 66.64 L
S
GR
GS
[0.6 0 0 0.6 0 0] CT
2 setlinecap
1 LJ
0.833 LW
N
319.052 64 M
319.052 66.64 L
S
GR
GS
[0.6 0 0 0.6 0 0] CT
2 setlinecap
1 LJ
0.833 LW
N
321.322 64 M
321.322 66.64 L
S
GR
GS
[0.6 0 0 0.6 0 0] CT
2 setlinecap
1 LJ
0.833 LW
N
323.352 64 M
323.352 66.64 L
S
GR
GS
[0.6 0 0 0.6 0 0] CT
2 setlinecap
1 LJ
0.833 LW
N
336.712 64 M
336.712 66.64 L
S
GR
GS
[0.6 0 0 0.6 0 0] CT
2 setlinecap
1 LJ
0.833 LW
N
344.526 64 M
344.526 66.64 L
S
GR
GS
[0.6 0 0 0.6 0 0] CT
2 setlinecap
1 LJ
0.833 LW
N
350.071 64 M
350.071 66.64 L
S
GR
GS
[0.6 0 0 0.6 0 0] CT
2 setlinecap
1 LJ
0.833 LW
N
354.371 64 M
354.371 66.64 L
S
GR
GS
[0.6 0 0 0.6 0 0] CT
2 setlinecap
1 LJ
0.833 LW
N
357.885 64 M
357.885 66.64 L
S
GR
GS
[0.6 0 0 0.6 0 0] CT
2 setlinecap
1 LJ
0.833 LW
N
360.856 64 M
360.856 66.64 L
S
GR
GS
[0.6 0 0 0.6 0 0] CT
2 setlinecap
1 LJ
0.833 LW
N
363.43 64 M
363.43 66.64 L
S
GR
GS
[0.6 0 0 0.6 0 0] CT
2 setlinecap
1 LJ
0.833 LW
N
365.7 64 M
365.7 66.64 L
S
GR
GS
[0.6 0 0 0.6 0 0] CT
2 setlinecap
1 LJ
0.833 LW
N
367.731 64 M
367.731 66.64 L
S
GR
GS
[0.6 0 0 0.6 0 0] CT
2 setlinecap
1 LJ
0.833 LW
N
367.731 64 M
367.731 66.64 L
S
GR
GS
[0.6 0 0 0.6 0 0] CT
2 setlinecap
1 LJ
0.833 LW
N
381.09 64 M
381.09 66.64 L
S
GR
GS
[0.6 0 0 0.6 0 0] CT
2 setlinecap
1 LJ
0.833 LW
N
388.904 64 M
388.904 66.64 L
S
GR
GS
[0.6 0 0 0.6 0 0] CT
2 setlinecap
1 LJ
0.833 LW
N
394.449 64 M
394.449 66.64 L
S
GR
GS
[0.6 0 0 0.6 0 0] CT
2 setlinecap
1 LJ
0.833 LW
N
398.75 64 M
398.75 66.64 L
S
GR
GS
[0.6 0 0 0.6 0 0] CT
2 setlinecap
1 LJ
0.833 LW
N
402.264 64 M
402.264 66.64 L
S
GR
GS
[0.6 0 0 0.6 0 0] CT
2 setlinecap
1 LJ
0.833 LW
N
405.235 64 M
405.235 66.64 L
S
GR
GS
[0.6 0 0 0.6 0 0] CT
2 setlinecap
1 LJ
0.833 LW
N
407.808 64 M
407.808 66.64 L
S
GR
GS
[0.6 0 0 0.6 0 0] CT
2 setlinecap
1 LJ
0.833 LW
N
410.078 64 M
410.078 66.64 L
S
GR
GS
[0.6 0 0 0.6 0 0] CT
2 setlinecap
1 LJ
0.833 LW
N
412.109 64 M
412.109 66.64 L
S
GR
GS
[0.6 0 0 0.6 0 0] CT
2 setlinecap
1 LJ
0.833 LW
N
425.468 64 M
425.468 66.64 L
S
GR
GS
[0.6 0 0 0.6 0 0] CT
2 setlinecap
1 LJ
0.833 LW
N
433.283 64 M
433.283 66.64 L
S
GR
GS
[0.6 0 0 0.6 0 0] CT
2 setlinecap
1 LJ
0.833 LW
N
438.827 64 M
438.827 66.64 L
S
GR
GS
[0.6 0 0 0.6 0 0] CT
2 setlinecap
1 LJ
0.833 LW
N
443.128 64 M
443.128 66.64 L
S
GR
GS
[0.6 0 0 0.6 0 0] CT
2 setlinecap
1 LJ
0.833 LW
N
446.642 64 M
446.642 66.64 L
S
GR
GS
[0.6 0 0 0.6 0 0] CT
2 setlinecap
1 LJ
0.833 LW
N
449.613 64 M
449.613 66.64 L
S
GR
GS
[0.6 0 0 0.6 0 0] CT
2 setlinecap
1 LJ
0.833 LW
N
452.186 64 M
452.186 66.64 L
S
GR
GS
[0.6 0 0 0.6 0 0] CT
2 setlinecap
1 LJ
0.833 LW
N
454.456 64 M
454.456 66.64 L
S
GR
GS
[0.6 0 0 0.6 0 0] CT
2 setlinecap
1 LJ
0.833 LW
N
456.487 64 M
456.487 66.64 L
S
GR
GS
[0.6 0 0 0.6 0 0] CT
2 setlinecap
1 LJ
0.833 LW
N
469.846 64 M
469.846 66.64 L
S
GR
GS
[0.6 0 0 0.6 0 0] CT
2 setlinecap
1 LJ
0.833 LW
N
477.661 64 M
477.661 66.64 L
S
GR
GS
[0.6 0 0 0.6 0 0] CT
2 setlinecap
1 LJ
0.833 LW
N
483.205 64 M
483.205 66.64 L
S
GR
GS
[0.6 0 0 0.6 0 0] CT
2 setlinecap
1 LJ
0.833 LW
N
487.506 64 M
487.506 66.64 L
S
GR
GS
[0.6 0 0 0.6 0 0] CT
2 setlinecap
1 LJ
0.833 LW
N
491.02 64 M
491.02 66.64 L
S
GR
GS
[0.6 0 0 0.6 0 0] CT
2 setlinecap
1 LJ
0.833 LW
N
493.991 64 M
493.991 66.64 L
S
GR
GS
[0.6 0 0 0.6 0 0] CT
2 setlinecap
1 LJ
0.833 LW
N
496.565 64 M
496.565 66.64 L
S
GR
GS
[0.6 0 0 0.6 0 0] CT
2 setlinecap
1 LJ
0.833 LW
N
498.835 64 M
498.835 66.64 L
S
GR
GS
[0.6 0 0 0.6 0 0] CT
2 setlinecap
1 LJ
0.833 LW
N
500.865 64 M
500.865 66.64 L
S
GR
GS
[0.6 0 0 0.6 0 0] CT
2 setlinecap
1 LJ
0.833 LW
N
514.224 64 M
514.224 66.64 L
S
GR
GS
[0.6 0 0 0.6 0 0] CT
2 setlinecap
1 LJ
0.833 LW
N
522.039 64 M
522.039 66.64 L
S
GR
GS
[0.6 0 0 0.6 0 0] CT
2 setlinecap
1 LJ
0.833 LW
N
527.584 64 M
527.584 66.64 L
S
GR
GS
[0.6 0 0 0.6 0 0] CT
2 setlinecap
1 LJ
0.833 LW
N
531.884 64 M
531.884 66.64 L
S
GR
GS
[0.6 0 0 0.6 0 0] CT
2 setlinecap
1 LJ
0.833 LW
N
535.398 64 M
535.398 66.64 L
S
GR
GS
[0.6 0 0 0.6 0 0] CT
2 setlinecap
1 LJ
0.833 LW
N
538.369 64 M
538.369 66.64 L
S
GR
GS
[0.6 0 0 0.6 0 0] CT
2 setlinecap
1 LJ
0.833 LW
N
540.943 64 M
540.943 66.64 L
S
GR
GS
[0.6 0 0 0.6 0 0] CT
2 setlinecap
1 LJ
0.833 LW
N
543.213 64 M
543.213 66.64 L
S
GR
GS
[0.6 0 0 0.6 0 0] CT
2 setlinecap
1 LJ
0.833 LW
N
545.244 64 M
545.244 66.64 L
S
GR
GS
[0.6 0 0 0.6 0 0] CT
2 setlinecap
1 LJ
0.833 LW
N
558.603 64 M
558.603 66.64 L
S
GR
GS
[0.6 0 0 0.6 0 0] CT
2 setlinecap
1 LJ
0.833 LW
N
566.417 64 M
566.417 66.64 L
S
GR
GS
[0.6 0 0 0.6 0 0] CT
2 setlinecap
1 LJ
0.833 LW
N
571.962 64 M
571.962 66.64 L
S
GR
GS
[0.6 0 0 0.6 0 0] CT
2 setlinecap
1 LJ
0.833 LW
N
576.263 64 M
576.263 66.64 L
S
GR
GS
[0.6 0 0 0.6 0 0] CT
2 setlinecap
1 LJ
0.833 LW
N
579.776 64 M
579.776 66.64 L
S
GR
GS
[0.6 0 0 0.6 0 0] CT
2 setlinecap
1 LJ
0.833 LW
N
582.747 64 M
582.747 66.64 L
S
GR
GS
[0.6 0 0 0.6 0 0] CT
2 setlinecap
1 LJ
0.833 LW
N
585.321 64 M
585.321 66.64 L
S
GR
GS
[0.6 0 0 0.6 0 0] CT
2 setlinecap
1 LJ
0.833 LW
N
587.591 64 M
587.591 66.64 L
S
GR
GS
[0.6 0 0 0.6 0 0] CT
2 setlinecap
1 LJ
0.833 LW
N
589.622 64 M
589.622 66.64 L
S
GR
GS
[0.6 0 0 0.6 0 0] CT
2 setlinecap
1 LJ
0.833 LW
N
602.981 64 M
602.981 66.64 L
S
GR
GS
[0.6 0 0 0.6 0 0] CT
2 setlinecap
1 LJ
0.833 LW
N
610.796 64 M
610.796 66.64 L
S
GR
GS
[0.6 0 0 0.6 0 0] CT
2 setlinecap
1 LJ
0.833 LW
N
616.34 64 M
616.34 66.64 L
S
GR
GS
[0.6 0 0 0.6 0 0] CT
2 setlinecap
1 LJ
0.833 LW
N
620.641 64 M
620.641 66.64 L
S
GR
GS
[0.6 0 0 0.6 0 0] CT
2 setlinecap
1 LJ
0.833 LW
N
624.155 64 M
624.155 66.64 L
S
GR
GS
[0.6 0 0 0.6 0 0] CT
2 setlinecap
1 LJ
0.833 LW
N
627.126 64 M
627.126 66.64 L
S
GR
GS
[0.6 0 0 0.6 0 0] CT
2 setlinecap
1 LJ
0.833 LW
N
629.699 64 M
629.699 66.64 L
S
GR
GS
[0.6 0 0 0.6 0 0] CT
2 setlinecap
1 LJ
0.833 LW
N
631.969 64 M
631.969 66.64 L
S
GR
GS
[0.6 0 0 0.6 0 0] CT
2 setlinecap
1 LJ
0.833 LW
N
634 64 M
634 66.64 L
S
GR
GS
[0.6 0 0 0.6 106.2 292.2] CT
/Helvetica 13.333 F
GS
[1 0 0 1 0 0] CT
0 0 moveto 
1 -1 scale
(10) t 
GR
GR
GS
[0.6 0 0 0.6 115.2 288.6] CT
/Helvetica 10.667 F
GS
[1 0 0 1 0 0] CT
0 0 moveto 
1 -1 scale
(-8) t 
GR
GR
GS
[0.6 0 0 0.6 159.6 292.2] CT
/Helvetica 13.333 F
GS
[1 0 0 1 0 0] CT
0 0 moveto 
1 -1 scale
(10) t 
GR
GR
GS
[0.6 0 0 0.6 168.6 288.6] CT
/Helvetica 10.667 F
GS
[1 0 0 1 0 0] CT
0 0 moveto 
1 -1 scale
(-6) t 
GR
GR
GS
[0.6 0 0 0.6 213 292.2] CT
/Helvetica 13.333 F
GS
[1 0 0 1 0 0] CT
0 0 moveto 
1 -1 scale
(10) t 
GR
GR
GS
[0.6 0 0 0.6 222 288.6] CT
/Helvetica 10.667 F
GS
[1 0 0 1 0 0] CT
0 0 moveto 
1 -1 scale
(-4) t 
GR
GR
GS
[0.6 0 0 0.6 265.8 292.2] CT
/Helvetica 13.333 F
GS
[1 0 0 1 0 0] CT
0 0 moveto 
1 -1 scale
(10) t 
GR
GR
GS
[0.6 0 0 0.6 274.8 288.6] CT
/Helvetica 10.667 F
GS
[1 0 0 1 0 0] CT
0 0 moveto 
1 -1 scale
(-2) t 
GR
GR
GS
[0.6 0 0 0.6 320.4 292.2] CT
/Helvetica 13.333 F
GS
[1 0 0 1 0 0] CT
0 0 moveto 
1 -1 scale
(10) t 
GR
GR
GS
[0.6 0 0 0.6 329.4 288.6] CT
/Helvetica 10.667 F
GS
[1 0 0 1 0 0] CT
0 0 moveto 
1 -1 scale
(0) t 
GR
GR
GS
[0.6 0 0 0.6 373.8 292.2] CT
/Helvetica 13.333 F
GS
[1 0 0 1 0 0] CT
0 0 moveto 
1 -1 scale
(10) t 
GR
GR
GS
[0.6 0 0 0.6 382.8 288.6] CT
/Helvetica 10.667 F
GS
[1 0 0 1 0 0] CT
0 0 moveto 
1 -1 scale
(2) t 
GR
GR
GS
[0.6 0 0 0.6 0 0] CT
2 setlinecap
1 LJ
0.833 LW
N
106 467 M
106 64 L
S
GR
GS
[0.6 0 0 0.6 0 0] CT
2 setlinecap
1 LJ
0.833 LW
N
634 467 M
634 64 L
S
GR
GS
[0.6 0 0 0.6 0 0] CT
2 setlinecap
1 LJ
0.833 LW
N
106 467 M
111.28 467 L
S
GR
GS
[0.6 0 0 0.6 0 0] CT
2 setlinecap
1 LJ
0.833 LW
N
106 384.768 M
111.28 384.768 L
S
GR
GS
[0.6 0 0 0.6 0 0] CT
2 setlinecap
1 LJ
0.833 LW
N
106 302.535 M
111.28 302.535 L
S
GR
GS
[0.6 0 0 0.6 0 0] CT
2 setlinecap
1 LJ
0.833 LW
N
106 220.303 M
111.28 220.303 L
S
GR
GS
[0.6 0 0 0.6 0 0] CT
2 setlinecap
1 LJ
0.833 LW
N
106 138.07 M
111.28 138.07 L
S
GR
GS
[0.6 0 0 0.6 0 0] CT
2 setlinecap
1 LJ
0.833 LW
N
634 467 M
628.72 467 L
S
GR
GS
[0.6 0 0 0.6 0 0] CT
2 setlinecap
1 LJ
0.833 LW
N
634 384.768 M
628.72 384.768 L
S
GR
GS
[0.6 0 0 0.6 0 0] CT
2 setlinecap
1 LJ
0.833 LW
N
634 302.535 M
628.72 302.535 L
S
GR
GS
[0.6 0 0 0.6 0 0] CT
2 setlinecap
1 LJ
0.833 LW
N
634 220.303 M
628.72 220.303 L
S
GR
GS
[0.6 0 0 0.6 0 0] CT
2 setlinecap
1 LJ
0.833 LW
N
634 138.07 M
628.72 138.07 L
S
GR
GS
[0.6 0 0 0.6 62 280.2] CT
/Helvetica 13.333 F
GS
[1 0 0 1 0 0] CT
-8 5.5 moveto 
1 -1 scale
(0) t 
GR
GR
GS
[0.6 0 0 0.6 62 230.86057] CT
/Helvetica 13.333 F
GS
[1 0 0 1 0 0] CT
-19 5.5 moveto 
1 -1 scale
(0.5) t 
GR
GR
GS
[0.6 0 0 0.6 62 181.52111] CT
/Helvetica 13.333 F
GS
[1 0 0 1 0 0] CT
-8 5.5 moveto 
1 -1 scale
(1) t 
GR
GR
GS
[0.6 0 0 0.6 62 132.18167] CT
/Helvetica 13.333 F
GS
[1 0 0 1 0 0] CT
-19 5.5 moveto 
1 -1 scale
(1.5) t 
GR
GR
GS
[0.6 0 0 0.6 62 82.84223] CT
/Helvetica 13.333 F
GS
[1 0 0 1 0 0] CT
-8 5.5 moveto 
1 -1 scale
(2) t 
GR
GR
GS
[0 -0.6 0.6 0 49.6 159.29989] CT
/Helvetica 13.333 F
GS
[1 0 0 1 0 0] CT
-48.5 -3 moveto 
1 -1 scale
(Magnitude \(abs\)) t 
GR
GR
GS
[0.6 0 0 0.6 0 0] CT
1 0 0 RC
1 LJ
0.833 LW
N
105.937 359.537 M
106.84 359.537 L
112.22 359.537 L
117.599 359.537 L
122.978 359.537 L
128.357 359.537 L
133.736 359.537 L
139.116 359.537 L
144.495 359.537 L
149.874 359.537 L
155.253 359.537 L
160.632 359.537 L
166.011 359.537 L
171.391 359.537 L
176.77 359.537 L
182.149 359.537 L
187.528 359.537 L
192.907 359.537 L
198.287 359.537 L
203.666 359.537 L
209.045 359.537 L
214.424 359.537 L
219.803 359.537 L
225.182 359.537 L
230.562 359.536 L
235.941 359.536 L
241.32 359.534 L
246.699 359.532 L
252.078 359.529 L
257.457 359.523 L
262.837 359.512 L
268.216 359.493 L
273.595 359.46 L
278.974 359.402 L
284.353 359.302 L
289.733 359.131 L
295.112 358.838 L
300.491 358.342 L
305.87 357.425 L
311.249 343.41 L
316.628 315.081 L
322.008 286.101 L
327.387 259.568 L
332.766 237.892 L
338.145 221.951 L
343.524 211.184 L
348.904 204.346 L
354.283 200.177 L
359.662 197.7 L
365.041 196.251 L
370.42 195.412 L
375.799 194.928 L
381.179 194.65 L
386.558 194.49 L
391.937 194.399 L
397.316 194.348 L
402.695 194.319 L
408.074 194.303 L
413.454 194.296 L
418.833 194.296 L
424.212 194.301 L
429.591 194.315 L
434.97 194.341 L
440.35 194.388 L
445.729 194.47 L
451.108 194.614 L
456.487 194.865 L
461.866 195.298 L
467.245 196.045 L
472.625 197.316 L
478.004 199.437 L
483.383 202.863 L
488.762 208.109 L
494.141 215.486 L
499.521 224.703 L
504.9 235.149 L
510.279 246.652 L
515.658 258.327 L
521.037 270.857 L
526.416 288.381 L
531.796 313.903 L
537.175 341.314 L
542.554 358.873 L
547.933 361.822 L
553.312 351.131 L
558.691 330.224 L
564.071 303.939 L
569.45 262.647 L
574.829 204.785 L
580.208 126.379 L
583.414 63.952 L
S
GR
GS
[0.6 0 0 0.6 0 0] CT
0 0 1 RC
1 LJ
0.833 LW
N
105.937 434.107 M
106.84 434.107 L
112.22 434.107 L
117.599 434.107 L
122.978 434.107 L
128.357 434.107 L
133.736 434.107 L
139.116 434.107 L
144.495 434.107 L
149.874 434.107 L
155.253 434.107 L
160.632 434.107 L
166.011 434.107 L
171.391 434.107 L
176.77 434.107 L
182.149 434.107 L
187.528 434.107 L
192.907 434.107 L
198.287 434.107 L
203.666 434.107 L
209.045 434.107 L
214.424 434.107 L
219.803 434.107 L
225.182 434.107 L
230.562 434.107 L
235.941 434.107 L
241.32 434.107 L
246.699 434.107 L
252.078 434.107 L
257.457 434.107 L
262.837 434.107 L
268.216 434.107 L
273.595 434.107 L
278.974 434.107 L
284.353 434.107 L
289.733 434.107 L
295.112 434.107 L
300.491 434.107 L
305.87 434.107 L
311.249 434.107 L
316.628 434.107 L
322.008 434.107 L
327.387 434.107 L
332.766 434.107 L
338.145 434.107 L
343.524 434.107 L
348.904 434.107 L
354.283 434.107 L
359.662 434.107 L
365.041 434.107 L
370.42 434.107 L
375.799 434.107 L
381.179 434.107 L
386.558 434.107 L
391.937 434.107 L
397.316 434.107 L
402.695 434.107 L
408.074 434.106 L
413.454 434.106 L
418.833 434.105 L
424.212 434.103 L
429.591 434.1 L
434.97 434.094 L
440.35 434.084 L
445.729 434.068 L
451.108 434.038 L
456.487 433.987 L
461.866 433.899 L
467.245 433.746 L
472.625 433.487 L
478.004 433.055 L
483.383 432.35 L
488.762 431.222 L
494.141 429.399 L
499.521 426.359 L
504.9 421.335 L
510.279 413.408 L
515.658 401.822 L
521.037 386.82 L
526.416 371.357 L
531.796 362.086 L
537.175 364.385 L
542.554 375.827 L
547.933 390.347 L
553.312 401.102 L
558.691 398.08 L
564.071 413.227 L
569.45 428.167 L
574.829 439.178 L
580.208 446.849 L
585.587 452.205 L
590.967 456.021 L
596.346 458.792 L
601.725 460.835 L
607.104 462.356 L
612.483 463.496 L
617.862 464.353 L
623.242 464.999 L
628.621 465.487 L
634 465.856 L
S
GR
GS
[0.6 0 0 0.6 0 0] CT
1 LJ
0.833 LW
N
105.937 326.644 M
106.84 326.644 L
112.22 326.644 L
117.599 326.644 L
122.978 326.644 L
128.357 326.644 L
133.736 326.644 L
139.116 326.644 L
144.495 326.644 L
149.874 326.644 L
155.253 326.644 L
160.632 326.644 L
166.011 326.644 L
171.391 326.644 L
176.77 326.644 L
182.149 326.644 L
187.528 326.644 L
192.907 326.644 L
198.287 326.644 L
203.666 326.644 L
209.045 326.644 L
214.424 326.644 L
219.803 326.644 L
225.182 326.644 L
230.562 326.644 L
235.941 326.644 L
241.32 326.644 L
246.699 326.644 L
252.078 326.644 L
257.457 326.643 L
262.837 326.643 L
268.216 326.642 L
273.595 326.64 L
278.974 326.638 L
284.353 326.633 L
289.733 326.624 L
295.112 326.604 L
300.491 326.576 L
305.87 326.489 L
311.249 326.076 L
316.628 306.578 L
322.008 280.21 L
327.387 254.834 L
332.766 233.746 L
338.145 218.119 L
343.524 207.539 L
348.904 200.811 L
354.283 196.693 L
359.662 194.252 L
365.041 192.824 L
370.42 191.996 L
375.799 191.519 L
381.179 191.244 L
386.558 191.087 L
391.937 190.997 L
397.316 190.946 L
402.695 190.917 L
408.074 190.901 L
413.454 190.893 L
418.833 190.891 L
424.212 190.894 L
429.591 190.902 L
434.97 190.918 L
440.35 190.947 L
445.729 191 L
451.108 191.075 L
456.487 191.2 L
461.866 191.476 L
467.245 191.945 L
472.625 192.725 L
478.004 193.931 L
483.383 195.701 L
488.762 197.843 L
494.141 199.559 L
499.521 200.257 L
504.9 201.528 L
510.279 210.41 L
515.658 219.841 L
521.037 219.733 L
526.416 209.969 L
531.796 207.542 L
537.175 222.106 L
542.554 246.057 L
547.933 267.447 L
553.312 276.89 L
558.691 255.971 L
564.071 246.3 L
569.45 222.282 L
574.829 176.46 L
580.208 106.073 L
582.49 63.952 L
S
GR
GS
[0.6 0 0 0.6 0 0] CT
1 GC
N
621 135 M
621 77 L
428 77 L
428 135 L
cp
f
GR
GS
[0.6 0 0 0.6 292.09572 52.88646] CT
/Helvetica 13.333 F
GS
[1 0 0 1 0 0] CT
0 5.5 moveto 
1 -1 scale
(Nominal Performance) t 
GR
GR
GS
[0.6 0 0 0.6 0 0] CT
1 0 0 RC
1 LJ
0.833 LW
N
433.007 88.144 M
483.071 88.144 L
S
GR
GS
[0.6 0 0 0.6 292.09572 63.6] CT
/Helvetica 13.333 F
GS
[1 0 0 1 0 0] CT
0 5.5 moveto 
1 -1 scale
(Robust Stability) t 
GR
GR
GS
[0.6 0 0 0.6 0 0] CT
0 0 1 RC
1 LJ
0.833 LW
N
433.007 106 M
483.071 106 L
S
GR
GS
[0.6 0 0 0.6 292.09572 74.31354] CT
/Helvetica 13.333 F
GS
[1 0 0 1 0 0] CT
0 5.5 moveto 
1 -1 scale
(Robust Performance) t 
GR
GR
GS
[0.6 0 0 0.6 0 0] CT
1 LJ
0.833 LW
N
433.007 123.856 M
483.071 123.856 L
S
GR
GS
[0.6 0 0 0.6 0 0] CT
0.149 GC
10.0 ML
0.833 LW
N
428 135 M
428 77 L
621 77 L
621 135 L
cp
S
GR
GS
[0.6 0 0 0.6 221.1 33.225] CT
/Helvetica 13.333 F
GS
[1 0 0 1 0 0] CT
-102.5 -3 moveto 
1 -1 scale
(Mu analysis of 1dof H-inf controller) t 
GR
GR
GS
[0.6 0 0 0.6 221.1 292.29999] CT
/Helvetica 13.333 F
GS
[1 0 0 1 0 0] CT
-83 14 moveto 
1 -1 scale
(Frequency \(rad/min\)  \(rad/s\)) t 
GR
GR
%%Trailer
%%Pages: 1
%%EOF
