%!PS-Adobe-3.0 EPSF-3.0
%%Creator: (MATLAB, The Mathworks, Inc. Version 9.5.0.1033004 \(R2018b\) Update 2. Operating System: Windows 10)
%%Title: C:/Users/super/Desktop/column/report/img/svd_g_g4.eps
%%CreationDate: 2019-02-21T16:21:37
%%Pages: (atend)
%%BoundingBox: 0 0 420 315
%%LanguageLevel: 3
%%EndComments
%%BeginProlog
%%BeginResource: procset (Apache XML Graphics Std ProcSet) 1.2 0
%%Version: 1.2 0
%%Copyright: (Copyright 2001-2003,2010 The Apache Software Foundation. License terms: http://www.apache.org/licenses/LICENSE-2.0)
/bd{bind def}bind def
/ld{load def}bd
/GR/grestore ld
/GS/gsave ld
/RM/rmoveto ld
/C/curveto ld
/t/show ld
/L/lineto ld
/ML/setmiterlimit ld
/CT/concat ld
/f/fill ld
/N/newpath ld
/S/stroke ld
/CC/setcmykcolor ld
/A/ashow ld
/cp/closepath ld
/RC/setrgbcolor ld
/LJ/setlinejoin ld
/GC/setgray ld
/LW/setlinewidth ld
/M/moveto ld
/re {4 2 roll M
1 index 0 rlineto
0 exch rlineto
neg 0 rlineto
cp } bd
/_ctm matrix def
/_tm matrix def
/BT { _ctm currentmatrix pop matrix _tm copy pop 0 0 moveto } bd
/ET { _ctm setmatrix } bd
/iTm { _ctm setmatrix _tm concat } bd
/Tm { _tm astore pop iTm 0 0 moveto } bd
/ux 0.0 def
/uy 0.0 def
/F {
  /Tp exch def
  /Tf exch def
  Tf findfont Tp scalefont setfont
  /cf Tf def  /cs Tp def
} bd
/ULS {currentpoint /uy exch def /ux exch def} bd
/ULE {
  /Tcx currentpoint pop def
  gsave
  newpath
  cf findfont cs scalefont dup
  /FontMatrix get 0 get /Ts exch def /FontInfo get dup
  /UnderlinePosition get Ts mul /To exch def
  /UnderlineThickness get Ts mul /Tt exch def
  ux uy To add moveto  Tcx uy To add lineto
  Tt setlinewidth stroke
  grestore
} bd
/OLE {
  /Tcx currentpoint pop def
  gsave
  newpath
  cf findfont cs scalefont dup
  /FontMatrix get 0 get /Ts exch def /FontInfo get dup
  /UnderlinePosition get Ts mul /To exch def
  /UnderlineThickness get Ts mul /Tt exch def
  ux uy To add cs add moveto Tcx uy To add cs add lineto
  Tt setlinewidth stroke
  grestore
} bd
/SOE {
  /Tcx currentpoint pop def
  gsave
  newpath
  cf findfont cs scalefont dup
  /FontMatrix get 0 get /Ts exch def /FontInfo get dup
  /UnderlinePosition get Ts mul /To exch def
  /UnderlineThickness get Ts mul /Tt exch def
  ux uy To add cs 10 mul 26 idiv add moveto Tcx uy To add cs 10 mul 26 idiv add lineto
  Tt setlinewidth stroke
  grestore
} bd
/QT {
/Y22 exch store
/X22 exch store
/Y21 exch store
/X21 exch store
currentpoint
/Y21 load 2 mul add 3 div exch
/X21 load 2 mul add 3 div exch
/X21 load 2 mul /X22 load add 3 div
/Y21 load 2 mul /Y22 load add 3 div
/X22 load /Y22 load curveto
} bd
/SSPD {
dup length /d exch dict def
{
/v exch def
/k exch def
currentpagedevice k known {
/cpdv currentpagedevice k get def
v cpdv ne {
/upd false def
/nullv v type /nulltype eq def
/nullcpdv cpdv type /nulltype eq def
nullv nullcpdv or
{
/upd true def
} {
/sametype v type cpdv type eq def
sametype {
v type /arraytype eq {
/vlen v length def
/cpdvlen cpdv length def
vlen cpdvlen eq {
0 1 vlen 1 sub {
/i exch def
/obj v i get def
/cpdobj cpdv i get def
obj cpdobj ne {
/upd true def
exit
} if
} for
} {
/upd true def
} ifelse
} {
v type /dicttype eq {
v {
/dv exch def
/dk exch def
/cpddv cpdv dk get def
dv cpddv ne {
/upd true def
exit
} if
} forall
} {
/upd true def
} ifelse
} ifelse
} if
} ifelse
upd true eq {
d k v put
} if
} if
} if
} forall
d length 0 gt {
d setpagedevice
} if
} bd
/RE { % /NewFontName [NewEncodingArray] /FontName RE -
  findfont dup length dict begin
  {
    1 index /FID ne
    {def} {pop pop} ifelse
  } forall
  /Encoding exch def
  /FontName 1 index def
  currentdict definefont pop
  end
} bind def
%%EndResource
%%BeginResource: procset (Apache XML Graphics EPS ProcSet) 1.0 0
%%Version: 1.0 0
%%Copyright: (Copyright 2002-2003 The Apache Software Foundation. License terms: http://www.apache.org/licenses/LICENSE-2.0)
/BeginEPSF { %def
/b4_Inc_state save def         % Save state for cleanup
/dict_count countdictstack def % Count objects on dict stack
/op_count count 1 sub def      % Count objects on operand stack
userdict begin                 % Push userdict on dict stack
/showpage { } def              % Redefine showpage, { } = null proc
0 setgray 0 setlinecap         % Prepare graphics state
1 setlinewidth 0 setlinejoin
10 setmiterlimit [ ] 0 setdash newpath
/languagelevel where           % If level not equal to 1 then
{pop languagelevel             % set strokeadjust and
1 ne                           % overprint to their defaults.
{false setstrokeadjust false setoverprint
} if
} if
} bd
/EndEPSF { %def
count op_count sub {pop} repeat            % Clean up stacks
countdictstack dict_count sub {end} repeat
b4_Inc_state restore
} bd
%%EndResource
%FOPBeginFontDict
%%IncludeResource: font Courier-Oblique
%%IncludeResource: font Courier-BoldOblique
%%IncludeResource: font Courier-Bold
%%IncludeResource: font ZapfDingbats
%%IncludeResource: font Symbol
%%IncludeResource: font Helvetica
%%IncludeResource: font Helvetica-Oblique
%%IncludeResource: font Helvetica-Bold
%%IncludeResource: font Helvetica-BoldOblique
%%IncludeResource: font Times-Roman
%%IncludeResource: font Times-Italic
%%IncludeResource: font Times-Bold
%%IncludeResource: font Times-BoldItalic
%%IncludeResource: font Courier
%FOPEndFontDict
%%BeginResource: encoding WinAnsiEncoding
/WinAnsiEncoding [
/.notdef /.notdef /.notdef /.notdef /.notdef
/.notdef /.notdef /.notdef /.notdef /.notdef
/.notdef /.notdef /.notdef /.notdef /.notdef
/.notdef /.notdef /.notdef /.notdef /.notdef
/.notdef /.notdef /.notdef /.notdef /.notdef
/.notdef /.notdef /.notdef /.notdef /.notdef
/.notdef /.notdef /space /exclam /quotedbl
/numbersign /dollar /percent /ampersand /quotesingle
/parenleft /parenright /asterisk /plus /comma
/hyphen /period /slash /zero /one
/two /three /four /five /six
/seven /eight /nine /colon /semicolon
/less /equal /greater /question /at
/A /B /C /D /E
/F /G /H /I /J
/K /L /M /N /O
/P /Q /R /S /T
/U /V /W /X /Y
/Z /bracketleft /backslash /bracketright /asciicircum
/underscore /quoteleft /a /b /c
/d /e /f /g /h
/i /j /k /l /m
/n /o /p /q /r
/s /t /u /v /w
/x /y /z /braceleft /bar
/braceright /asciitilde /bullet /Euro /bullet
/quotesinglbase /florin /quotedblbase /ellipsis /dagger
/daggerdbl /circumflex /perthousand /Scaron /guilsinglleft
/OE /bullet /Zcaron /bullet /bullet
/quoteleft /quoteright /quotedblleft /quotedblright /bullet
/endash /emdash /asciitilde /trademark /scaron
/guilsinglright /oe /bullet /zcaron /Ydieresis
/space /exclamdown /cent /sterling /currency
/yen /brokenbar /section /dieresis /copyright
/ordfeminine /guillemotleft /logicalnot /sfthyphen /registered
/macron /degree /plusminus /twosuperior /threesuperior
/acute /mu /paragraph /middot /cedilla
/onesuperior /ordmasculine /guillemotright /onequarter /onehalf
/threequarters /questiondown /Agrave /Aacute /Acircumflex
/Atilde /Adieresis /Aring /AE /Ccedilla
/Egrave /Eacute /Ecircumflex /Edieresis /Igrave
/Iacute /Icircumflex /Idieresis /Eth /Ntilde
/Ograve /Oacute /Ocircumflex /Otilde /Odieresis
/multiply /Oslash /Ugrave /Uacute /Ucircumflex
/Udieresis /Yacute /Thorn /germandbls /agrave
/aacute /acircumflex /atilde /adieresis /aring
/ae /ccedilla /egrave /eacute /ecircumflex
/edieresis /igrave /iacute /icircumflex /idieresis
/eth /ntilde /ograve /oacute /ocircumflex
/otilde /odieresis /divide /oslash /ugrave
/uacute /ucircumflex /udieresis /yacute /thorn
/ydieresis
] def
%%EndResource
%FOPBeginFontReencode
/Courier-Oblique findfont
dup length dict begin
  {1 index /FID ne {def} {pop pop} ifelse} forall
  /Encoding WinAnsiEncoding def
  currentdict
end
/Courier-Oblique exch definefont pop
/Courier-BoldOblique findfont
dup length dict begin
  {1 index /FID ne {def} {pop pop} ifelse} forall
  /Encoding WinAnsiEncoding def
  currentdict
end
/Courier-BoldOblique exch definefont pop
/Courier-Bold findfont
dup length dict begin
  {1 index /FID ne {def} {pop pop} ifelse} forall
  /Encoding WinAnsiEncoding def
  currentdict
end
/Courier-Bold exch definefont pop
/Helvetica findfont
dup length dict begin
  {1 index /FID ne {def} {pop pop} ifelse} forall
  /Encoding WinAnsiEncoding def
  currentdict
end
/Helvetica exch definefont pop
/Helvetica-Oblique findfont
dup length dict begin
  {1 index /FID ne {def} {pop pop} ifelse} forall
  /Encoding WinAnsiEncoding def
  currentdict
end
/Helvetica-Oblique exch definefont pop
/Helvetica-Bold findfont
dup length dict begin
  {1 index /FID ne {def} {pop pop} ifelse} forall
  /Encoding WinAnsiEncoding def
  currentdict
end
/Helvetica-Bold exch definefont pop
/Helvetica-BoldOblique findfont
dup length dict begin
  {1 index /FID ne {def} {pop pop} ifelse} forall
  /Encoding WinAnsiEncoding def
  currentdict
end
/Helvetica-BoldOblique exch definefont pop
/Times-Roman findfont
dup length dict begin
  {1 index /FID ne {def} {pop pop} ifelse} forall
  /Encoding WinAnsiEncoding def
  currentdict
end
/Times-Roman exch definefont pop
/Times-Italic findfont
dup length dict begin
  {1 index /FID ne {def} {pop pop} ifelse} forall
  /Encoding WinAnsiEncoding def
  currentdict
end
/Times-Italic exch definefont pop
/Times-Bold findfont
dup length dict begin
  {1 index /FID ne {def} {pop pop} ifelse} forall
  /Encoding WinAnsiEncoding def
  currentdict
end
/Times-Bold exch definefont pop
/Times-BoldItalic findfont
dup length dict begin
  {1 index /FID ne {def} {pop pop} ifelse} forall
  /Encoding WinAnsiEncoding def
  currentdict
end
/Times-BoldItalic exch definefont pop
/Courier findfont
dup length dict begin
  {1 index /FID ne {def} {pop pop} ifelse} forall
  /Encoding WinAnsiEncoding def
  currentdict
end
/Courier exch definefont pop
%FOPEndFontReencode
%%EndProlog
%%Page: 1 1
%%PageBoundingBox: 0 0 420 315
%%BeginPageSetup
[1 0 0 -1 0 315] CT
%%EndPageSetup
GS
[0.6 0 0 0.6 0 0] CT
1 GC
N
0 0 700 525 re
f
GR
GS
[0.6 0 0 0.6 0 0] CT
1 GC
N
0 0 700 525 re
f
GR
GS
[0.6 0 0 0.6 0 0] CT
1 GC
N
106 467 M
634 467 L
634 64 L
106 64 L
cp
f
GR
GS
[0.6 0 0 0.6 0 0] CT
0.849 GC
[1 3] 0 setdash
2 LJ
0.833 LW
N
132.491 467 M
132.491 64 L
S
GR
GS
[0.6 0 0 0.6 0 0] CT
0.849 GC
[1 3] 0 setdash
2 LJ
0.833 LW
N
147.987 467 M
147.987 64 L
S
GR
GS
[0.6 0 0 0.6 0 0] CT
0.849 GC
[1 3] 0 setdash
2 LJ
0.833 LW
N
158.981 467 M
158.981 64 L
S
GR
GS
[0.6 0 0 0.6 0 0] CT
0.849 GC
[1 3] 0 setdash
2 LJ
0.833 LW
N
167.509 467 M
167.509 64 L
S
GR
GS
[0.6 0 0 0.6 0 0] CT
0.849 GC
[1 3] 0 setdash
2 LJ
0.833 LW
N
174.477 467 M
174.477 64 L
S
GR
GS
[0.6 0 0 0.6 0 0] CT
0.849 GC
[1 3] 0 setdash
2 LJ
0.833 LW
N
180.369 467 M
180.369 64 L
S
GR
GS
[0.6 0 0 0.6 0 0] CT
0.849 GC
[1 3] 0 setdash
2 LJ
0.833 LW
N
185.472 467 M
185.472 64 L
S
GR
GS
[0.6 0 0 0.6 0 0] CT
0.849 GC
[1 3] 0 setdash
2 LJ
0.833 LW
N
189.973 467 M
189.973 64 L
S
GR
GS
[0.6 0 0 0.6 0 0] CT
0.849 GC
[1 3] 0 setdash
2 LJ
0.833 LW
N
220.491 467 M
220.491 64 L
S
GR
GS
[0.6 0 0 0.6 0 0] CT
0.849 GC
[1 3] 0 setdash
2 LJ
0.833 LW
N
235.987 467 M
235.987 64 L
S
GR
GS
[0.6 0 0 0.6 0 0] CT
0.849 GC
[1 3] 0 setdash
2 LJ
0.833 LW
N
246.981 467 M
246.981 64 L
S
GR
GS
[0.6 0 0 0.6 0 0] CT
0.849 GC
[1 3] 0 setdash
2 LJ
0.833 LW
N
255.509 467 M
255.509 64 L
S
GR
GS
[0.6 0 0 0.6 0 0] CT
0.849 GC
[1 3] 0 setdash
2 LJ
0.833 LW
N
262.477 467 M
262.477 64 L
S
GR
GS
[0.6 0 0 0.6 0 0] CT
0.849 GC
[1 3] 0 setdash
2 LJ
0.833 LW
N
268.369 467 M
268.369 64 L
S
GR
GS
[0.6 0 0 0.6 0 0] CT
0.849 GC
[1 3] 0 setdash
2 LJ
0.833 LW
N
273.472 467 M
273.472 64 L
S
GR
GS
[0.6 0 0 0.6 0 0] CT
0.849 GC
[1 3] 0 setdash
2 LJ
0.833 LW
N
277.973 467 M
277.973 64 L
S
GR
GS
[0.6 0 0 0.6 0 0] CT
0.849 GC
[1 3] 0 setdash
2 LJ
0.833 LW
N
308.491 467 M
308.491 64 L
S
GR
GS
[0.6 0 0 0.6 0 0] CT
0.849 GC
[1 3] 0 setdash
2 LJ
0.833 LW
N
323.987 467 M
323.987 64 L
S
GR
GS
[0.6 0 0 0.6 0 0] CT
0.849 GC
[1 3] 0 setdash
2 LJ
0.833 LW
N
334.981 467 M
334.981 64 L
S
GR
GS
[0.6 0 0 0.6 0 0] CT
0.849 GC
[1 3] 0 setdash
2 LJ
0.833 LW
N
343.509 467 M
343.509 64 L
S
GR
GS
[0.6 0 0 0.6 0 0] CT
0.849 GC
[1 3] 0 setdash
2 LJ
0.833 LW
N
350.477 467 M
350.477 64 L
S
GR
GS
[0.6 0 0 0.6 0 0] CT
0.849 GC
[1 3] 0 setdash
2 LJ
0.833 LW
N
356.369 467 M
356.369 64 L
S
GR
GS
[0.6 0 0 0.6 0 0] CT
0.849 GC
[1 3] 0 setdash
2 LJ
0.833 LW
N
361.472 467 M
361.472 64 L
S
GR
GS
[0.6 0 0 0.6 0 0] CT
0.849 GC
[1 3] 0 setdash
2 LJ
0.833 LW
N
365.973 467 M
365.973 64 L
S
GR
GS
[0.6 0 0 0.6 0 0] CT
0.849 GC
[1 3] 0 setdash
2 LJ
0.833 LW
N
396.491 467 M
396.491 64 L
S
GR
GS
[0.6 0 0 0.6 0 0] CT
0.849 GC
[1 3] 0 setdash
2 LJ
0.833 LW
N
411.987 467 M
411.987 64 L
S
GR
GS
[0.6 0 0 0.6 0 0] CT
0.849 GC
[1 3] 0 setdash
2 LJ
0.833 LW
N
422.981 467 M
422.981 64 L
S
GR
GS
[0.6 0 0 0.6 0 0] CT
0.849 GC
[1 3] 0 setdash
2 LJ
0.833 LW
N
431.509 467 M
431.509 64 L
S
GR
GS
[0.6 0 0 0.6 0 0] CT
0.849 GC
[1 3] 0 setdash
2 LJ
0.833 LW
N
438.477 467 M
438.477 64 L
S
GR
GS
[0.6 0 0 0.6 0 0] CT
0.849 GC
[1 3] 0 setdash
2 LJ
0.833 LW
N
444.369 467 M
444.369 64 L
S
GR
GS
[0.6 0 0 0.6 0 0] CT
0.849 GC
[1 3] 0 setdash
2 LJ
0.833 LW
N
449.472 467 M
449.472 64 L
S
GR
GS
[0.6 0 0 0.6 0 0] CT
0.849 GC
[1 3] 0 setdash
2 LJ
0.833 LW
N
453.973 467 M
453.973 64 L
S
GR
GS
[0.6 0 0 0.6 0 0] CT
0.849 GC
[1 3] 0 setdash
2 LJ
0.833 LW
N
484.491 467 M
484.491 64 L
S
GR
GS
[0.6 0 0 0.6 0 0] CT
0.849 GC
[1 3] 0 setdash
2 LJ
0.833 LW
N
499.987 467 M
499.987 64 L
S
GR
GS
[0.6 0 0 0.6 0 0] CT
0.849 GC
[1 3] 0 setdash
2 LJ
0.833 LW
N
510.981 467 M
510.981 64 L
S
GR
GS
[0.6 0 0 0.6 0 0] CT
0.849 GC
[1 3] 0 setdash
2 LJ
0.833 LW
N
519.509 467 M
519.509 64 L
S
GR
GS
[0.6 0 0 0.6 0 0] CT
0.849 GC
[1 3] 0 setdash
2 LJ
0.833 LW
N
526.477 467 M
526.477 64 L
S
GR
GS
[0.6 0 0 0.6 0 0] CT
0.849 GC
[1 3] 0 setdash
2 LJ
0.833 LW
N
532.369 467 M
532.369 64 L
S
GR
GS
[0.6 0 0 0.6 0 0] CT
0.849 GC
[1 3] 0 setdash
2 LJ
0.833 LW
N
537.472 467 M
537.472 64 L
S
GR
GS
[0.6 0 0 0.6 0 0] CT
0.849 GC
[1 3] 0 setdash
2 LJ
0.833 LW
N
541.973 467 M
541.973 64 L
S
GR
GS
[0.6 0 0 0.6 0 0] CT
0.849 GC
[1 3] 0 setdash
2 LJ
0.833 LW
N
572.491 467 M
572.491 64 L
S
GR
GS
[0.6 0 0 0.6 0 0] CT
0.849 GC
[1 3] 0 setdash
2 LJ
0.833 LW
N
587.987 467 M
587.987 64 L
S
GR
GS
[0.6 0 0 0.6 0 0] CT
0.849 GC
[1 3] 0 setdash
2 LJ
0.833 LW
N
598.981 467 M
598.981 64 L
S
GR
GS
[0.6 0 0 0.6 0 0] CT
0.849 GC
[1 3] 0 setdash
2 LJ
0.833 LW
N
607.509 467 M
607.509 64 L
S
GR
GS
[0.6 0 0 0.6 0 0] CT
0.849 GC
[1 3] 0 setdash
2 LJ
0.833 LW
N
614.477 467 M
614.477 64 L
S
GR
GS
[0.6 0 0 0.6 0 0] CT
0.849 GC
[1 3] 0 setdash
2 LJ
0.833 LW
N
620.369 467 M
620.369 64 L
S
GR
GS
[0.6 0 0 0.6 0 0] CT
0.849 GC
[1 3] 0 setdash
2 LJ
0.833 LW
N
625.472 467 M
625.472 64 L
S
GR
GS
[0.6 0 0 0.6 0 0] CT
0.849 GC
[1 3] 0 setdash
2 LJ
0.833 LW
N
629.973 467 M
629.973 64 L
S
GR
GS
[0.6 0 0 0.6 0 0] CT
0.873 GC
1 LJ
0.833 LW
N
106 467 M
106 64 L
S
GR
GS
[0.6 0 0 0.6 0 0] CT
0.873 GC
1 LJ
0.833 LW
N
194 467 M
194 64 L
S
GR
GS
[0.6 0 0 0.6 0 0] CT
0.873 GC
1 LJ
0.833 LW
N
282 467 M
282 64 L
S
GR
GS
[0.6 0 0 0.6 0 0] CT
0.873 GC
1 LJ
0.833 LW
N
370 467 M
370 64 L
S
GR
GS
[0.6 0 0 0.6 0 0] CT
0.873 GC
1 LJ
0.833 LW
N
458 467 M
458 64 L
S
GR
GS
[0.6 0 0 0.6 0 0] CT
0.873 GC
1 LJ
0.833 LW
N
546 467 M
546 64 L
S
GR
GS
[0.6 0 0 0.6 0 0] CT
0.873 GC
1 LJ
0.833 LW
N
634 467 M
634 64 L
S
GR
GS
[0.6 0 0 0.6 0 0] CT
0.873 GC
1 LJ
0.833 LW
N
634 467 M
106 467 L
S
GR
GS
[0.6 0 0 0.6 0 0] CT
0.873 GC
1 LJ
0.833 LW
N
634 409.429 M
106 409.429 L
S
GR
GS
[0.6 0 0 0.6 0 0] CT
0.873 GC
1 LJ
0.833 LW
N
634 351.857 M
106 351.857 L
S
GR
GS
[0.6 0 0 0.6 0 0] CT
0.873 GC
1 LJ
0.833 LW
N
634 294.286 M
106 294.286 L
S
GR
GS
[0.6 0 0 0.6 0 0] CT
0.873 GC
1 LJ
0.833 LW
N
634 236.714 M
106 236.714 L
S
GR
GS
[0.6 0 0 0.6 0 0] CT
0.873 GC
1 LJ
0.833 LW
N
634 179.143 M
106 179.143 L
S
GR
GS
[0.6 0 0 0.6 0 0] CT
0.873 GC
1 LJ
0.833 LW
N
634 121.571 M
106 121.571 L
S
GR
GS
[0.6 0 0 0.6 0 0] CT
0.873 GC
1 LJ
0.833 LW
N
634 64 M
106 64 L
S
GR
GS
[0.6 0 0 0.6 0 0] CT
0.4 GC
2 setlinecap
1 LJ
0.833 LW
N
106 467 M
634 467 L
S
GR
GS
[0.6 0 0 0.6 0 0] CT
0.4 GC
2 setlinecap
1 LJ
0.833 LW
N
106 64 M
634 64 L
S
GR
GS
[0.6 0 0 0.6 0 0] CT
0.4 GC
2 setlinecap
1 LJ
0.833 LW
N
106 467 M
106 461.72 L
S
GR
GS
[0.6 0 0 0.6 0 0] CT
0.4 GC
2 setlinecap
1 LJ
0.833 LW
N
194 467 M
194 461.72 L
S
GR
GS
[0.6 0 0 0.6 0 0] CT
0.4 GC
2 setlinecap
1 LJ
0.833 LW
N
282 467 M
282 461.72 L
S
GR
GS
[0.6 0 0 0.6 0 0] CT
0.4 GC
2 setlinecap
1 LJ
0.833 LW
N
370 467 M
370 461.72 L
S
GR
GS
[0.6 0 0 0.6 0 0] CT
0.4 GC
2 setlinecap
1 LJ
0.833 LW
N
458 467 M
458 461.72 L
S
GR
GS
[0.6 0 0 0.6 0 0] CT
0.4 GC
2 setlinecap
1 LJ
0.833 LW
N
546 467 M
546 461.72 L
S
GR
GS
[0.6 0 0 0.6 0 0] CT
0.4 GC
2 setlinecap
1 LJ
0.833 LW
N
634 467 M
634 461.72 L
S
GR
GS
[0.6 0 0 0.6 0 0] CT
0.4 GC
2 setlinecap
1 LJ
0.833 LW
N
106 64 M
106 69.28 L
S
GR
GS
[0.6 0 0 0.6 0 0] CT
0.4 GC
2 setlinecap
1 LJ
0.833 LW
N
194 64 M
194 69.28 L
S
GR
GS
[0.6 0 0 0.6 0 0] CT
0.4 GC
2 setlinecap
1 LJ
0.833 LW
N
282 64 M
282 69.28 L
S
GR
GS
[0.6 0 0 0.6 0 0] CT
0.4 GC
2 setlinecap
1 LJ
0.833 LW
N
370 64 M
370 69.28 L
S
GR
GS
[0.6 0 0 0.6 0 0] CT
0.4 GC
2 setlinecap
1 LJ
0.833 LW
N
458 64 M
458 69.28 L
S
GR
GS
[0.6 0 0 0.6 0 0] CT
0.4 GC
2 setlinecap
1 LJ
0.833 LW
N
546 64 M
546 69.28 L
S
GR
GS
[0.6 0 0 0.6 0 0] CT
0.4 GC
2 setlinecap
1 LJ
0.833 LW
N
634 64 M
634 69.28 L
S
GR
GS
[0.6 0 0 0.6 0 0] CT
0.4 GC
2 setlinecap
1 LJ
0.833 LW
N
106 467 M
106 464.36 L
S
GR
GS
[0.6 0 0 0.6 0 0] CT
0.4 GC
2 setlinecap
1 LJ
0.833 LW
N
132.491 467 M
132.491 464.36 L
S
GR
GS
[0.6 0 0 0.6 0 0] CT
0.4 GC
2 setlinecap
1 LJ
0.833 LW
N
147.987 467 M
147.987 464.36 L
S
GR
GS
[0.6 0 0 0.6 0 0] CT
0.4 GC
2 setlinecap
1 LJ
0.833 LW
N
158.981 467 M
158.981 464.36 L
S
GR
GS
[0.6 0 0 0.6 0 0] CT
0.4 GC
2 setlinecap
1 LJ
0.833 LW
N
167.509 467 M
167.509 464.36 L
S
GR
GS
[0.6 0 0 0.6 0 0] CT
0.4 GC
2 setlinecap
1 LJ
0.833 LW
N
174.477 467 M
174.477 464.36 L
S
GR
GS
[0.6 0 0 0.6 0 0] CT
0.4 GC
2 setlinecap
1 LJ
0.833 LW
N
180.369 467 M
180.369 464.36 L
S
GR
GS
[0.6 0 0 0.6 0 0] CT
0.4 GC
2 setlinecap
1 LJ
0.833 LW
N
185.472 467 M
185.472 464.36 L
S
GR
GS
[0.6 0 0 0.6 0 0] CT
0.4 GC
2 setlinecap
1 LJ
0.833 LW
N
189.973 467 M
189.973 464.36 L
S
GR
GS
[0.6 0 0 0.6 0 0] CT
0.4 GC
2 setlinecap
1 LJ
0.833 LW
N
194 467 M
194 464.36 L
S
GR
GS
[0.6 0 0 0.6 0 0] CT
0.4 GC
2 setlinecap
1 LJ
0.833 LW
N
220.491 467 M
220.491 464.36 L
S
GR
GS
[0.6 0 0 0.6 0 0] CT
0.4 GC
2 setlinecap
1 LJ
0.833 LW
N
235.987 467 M
235.987 464.36 L
S
GR
GS
[0.6 0 0 0.6 0 0] CT
0.4 GC
2 setlinecap
1 LJ
0.833 LW
N
246.981 467 M
246.981 464.36 L
S
GR
GS
[0.6 0 0 0.6 0 0] CT
0.4 GC
2 setlinecap
1 LJ
0.833 LW
N
255.509 467 M
255.509 464.36 L
S
GR
GS
[0.6 0 0 0.6 0 0] CT
0.4 GC
2 setlinecap
1 LJ
0.833 LW
N
262.477 467 M
262.477 464.36 L
S
GR
GS
[0.6 0 0 0.6 0 0] CT
0.4 GC
2 setlinecap
1 LJ
0.833 LW
N
268.369 467 M
268.369 464.36 L
S
GR
GS
[0.6 0 0 0.6 0 0] CT
0.4 GC
2 setlinecap
1 LJ
0.833 LW
N
273.472 467 M
273.472 464.36 L
S
GR
GS
[0.6 0 0 0.6 0 0] CT
0.4 GC
2 setlinecap
1 LJ
0.833 LW
N
277.973 467 M
277.973 464.36 L
S
GR
GS
[0.6 0 0 0.6 0 0] CT
0.4 GC
2 setlinecap
1 LJ
0.833 LW
N
282 467 M
282 464.36 L
S
GR
GS
[0.6 0 0 0.6 0 0] CT
0.4 GC
2 setlinecap
1 LJ
0.833 LW
N
308.491 467 M
308.491 464.36 L
S
GR
GS
[0.6 0 0 0.6 0 0] CT
0.4 GC
2 setlinecap
1 LJ
0.833 LW
N
323.987 467 M
323.987 464.36 L
S
GR
GS
[0.6 0 0 0.6 0 0] CT
0.4 GC
2 setlinecap
1 LJ
0.833 LW
N
334.981 467 M
334.981 464.36 L
S
GR
GS
[0.6 0 0 0.6 0 0] CT
0.4 GC
2 setlinecap
1 LJ
0.833 LW
N
343.509 467 M
343.509 464.36 L
S
GR
GS
[0.6 0 0 0.6 0 0] CT
0.4 GC
2 setlinecap
1 LJ
0.833 LW
N
350.477 467 M
350.477 464.36 L
S
GR
GS
[0.6 0 0 0.6 0 0] CT
0.4 GC
2 setlinecap
1 LJ
0.833 LW
N
356.369 467 M
356.369 464.36 L
S
GR
GS
[0.6 0 0 0.6 0 0] CT
0.4 GC
2 setlinecap
1 LJ
0.833 LW
N
361.472 467 M
361.472 464.36 L
S
GR
GS
[0.6 0 0 0.6 0 0] CT
0.4 GC
2 setlinecap
1 LJ
0.833 LW
N
365.973 467 M
365.973 464.36 L
S
GR
GS
[0.6 0 0 0.6 0 0] CT
0.4 GC
2 setlinecap
1 LJ
0.833 LW
N
370 467 M
370 464.36 L
S
GR
GS
[0.6 0 0 0.6 0 0] CT
0.4 GC
2 setlinecap
1 LJ
0.833 LW
N
396.491 467 M
396.491 464.36 L
S
GR
GS
[0.6 0 0 0.6 0 0] CT
0.4 GC
2 setlinecap
1 LJ
0.833 LW
N
411.987 467 M
411.987 464.36 L
S
GR
GS
[0.6 0 0 0.6 0 0] CT
0.4 GC
2 setlinecap
1 LJ
0.833 LW
N
422.981 467 M
422.981 464.36 L
S
GR
GS
[0.6 0 0 0.6 0 0] CT
0.4 GC
2 setlinecap
1 LJ
0.833 LW
N
431.509 467 M
431.509 464.36 L
S
GR
GS
[0.6 0 0 0.6 0 0] CT
0.4 GC
2 setlinecap
1 LJ
0.833 LW
N
438.477 467 M
438.477 464.36 L
S
GR
GS
[0.6 0 0 0.6 0 0] CT
0.4 GC
2 setlinecap
1 LJ
0.833 LW
N
444.369 467 M
444.369 464.36 L
S
GR
GS
[0.6 0 0 0.6 0 0] CT
0.4 GC
2 setlinecap
1 LJ
0.833 LW
N
449.472 467 M
449.472 464.36 L
S
GR
GS
[0.6 0 0 0.6 0 0] CT
0.4 GC
2 setlinecap
1 LJ
0.833 LW
N
453.973 467 M
453.973 464.36 L
S
GR
GS
[0.6 0 0 0.6 0 0] CT
0.4 GC
2 setlinecap
1 LJ
0.833 LW
N
458 467 M
458 464.36 L
S
GR
GS
[0.6 0 0 0.6 0 0] CT
0.4 GC
2 setlinecap
1 LJ
0.833 LW
N
484.491 467 M
484.491 464.36 L
S
GR
GS
[0.6 0 0 0.6 0 0] CT
0.4 GC
2 setlinecap
1 LJ
0.833 LW
N
499.987 467 M
499.987 464.36 L
S
GR
GS
[0.6 0 0 0.6 0 0] CT
0.4 GC
2 setlinecap
1 LJ
0.833 LW
N
510.981 467 M
510.981 464.36 L
S
GR
GS
[0.6 0 0 0.6 0 0] CT
0.4 GC
2 setlinecap
1 LJ
0.833 LW
N
519.509 467 M
519.509 464.36 L
S
GR
GS
[0.6 0 0 0.6 0 0] CT
0.4 GC
2 setlinecap
1 LJ
0.833 LW
N
526.477 467 M
526.477 464.36 L
S
GR
GS
[0.6 0 0 0.6 0 0] CT
0.4 GC
2 setlinecap
1 LJ
0.833 LW
N
532.369 467 M
532.369 464.36 L
S
GR
GS
[0.6 0 0 0.6 0 0] CT
0.4 GC
2 setlinecap
1 LJ
0.833 LW
N
537.472 467 M
537.472 464.36 L
S
GR
GS
[0.6 0 0 0.6 0 0] CT
0.4 GC
2 setlinecap
1 LJ
0.833 LW
N
541.973 467 M
541.973 464.36 L
S
GR
GS
[0.6 0 0 0.6 0 0] CT
0.4 GC
2 setlinecap
1 LJ
0.833 LW
N
546 467 M
546 464.36 L
S
GR
GS
[0.6 0 0 0.6 0 0] CT
0.4 GC
2 setlinecap
1 LJ
0.833 LW
N
572.491 467 M
572.491 464.36 L
S
GR
GS
[0.6 0 0 0.6 0 0] CT
0.4 GC
2 setlinecap
1 LJ
0.833 LW
N
587.987 467 M
587.987 464.36 L
S
GR
GS
[0.6 0 0 0.6 0 0] CT
0.4 GC
2 setlinecap
1 LJ
0.833 LW
N
598.981 467 M
598.981 464.36 L
S
GR
GS
[0.6 0 0 0.6 0 0] CT
0.4 GC
2 setlinecap
1 LJ
0.833 LW
N
607.509 467 M
607.509 464.36 L
S
GR
GS
[0.6 0 0 0.6 0 0] CT
0.4 GC
2 setlinecap
1 LJ
0.833 LW
N
614.477 467 M
614.477 464.36 L
S
GR
GS
[0.6 0 0 0.6 0 0] CT
0.4 GC
2 setlinecap
1 LJ
0.833 LW
N
620.369 467 M
620.369 464.36 L
S
GR
GS
[0.6 0 0 0.6 0 0] CT
0.4 GC
2 setlinecap
1 LJ
0.833 LW
N
625.472 467 M
625.472 464.36 L
S
GR
GS
[0.6 0 0 0.6 0 0] CT
0.4 GC
2 setlinecap
1 LJ
0.833 LW
N
629.973 467 M
629.973 464.36 L
S
GR
GS
[0.6 0 0 0.6 0 0] CT
0.4 GC
2 setlinecap
1 LJ
0.833 LW
N
634 467 M
634 464.36 L
S
GR
GS
[0.6 0 0 0.6 0 0] CT
0.4 GC
2 setlinecap
1 LJ
0.833 LW
N
106 64 M
106 66.64 L
S
GR
GS
[0.6 0 0 0.6 0 0] CT
0.4 GC
2 setlinecap
1 LJ
0.833 LW
N
132.491 64 M
132.491 66.64 L
S
GR
GS
[0.6 0 0 0.6 0 0] CT
0.4 GC
2 setlinecap
1 LJ
0.833 LW
N
147.987 64 M
147.987 66.64 L
S
GR
GS
[0.6 0 0 0.6 0 0] CT
0.4 GC
2 setlinecap
1 LJ
0.833 LW
N
158.981 64 M
158.981 66.64 L
S
GR
GS
[0.6 0 0 0.6 0 0] CT
0.4 GC
2 setlinecap
1 LJ
0.833 LW
N
167.509 64 M
167.509 66.64 L
S
GR
GS
[0.6 0 0 0.6 0 0] CT
0.4 GC
2 setlinecap
1 LJ
0.833 LW
N
174.477 64 M
174.477 66.64 L
S
GR
GS
[0.6 0 0 0.6 0 0] CT
0.4 GC
2 setlinecap
1 LJ
0.833 LW
N
180.369 64 M
180.369 66.64 L
S
GR
GS
[0.6 0 0 0.6 0 0] CT
0.4 GC
2 setlinecap
1 LJ
0.833 LW
N
185.472 64 M
185.472 66.64 L
S
GR
GS
[0.6 0 0 0.6 0 0] CT
0.4 GC
2 setlinecap
1 LJ
0.833 LW
N
189.973 64 M
189.973 66.64 L
S
GR
GS
[0.6 0 0 0.6 0 0] CT
0.4 GC
2 setlinecap
1 LJ
0.833 LW
N
194 64 M
194 66.64 L
S
GR
GS
[0.6 0 0 0.6 0 0] CT
0.4 GC
2 setlinecap
1 LJ
0.833 LW
N
220.491 64 M
220.491 66.64 L
S
GR
GS
[0.6 0 0 0.6 0 0] CT
0.4 GC
2 setlinecap
1 LJ
0.833 LW
N
235.987 64 M
235.987 66.64 L
S
GR
GS
[0.6 0 0 0.6 0 0] CT
0.4 GC
2 setlinecap
1 LJ
0.833 LW
N
246.981 64 M
246.981 66.64 L
S
GR
GS
[0.6 0 0 0.6 0 0] CT
0.4 GC
2 setlinecap
1 LJ
0.833 LW
N
255.509 64 M
255.509 66.64 L
S
GR
GS
[0.6 0 0 0.6 0 0] CT
0.4 GC
2 setlinecap
1 LJ
0.833 LW
N
262.477 64 M
262.477 66.64 L
S
GR
GS
[0.6 0 0 0.6 0 0] CT
0.4 GC
2 setlinecap
1 LJ
0.833 LW
N
268.369 64 M
268.369 66.64 L
S
GR
GS
[0.6 0 0 0.6 0 0] CT
0.4 GC
2 setlinecap
1 LJ
0.833 LW
N
273.472 64 M
273.472 66.64 L
S
GR
GS
[0.6 0 0 0.6 0 0] CT
0.4 GC
2 setlinecap
1 LJ
0.833 LW
N
277.973 64 M
277.973 66.64 L
S
GR
GS
[0.6 0 0 0.6 0 0] CT
0.4 GC
2 setlinecap
1 LJ
0.833 LW
N
282 64 M
282 66.64 L
S
GR
GS
[0.6 0 0 0.6 0 0] CT
0.4 GC
2 setlinecap
1 LJ
0.833 LW
N
308.491 64 M
308.491 66.64 L
S
GR
GS
[0.6 0 0 0.6 0 0] CT
0.4 GC
2 setlinecap
1 LJ
0.833 LW
N
323.987 64 M
323.987 66.64 L
S
GR
GS
[0.6 0 0 0.6 0 0] CT
0.4 GC
2 setlinecap
1 LJ
0.833 LW
N
334.981 64 M
334.981 66.64 L
S
GR
GS
[0.6 0 0 0.6 0 0] CT
0.4 GC
2 setlinecap
1 LJ
0.833 LW
N
343.509 64 M
343.509 66.64 L
S
GR
GS
[0.6 0 0 0.6 0 0] CT
0.4 GC
2 setlinecap
1 LJ
0.833 LW
N
350.477 64 M
350.477 66.64 L
S
GR
GS
[0.6 0 0 0.6 0 0] CT
0.4 GC
2 setlinecap
1 LJ
0.833 LW
N
356.369 64 M
356.369 66.64 L
S
GR
GS
[0.6 0 0 0.6 0 0] CT
0.4 GC
2 setlinecap
1 LJ
0.833 LW
N
361.472 64 M
361.472 66.64 L
S
GR
GS
[0.6 0 0 0.6 0 0] CT
0.4 GC
2 setlinecap
1 LJ
0.833 LW
N
365.973 64 M
365.973 66.64 L
S
GR
GS
[0.6 0 0 0.6 0 0] CT
0.4 GC
2 setlinecap
1 LJ
0.833 LW
N
370 64 M
370 66.64 L
S
GR
GS
[0.6 0 0 0.6 0 0] CT
0.4 GC
2 setlinecap
1 LJ
0.833 LW
N
396.491 64 M
396.491 66.64 L
S
GR
GS
[0.6 0 0 0.6 0 0] CT
0.4 GC
2 setlinecap
1 LJ
0.833 LW
N
411.987 64 M
411.987 66.64 L
S
GR
GS
[0.6 0 0 0.6 0 0] CT
0.4 GC
2 setlinecap
1 LJ
0.833 LW
N
422.981 64 M
422.981 66.64 L
S
GR
GS
[0.6 0 0 0.6 0 0] CT
0.4 GC
2 setlinecap
1 LJ
0.833 LW
N
431.509 64 M
431.509 66.64 L
S
GR
GS
[0.6 0 0 0.6 0 0] CT
0.4 GC
2 setlinecap
1 LJ
0.833 LW
N
438.477 64 M
438.477 66.64 L
S
GR
GS
[0.6 0 0 0.6 0 0] CT
0.4 GC
2 setlinecap
1 LJ
0.833 LW
N
444.369 64 M
444.369 66.64 L
S
GR
GS
[0.6 0 0 0.6 0 0] CT
0.4 GC
2 setlinecap
1 LJ
0.833 LW
N
449.472 64 M
449.472 66.64 L
S
GR
GS
[0.6 0 0 0.6 0 0] CT
0.4 GC
2 setlinecap
1 LJ
0.833 LW
N
453.973 64 M
453.973 66.64 L
S
GR
GS
[0.6 0 0 0.6 0 0] CT
0.4 GC
2 setlinecap
1 LJ
0.833 LW
N
458 64 M
458 66.64 L
S
GR
GS
[0.6 0 0 0.6 0 0] CT
0.4 GC
2 setlinecap
1 LJ
0.833 LW
N
484.491 64 M
484.491 66.64 L
S
GR
GS
[0.6 0 0 0.6 0 0] CT
0.4 GC
2 setlinecap
1 LJ
0.833 LW
N
499.987 64 M
499.987 66.64 L
S
GR
GS
[0.6 0 0 0.6 0 0] CT
0.4 GC
2 setlinecap
1 LJ
0.833 LW
N
510.981 64 M
510.981 66.64 L
S
GR
GS
[0.6 0 0 0.6 0 0] CT
0.4 GC
2 setlinecap
1 LJ
0.833 LW
N
519.509 64 M
519.509 66.64 L
S
GR
GS
[0.6 0 0 0.6 0 0] CT
0.4 GC
2 setlinecap
1 LJ
0.833 LW
N
526.477 64 M
526.477 66.64 L
S
GR
GS
[0.6 0 0 0.6 0 0] CT
0.4 GC
2 setlinecap
1 LJ
0.833 LW
N
532.369 64 M
532.369 66.64 L
S
GR
GS
[0.6 0 0 0.6 0 0] CT
0.4 GC
2 setlinecap
1 LJ
0.833 LW
N
537.472 64 M
537.472 66.64 L
S
GR
GS
[0.6 0 0 0.6 0 0] CT
0.4 GC
2 setlinecap
1 LJ
0.833 LW
N
541.973 64 M
541.973 66.64 L
S
GR
GS
[0.6 0 0 0.6 0 0] CT
0.4 GC
2 setlinecap
1 LJ
0.833 LW
N
546 64 M
546 66.64 L
S
GR
GS
[0.6 0 0 0.6 0 0] CT
0.4 GC
2 setlinecap
1 LJ
0.833 LW
N
572.491 64 M
572.491 66.64 L
S
GR
GS
[0.6 0 0 0.6 0 0] CT
0.4 GC
2 setlinecap
1 LJ
0.833 LW
N
587.987 64 M
587.987 66.64 L
S
GR
GS
[0.6 0 0 0.6 0 0] CT
0.4 GC
2 setlinecap
1 LJ
0.833 LW
N
598.981 64 M
598.981 66.64 L
S
GR
GS
[0.6 0 0 0.6 0 0] CT
0.4 GC
2 setlinecap
1 LJ
0.833 LW
N
607.509 64 M
607.509 66.64 L
S
GR
GS
[0.6 0 0 0.6 0 0] CT
0.4 GC
2 setlinecap
1 LJ
0.833 LW
N
614.477 64 M
614.477 66.64 L
S
GR
GS
[0.6 0 0 0.6 0 0] CT
0.4 GC
2 setlinecap
1 LJ
0.833 LW
N
620.369 64 M
620.369 66.64 L
S
GR
GS
[0.6 0 0 0.6 0 0] CT
0.4 GC
2 setlinecap
1 LJ
0.833 LW
N
625.472 64 M
625.472 66.64 L
S
GR
GS
[0.6 0 0 0.6 0 0] CT
0.4 GC
2 setlinecap
1 LJ
0.833 LW
N
629.973 64 M
629.973 66.64 L
S
GR
GS
[0.6 0 0 0.6 0 0] CT
0.4 GC
2 setlinecap
1 LJ
0.833 LW
N
634 64 M
634 66.64 L
S
GR
GS
[0.6 0 0 0.6 54 297.6] CT
0.4 GC
/Helvetica 16.667 F
GS
[1 0 0 1 0 0] CT
0 0 moveto 
1 -1 scale
(10) t 
GR
GR
GS
[0.6 0 0 0.6 65.4 292.8] CT
0.4 GC
/Helvetica 13.333 F
GS
[1 0 0 1 0 0] CT
0 0 moveto 
1 -1 scale
(-4) t 
GR
GR
GS
[0.6 0 0 0.6 106.8 297.6] CT
0.4 GC
/Helvetica 16.667 F
GS
[1 0 0 1 0 0] CT
0 0 moveto 
1 -1 scale
(10) t 
GR
GR
GS
[0.6 0 0 0.6 118.2 292.8] CT
0.4 GC
/Helvetica 13.333 F
GS
[1 0 0 1 0 0] CT
0 0 moveto 
1 -1 scale
(-3) t 
GR
GR
GS
[0.6 0 0 0.6 159.6 297.6] CT
0.4 GC
/Helvetica 16.667 F
GS
[1 0 0 1 0 0] CT
0 0 moveto 
1 -1 scale
(10) t 
GR
GR
GS
[0.6 0 0 0.6 171 292.8] CT
0.4 GC
/Helvetica 13.333 F
GS
[1 0 0 1 0 0] CT
0 0 moveto 
1 -1 scale
(-2) t 
GR
GR
GS
[0.6 0 0 0.6 212.4 297.6] CT
0.4 GC
/Helvetica 16.667 F
GS
[1 0 0 1 0 0] CT
0 0 moveto 
1 -1 scale
(10) t 
GR
GR
GS
[0.6 0 0 0.6 223.8 292.8] CT
0.4 GC
/Helvetica 13.333 F
GS
[1 0 0 1 0 0] CT
0 0 moveto 
1 -1 scale
(-1) t 
GR
GR
GS
[0.6 0 0 0.6 266.4 297.6] CT
0.4 GC
/Helvetica 16.667 F
GS
[1 0 0 1 0 0] CT
0 0 moveto 
1 -1 scale
(10) t 
GR
GR
GS
[0.6 0 0 0.6 277.8 292.8] CT
0.4 GC
/Helvetica 13.333 F
GS
[1 0 0 1 0 0] CT
0 0 moveto 
1 -1 scale
(0) t 
GR
GR
GS
[0.6 0 0 0.6 319.2 297.6] CT
0.4 GC
/Helvetica 16.667 F
GS
[1 0 0 1 0 0] CT
0 0 moveto 
1 -1 scale
(10) t 
GR
GR
GS
[0.6 0 0 0.6 330.6 292.8] CT
0.4 GC
/Helvetica 13.333 F
GS
[1 0 0 1 0 0] CT
0 0 moveto 
1 -1 scale
(1) t 
GR
GR
GS
[0.6 0 0 0.6 372 297.6] CT
0.4 GC
/Helvetica 16.667 F
GS
[1 0 0 1 0 0] CT
0 0 moveto 
1 -1 scale
(10) t 
GR
GR
GS
[0.6 0 0 0.6 383.4 292.8] CT
0.4 GC
/Helvetica 13.333 F
GS
[1 0 0 1 0 0] CT
0 0 moveto 
1 -1 scale
(2) t 
GR
GR
GS
[0.6 0 0 0.6 0 0] CT
0.4 GC
2 setlinecap
1 LJ
0.833 LW
N
106 467 M
106 64 L
S
GR
GS
[0.6 0 0 0.6 0 0] CT
0.4 GC
2 setlinecap
1 LJ
0.833 LW
N
634 467 M
634 64 L
S
GR
GS
[0.6 0 0 0.6 0 0] CT
0.4 GC
2 setlinecap
1 LJ
0.833 LW
N
106 467 M
111.28 467 L
S
GR
GS
[0.6 0 0 0.6 0 0] CT
0.4 GC
2 setlinecap
1 LJ
0.833 LW
N
106 409.429 M
111.28 409.429 L
S
GR
GS
[0.6 0 0 0.6 0 0] CT
0.4 GC
2 setlinecap
1 LJ
0.833 LW
N
106 351.857 M
111.28 351.857 L
S
GR
GS
[0.6 0 0 0.6 0 0] CT
0.4 GC
2 setlinecap
1 LJ
0.833 LW
N
106 294.286 M
111.28 294.286 L
S
GR
GS
[0.6 0 0 0.6 0 0] CT
0.4 GC
2 setlinecap
1 LJ
0.833 LW
N
106 236.714 M
111.28 236.714 L
S
GR
GS
[0.6 0 0 0.6 0 0] CT
0.4 GC
2 setlinecap
1 LJ
0.833 LW
N
106 179.143 M
111.28 179.143 L
S
GR
GS
[0.6 0 0 0.6 0 0] CT
0.4 GC
2 setlinecap
1 LJ
0.833 LW
N
106 121.571 M
111.28 121.571 L
S
GR
GS
[0.6 0 0 0.6 0 0] CT
0.4 GC
2 setlinecap
1 LJ
0.833 LW
N
106 64 M
111.28 64 L
S
GR
GS
[0.6 0 0 0.6 0 0] CT
0.4 GC
2 setlinecap
1 LJ
0.833 LW
N
634 467 M
628.72 467 L
S
GR
GS
[0.6 0 0 0.6 0 0] CT
0.4 GC
2 setlinecap
1 LJ
0.833 LW
N
634 409.429 M
628.72 409.429 L
S
GR
GS
[0.6 0 0 0.6 0 0] CT
0.4 GC
2 setlinecap
1 LJ
0.833 LW
N
634 351.857 M
628.72 351.857 L
S
GR
GS
[0.6 0 0 0.6 0 0] CT
0.4 GC
2 setlinecap
1 LJ
0.833 LW
N
634 294.286 M
628.72 294.286 L
S
GR
GS
[0.6 0 0 0.6 0 0] CT
0.4 GC
2 setlinecap
1 LJ
0.833 LW
N
634 236.714 M
628.72 236.714 L
S
GR
GS
[0.6 0 0 0.6 0 0] CT
0.4 GC
2 setlinecap
1 LJ
0.833 LW
N
634 179.143 M
628.72 179.143 L
S
GR
GS
[0.6 0 0 0.6 0 0] CT
0.4 GC
2 setlinecap
1 LJ
0.833 LW
N
634 121.571 M
628.72 121.571 L
S
GR
GS
[0.6 0 0 0.6 0 0] CT
0.4 GC
2 setlinecap
1 LJ
0.833 LW
N
634 64 M
628.72 64 L
S
GR
GS
[0.6 0 0 0.6 59.6 280.2] CT
0.4 GC
/Helvetica 16.667 F
GS
[1 0 0 1 0 0] CT
-25 6.5 moveto 
1 -1 scale
(-80) t 
GR
GR
GS
[0.6 0 0 0.6 59.6 245.65714] CT
0.4 GC
/Helvetica 16.667 F
GS
[1 0 0 1 0 0] CT
-25 6.5 moveto 
1 -1 scale
(-60) t 
GR
GR
GS
[0.6 0 0 0.6 59.6 211.11429] CT
0.4 GC
/Helvetica 16.667 F
GS
[1 0 0 1 0 0] CT
-25 6.5 moveto 
1 -1 scale
(-40) t 
GR
GR
GS
[0.6 0 0 0.6 59.6 176.57142] CT
0.4 GC
/Helvetica 16.667 F
GS
[1 0 0 1 0 0] CT
-25 6.5 moveto 
1 -1 scale
(-20) t 
GR
GR
GS
[0.6 0 0 0.6 59.6 142.02857] CT
0.4 GC
/Helvetica 16.667 F
GS
[1 0 0 1 0 0] CT
-10 6.5 moveto 
1 -1 scale
(0) t 
GR
GR
GS
[0.6 0 0 0.6 59.6 107.48571] CT
0.4 GC
/Helvetica 16.667 F
GS
[1 0 0 1 0 0] CT
-19 6.5 moveto 
1 -1 scale
(20) t 
GR
GR
GS
[0.6 0 0 0.6 59.6 72.94286] CT
0.4 GC
/Helvetica 16.667 F
GS
[1 0 0 1 0 0] CT
-19 6.5 moveto 
1 -1 scale
(40) t 
GR
GR
GS
[0.6 0 0 0.6 59.6 38.4] CT
0.4 GC
/Helvetica 16.667 F
GS
[1 0 0 1 0 0] CT
-19 6.5 moveto 
1 -1 scale
(60) t 
GR
GR
GS
[0.6 0 0 0.6 0 0] CT
1 0 0 RC
1 LJ
0.833 LW
N
106 104.584 M
111.333 104.586 L
116.667 104.588 L
122 104.59 L
127.333 104.594 L
132.667 104.599 L
138 104.605 L
143.333 104.613 L
148.667 104.623 L
154 104.637 L
159.333 104.656 L
164.667 104.681 L
170 104.713 L
175.333 104.756 L
180.667 104.812 L
186 104.886 L
191.333 104.983 L
196.667 105.11 L
202 105.276 L
207.333 105.492 L
212.667 105.772 L
218 106.133 L
223.333 106.594 L
228.667 107.179 L
234 107.913 L
239.333 108.821 L
244.667 109.929 L
250 111.257 L
255.333 112.82 L
260.667 114.625 L
266 116.67 L
271.333 118.944 L
276.667 121.428 L
282 124.098 L
287.333 126.929 L
292.667 129.894 L
298 132.97 L
303.333 136.135 L
308.667 139.37 L
314 142.658 L
319.333 145.988 L
324.667 149.347 L
330 152.727 L
335.333 156.121 L
340.667 159.521 L
346 162.924 L
351.333 166.323 L
356.667 169.714 L
362 173.091 L
367.333 176.451 L
372.667 179.785 L
378 183.09 L
383.333 186.357 L
388.667 189.584 L
394 192.765 L
399.333 195.905 L
404.667 199.011 L
410 202.103 L
415.333 205.209 L
420.667 208.367 L
426 211.617 L
431.333 214.996 L
436.667 218.524 L
442 222.198 L
447.333 225.991 L
452.667 229.85 L
458 233.691 L
463.333 237.369 L
468.667 240.583 L
474 242.787 L
479.333 244.41 L
484.667 248.586 L
490 254.2 L
495.333 259.096 L
500.667 263.404 L
506 267.403 L
511.333 271.231 L
516.667 274.956 L
522 278.613 L
527.333 282.225 L
532.667 285.805 L
538 289.362 L
543.333 292.901 L
548.667 296.428 L
554 299.945 L
559.333 303.456 L
564.667 306.961 L
570 310.462 L
575.333 313.961 L
580.667 317.457 L
586 320.951 L
591.333 324.444 L
596.667 327.937 L
602 331.428 L
607.333 334.919 L
612.667 338.409 L
618 341.9 L
623.333 345.389 L
628.667 348.879 L
634 352.369 L
S
GR
GS
[0.6 0 0 0.6 0 0] CT
1 0 0 RC
1 LJ
0.833 LW
N
106 229.556 M
111.333 229.556 L
116.667 229.556 L
122 229.556 L
127.333 229.556 L
132.667 229.556 L
138 229.556 L
143.333 229.556 L
148.667 229.556 L
154 229.556 L
159.333 229.557 L
164.667 229.557 L
170 229.557 L
175.333 229.557 L
180.667 229.557 L
186 229.558 L
191.333 229.558 L
196.667 229.559 L
202 229.559 L
207.333 229.56 L
212.667 229.562 L
218 229.563 L
223.333 229.566 L
228.667 229.569 L
234 229.573 L
239.333 229.578 L
244.667 229.585 L
250 229.595 L
255.333 229.607 L
260.667 229.623 L
266 229.645 L
271.333 229.673 L
276.667 229.71 L
282 229.759 L
287.333 229.824 L
292.667 229.908 L
298 230.019 L
303.333 230.164 L
308.667 230.352 L
314 230.596 L
319.333 230.908 L
324.667 231.307 L
330 231.811 L
335.333 232.439 L
340.667 233.21 L
346 234.14 L
351.333 235.238 L
356.667 236.506 L
362 237.931 L
367.333 239.485 L
372.667 241.126 L
378 242.801 L
383.333 244.442 L
388.667 245.984 L
394 247.365 L
399.333 248.54 L
404.667 249.494 L
410 250.241 L
415.333 250.825 L
420.667 251.309 L
426 251.764 L
431.333 252.251 L
436.667 252.819 L
442 253.49 L
447.333 254.264 L
452.667 255.115 L
458 256.003 L
463.333 256.905 L
468.667 257.979 L
474 260.032 L
479.333 265.168 L
484.667 276.197 L
490 292.185 L
495.333 305.232 L
500.667 309.732 L
506 310.643 L
511.333 311.613 L
516.667 313.213 L
522 315.344 L
527.333 317.857 L
532.667 320.638 L
538 323.609 L
543.333 326.716 L
548.667 329.922 L
554 333.2 L
559.333 336.531 L
564.667 339.902 L
570 343.302 L
575.333 346.725 L
580.667 350.163 L
586 353.614 L
591.333 357.075 L
596.667 360.542 L
602 364.015 L
607.333 367.492 L
612.667 370.972 L
618 374.454 L
623.333 377.937 L
628.667 381.423 L
634 384.909 L
S
GR
GS
[0.6 0 0 0.6 0 0] CT
0 0 1 RC
[8 3 2 3] 0 setdash
2 LJ
0.833 LW
N
106 104.59 M
111.333 104.591 L
116.667 104.593 L
122 104.596 L
127.333 104.6 L
132.667 104.604 L
138 104.61 L
143.333 104.618 L
148.667 104.629 L
154 104.643 L
159.333 104.662 L
164.667 104.686 L
170 104.718 L
175.333 104.761 L
180.667 104.817 L
186 104.891 L
191.333 104.988 L
196.667 105.115 L
202 105.28 L
207.333 105.496 L
212.667 105.776 L
218 106.136 L
223.333 106.597 L
228.667 107.181 L
234 107.914 L
239.333 108.821 L
244.667 109.928 L
250 111.254 L
255.333 112.816 L
260.667 114.62 L
266 116.664 L
271.333 118.937 L
276.667 121.42 L
282 124.089 L
287.333 126.92 L
292.667 129.885 L
298 132.962 L
303.333 136.127 L
308.667 139.363 L
314 142.653 L
319.333 145.984 L
324.667 149.346 L
330 152.729 L
335.333 156.125 L
340.667 159.529 L
346 162.935 L
351.333 166.336 L
356.667 169.729 L
362 173.107 L
367.333 176.466 L
372.667 179.8 L
378 183.105 L
383.333 186.377 L
388.667 189.614 L
394 192.817 L
399.333 195.99 L
404.667 199.14 L
410 202.277 L
415.333 205.414 L
420.667 208.566 L
426 211.749 L
431.333 214.982 L
436.667 218.283 L
442 221.674 L
447.333 225.175 L
452.667 228.801 L
458 232.542 L
463.333 236.336 L
468.667 240.036 L
474 243.45 L
479.333 246.539 L
484.667 249.535 L
490 252.795 L
495.333 256.663 L
500.667 261.392 L
506 266.849 L
511.333 271.673 L
516.667 274.917 L
522 278.353 L
527.333 282.378 L
532.667 286.008 L
538 289.425 L
543.333 292.947 L
548.667 296.446 L
554 299.942 L
559.333 303.438 L
564.667 306.931 L
570 310.422 L
575.333 313.91 L
580.667 317.396 L
586 320.88 L
591.333 324.364 L
596.667 327.847 L
602 331.33 L
607.333 334.813 L
612.667 338.297 L
618 341.782 L
623.333 345.268 L
628.667 348.754 L
634 352.241 L
S
GR
GS
[0.6 0 0 0.6 0 0] CT
0 0 1 RC
[8 3 2 3] 0 setdash
2 LJ
0.833 LW
N
106 229.1 M
111.333 229.1 L
116.667 229.1 L
122 229.1 L
127.333 229.1 L
132.667 229.1 L
138 229.1 L
143.333 229.1 L
148.667 229.1 L
154 229.1 L
159.333 229.1 L
164.667 229.1 L
170 229.1 L
175.333 229.101 L
180.667 229.101 L
186 229.101 L
191.333 229.101 L
196.667 229.102 L
202 229.103 L
207.333 229.104 L
212.667 229.105 L
218 229.106 L
223.333 229.108 L
228.667 229.111 L
234 229.115 L
239.333 229.119 L
244.667 229.126 L
250 229.134 L
255.333 229.145 L
260.667 229.16 L
266 229.179 L
271.333 229.204 L
276.667 229.238 L
282 229.282 L
287.333 229.34 L
292.667 229.416 L
298 229.516 L
303.333 229.647 L
308.667 229.818 L
314 230.041 L
319.333 230.329 L
324.667 230.699 L
330 231.173 L
335.333 231.771 L
340.667 232.519 L
346 233.441 L
351.333 234.559 L
356.667 235.889 L
362 237.436 L
367.333 239.194 L
372.667 241.136 L
378 243.215 L
383.333 245.356 L
388.667 247.456 L
394 249.387 L
399.333 251.01 L
404.667 252.202 L
410 252.901 L
415.333 253.13 L
420.667 252.987 L
426 252.618 L
431.333 252.171 L
436.667 251.771 L
442 251.521 L
447.333 251.509 L
452.667 251.829 L
458 252.621 L
463.333 254.122 L
468.667 256.738 L
474 261.073 L
479.333 267.87 L
484.667 278.288 L
490 295.431 L
495.333 321.425 L
500.667 302.053 L
506 292.084 L
511.333 293.109 L
516.667 304.029 L
522 314.78 L
527.333 314.353 L
532.667 318.153 L
538 324.381 L
543.333 329.008 L
548.667 334.072 L
554 339.256 L
559.333 344.518 L
564.667 349.894 L
570 355.39 L
575.333 361.016 L
580.667 366.784 L
586 372.7 L
591.333 378.765 L
596.667 384.973 L
602 391.314 L
607.333 397.774 L
612.667 404.337 L
618 410.986 L
623.333 417.705 L
628.667 424.483 L
634 431.305 L
S
GR
GS
[0.6 0 0 0.6 0 0] CT
1 GC
N
621 123 M
621 77 L
413 77 L
413 123 L
cp
f
GR
GS
[0.6 0 0 0.6 283.09243 53.76164] CT
/Helvetica 15 F
GS
[1 0 0 1 0 0] CT
0 6 moveto 
1 -1 scale
(Singular values of G) t 
GR
GR
GS
[0.6 0 0 0.6 0 0] CT
1 0 0 RC
1 LJ
0.833 LW
N
418.006 89.603 M
468.066 89.603 L
S
GR
GS
[0.6 0 0 0.6 283.09243 66.23836] CT
/Helvetica 15 F
GS
[1 0 0 1 0 0] CT
0 6 moveto 
1 -1 scale
(Singular values of G4) t 
GR
GR
GS
[0.6 0 0 0.6 0 0] CT
0 0 1 RC
[8 3 2 3] 0 setdash
2 LJ
0.833 LW
N
418.006 110.397 M
468.066 110.397 L
S
GR
GS
[0.6 0 0 0.6 0 0] CT
0.149 GC
10.0 ML
0.833 LW
N
413 123 M
413 77 L
621 77 L
621 123 L
cp
S
GR
GS
[0.6 0 0 0.6 135.6 25.2] CT
/Helvetica-Bold 18.333 F
GS
[1 0 0 1 0 0] CT
0 0 moveto 
1 -1 scale
(Singular Value Plots of G and G) t 
GR
GR
GS
[0.6 0 0 0.6 301.2 30.6] CT
/Helvetica-Bold 14.667 F
GS
[1 0 0 1 0 0] CT
0 0 moveto 
1 -1 scale
(4) t 
GR
GR
GS
[0.6 0 0 0.6 221.1 299.30001] CT
/Helvetica 18.333 F
GS
[1 0 0 1 0 0] CT
-111.5 19 moveto 
1 -1 scale
(Frequency \(rad/min\) \(rad/s\)) t 
GR
GR
GS
[0 -0.6 0.6 0 41.6 160.0875] CT
/Helvetica 18.333 F
GS
[1 0 0 1 0 0] CT
-63 -5 moveto 
1 -1 scale
(Magnitude \(dB\)) t 
GR
GR
%%Trailer
%%Pages: 1
%%EOF
