%!PS-Adobe-3.0 EPSF-3.0
%%Creator: (MATLAB, The Mathworks, Inc. Version 9.5.0.1033004 \(R2018b\) Update 2. Operating System: Windows 10)
%%Title: C:/Users/super/Desktop/column/report/img/weight_performance.eps
%%CreationDate: 2019-02-27T11:21:31
%%Pages: (atend)
%%BoundingBox: 0 0 420 315
%%LanguageLevel: 3
%%EndComments
%%BeginProlog
%%BeginResource: procset (Apache XML Graphics Std ProcSet) 1.2 0
%%Version: 1.2 0
%%Copyright: (Copyright 2001-2003,2010 The Apache Software Foundation. License terms: http://www.apache.org/licenses/LICENSE-2.0)
/bd{bind def}bind def
/ld{load def}bd
/GR/grestore ld
/GS/gsave ld
/RM/rmoveto ld
/C/curveto ld
/t/show ld
/L/lineto ld
/ML/setmiterlimit ld
/CT/concat ld
/f/fill ld
/N/newpath ld
/S/stroke ld
/CC/setcmykcolor ld
/A/ashow ld
/cp/closepath ld
/RC/setrgbcolor ld
/LJ/setlinejoin ld
/GC/setgray ld
/LW/setlinewidth ld
/M/moveto ld
/re {4 2 roll M
1 index 0 rlineto
0 exch rlineto
neg 0 rlineto
cp } bd
/_ctm matrix def
/_tm matrix def
/BT { _ctm currentmatrix pop matrix _tm copy pop 0 0 moveto } bd
/ET { _ctm setmatrix } bd
/iTm { _ctm setmatrix _tm concat } bd
/Tm { _tm astore pop iTm 0 0 moveto } bd
/ux 0.0 def
/uy 0.0 def
/F {
  /Tp exch def
  /Tf exch def
  Tf findfont Tp scalefont setfont
  /cf Tf def  /cs Tp def
} bd
/ULS {currentpoint /uy exch def /ux exch def} bd
/ULE {
  /Tcx currentpoint pop def
  gsave
  newpath
  cf findfont cs scalefont dup
  /FontMatrix get 0 get /Ts exch def /FontInfo get dup
  /UnderlinePosition get Ts mul /To exch def
  /UnderlineThickness get Ts mul /Tt exch def
  ux uy To add moveto  Tcx uy To add lineto
  Tt setlinewidth stroke
  grestore
} bd
/OLE {
  /Tcx currentpoint pop def
  gsave
  newpath
  cf findfont cs scalefont dup
  /FontMatrix get 0 get /Ts exch def /FontInfo get dup
  /UnderlinePosition get Ts mul /To exch def
  /UnderlineThickness get Ts mul /Tt exch def
  ux uy To add cs add moveto Tcx uy To add cs add lineto
  Tt setlinewidth stroke
  grestore
} bd
/SOE {
  /Tcx currentpoint pop def
  gsave
  newpath
  cf findfont cs scalefont dup
  /FontMatrix get 0 get /Ts exch def /FontInfo get dup
  /UnderlinePosition get Ts mul /To exch def
  /UnderlineThickness get Ts mul /Tt exch def
  ux uy To add cs 10 mul 26 idiv add moveto Tcx uy To add cs 10 mul 26 idiv add lineto
  Tt setlinewidth stroke
  grestore
} bd
/QT {
/Y22 exch store
/X22 exch store
/Y21 exch store
/X21 exch store
currentpoint
/Y21 load 2 mul add 3 div exch
/X21 load 2 mul add 3 div exch
/X21 load 2 mul /X22 load add 3 div
/Y21 load 2 mul /Y22 load add 3 div
/X22 load /Y22 load curveto
} bd
/SSPD {
dup length /d exch dict def
{
/v exch def
/k exch def
currentpagedevice k known {
/cpdv currentpagedevice k get def
v cpdv ne {
/upd false def
/nullv v type /nulltype eq def
/nullcpdv cpdv type /nulltype eq def
nullv nullcpdv or
{
/upd true def
} {
/sametype v type cpdv type eq def
sametype {
v type /arraytype eq {
/vlen v length def
/cpdvlen cpdv length def
vlen cpdvlen eq {
0 1 vlen 1 sub {
/i exch def
/obj v i get def
/cpdobj cpdv i get def
obj cpdobj ne {
/upd true def
exit
} if
} for
} {
/upd true def
} ifelse
} {
v type /dicttype eq {
v {
/dv exch def
/dk exch def
/cpddv cpdv dk get def
dv cpddv ne {
/upd true def
exit
} if
} forall
} {
/upd true def
} ifelse
} ifelse
} if
} ifelse
upd true eq {
d k v put
} if
} if
} if
} forall
d length 0 gt {
d setpagedevice
} if
} bd
/RE { % /NewFontName [NewEncodingArray] /FontName RE -
  findfont dup length dict begin
  {
    1 index /FID ne
    {def} {pop pop} ifelse
  } forall
  /Encoding exch def
  /FontName 1 index def
  currentdict definefont pop
  end
} bind def
%%EndResource
%%BeginResource: procset (Apache XML Graphics EPS ProcSet) 1.0 0
%%Version: 1.0 0
%%Copyright: (Copyright 2002-2003 The Apache Software Foundation. License terms: http://www.apache.org/licenses/LICENSE-2.0)
/BeginEPSF { %def
/b4_Inc_state save def         % Save state for cleanup
/dict_count countdictstack def % Count objects on dict stack
/op_count count 1 sub def      % Count objects on operand stack
userdict begin                 % Push userdict on dict stack
/showpage { } def              % Redefine showpage, { } = null proc
0 setgray 0 setlinecap         % Prepare graphics state
1 setlinewidth 0 setlinejoin
10 setmiterlimit [ ] 0 setdash newpath
/languagelevel where           % If level not equal to 1 then
{pop languagelevel             % set strokeadjust and
1 ne                           % overprint to their defaults.
{false setstrokeadjust false setoverprint
} if
} if
} bd
/EndEPSF { %def
count op_count sub {pop} repeat            % Clean up stacks
countdictstack dict_count sub {end} repeat
b4_Inc_state restore
} bd
%%EndResource
%FOPBeginFontDict
%%IncludeResource: font Courier-Oblique
%%IncludeResource: font Courier-BoldOblique
%%IncludeResource: font Courier-Bold
%%IncludeResource: font ZapfDingbats
%%IncludeResource: font Symbol
%%IncludeResource: font Helvetica
%%IncludeResource: font Helvetica-Oblique
%%IncludeResource: font Helvetica-Bold
%%IncludeResource: font Helvetica-BoldOblique
%%IncludeResource: font Times-Roman
%%IncludeResource: font Times-Italic
%%IncludeResource: font Times-Bold
%%IncludeResource: font Times-BoldItalic
%%IncludeResource: font Courier
%FOPEndFontDict
%%BeginResource: encoding WinAnsiEncoding
/WinAnsiEncoding [
/.notdef /.notdef /.notdef /.notdef /.notdef
/.notdef /.notdef /.notdef /.notdef /.notdef
/.notdef /.notdef /.notdef /.notdef /.notdef
/.notdef /.notdef /.notdef /.notdef /.notdef
/.notdef /.notdef /.notdef /.notdef /.notdef
/.notdef /.notdef /.notdef /.notdef /.notdef
/.notdef /.notdef /space /exclam /quotedbl
/numbersign /dollar /percent /ampersand /quotesingle
/parenleft /parenright /asterisk /plus /comma
/hyphen /period /slash /zero /one
/two /three /four /five /six
/seven /eight /nine /colon /semicolon
/less /equal /greater /question /at
/A /B /C /D /E
/F /G /H /I /J
/K /L /M /N /O
/P /Q /R /S /T
/U /V /W /X /Y
/Z /bracketleft /backslash /bracketright /asciicircum
/underscore /quoteleft /a /b /c
/d /e /f /g /h
/i /j /k /l /m
/n /o /p /q /r
/s /t /u /v /w
/x /y /z /braceleft /bar
/braceright /asciitilde /bullet /Euro /bullet
/quotesinglbase /florin /quotedblbase /ellipsis /dagger
/daggerdbl /circumflex /perthousand /Scaron /guilsinglleft
/OE /bullet /Zcaron /bullet /bullet
/quoteleft /quoteright /quotedblleft /quotedblright /bullet
/endash /emdash /asciitilde /trademark /scaron
/guilsinglright /oe /bullet /zcaron /Ydieresis
/space /exclamdown /cent /sterling /currency
/yen /brokenbar /section /dieresis /copyright
/ordfeminine /guillemotleft /logicalnot /sfthyphen /registered
/macron /degree /plusminus /twosuperior /threesuperior
/acute /mu /paragraph /middot /cedilla
/onesuperior /ordmasculine /guillemotright /onequarter /onehalf
/threequarters /questiondown /Agrave /Aacute /Acircumflex
/Atilde /Adieresis /Aring /AE /Ccedilla
/Egrave /Eacute /Ecircumflex /Edieresis /Igrave
/Iacute /Icircumflex /Idieresis /Eth /Ntilde
/Ograve /Oacute /Ocircumflex /Otilde /Odieresis
/multiply /Oslash /Ugrave /Uacute /Ucircumflex
/Udieresis /Yacute /Thorn /germandbls /agrave
/aacute /acircumflex /atilde /adieresis /aring
/ae /ccedilla /egrave /eacute /ecircumflex
/edieresis /igrave /iacute /icircumflex /idieresis
/eth /ntilde /ograve /oacute /ocircumflex
/otilde /odieresis /divide /oslash /ugrave
/uacute /ucircumflex /udieresis /yacute /thorn
/ydieresis
] def
%%EndResource
%FOPBeginFontReencode
/Courier-Oblique findfont
dup length dict begin
  {1 index /FID ne {def} {pop pop} ifelse} forall
  /Encoding WinAnsiEncoding def
  currentdict
end
/Courier-Oblique exch definefont pop
/Courier-BoldOblique findfont
dup length dict begin
  {1 index /FID ne {def} {pop pop} ifelse} forall
  /Encoding WinAnsiEncoding def
  currentdict
end
/Courier-BoldOblique exch definefont pop
/Courier-Bold findfont
dup length dict begin
  {1 index /FID ne {def} {pop pop} ifelse} forall
  /Encoding WinAnsiEncoding def
  currentdict
end
/Courier-Bold exch definefont pop
/Helvetica findfont
dup length dict begin
  {1 index /FID ne {def} {pop pop} ifelse} forall
  /Encoding WinAnsiEncoding def
  currentdict
end
/Helvetica exch definefont pop
/Helvetica-Oblique findfont
dup length dict begin
  {1 index /FID ne {def} {pop pop} ifelse} forall
  /Encoding WinAnsiEncoding def
  currentdict
end
/Helvetica-Oblique exch definefont pop
/Helvetica-Bold findfont
dup length dict begin
  {1 index /FID ne {def} {pop pop} ifelse} forall
  /Encoding WinAnsiEncoding def
  currentdict
end
/Helvetica-Bold exch definefont pop
/Helvetica-BoldOblique findfont
dup length dict begin
  {1 index /FID ne {def} {pop pop} ifelse} forall
  /Encoding WinAnsiEncoding def
  currentdict
end
/Helvetica-BoldOblique exch definefont pop
/Times-Roman findfont
dup length dict begin
  {1 index /FID ne {def} {pop pop} ifelse} forall
  /Encoding WinAnsiEncoding def
  currentdict
end
/Times-Roman exch definefont pop
/Times-Italic findfont
dup length dict begin
  {1 index /FID ne {def} {pop pop} ifelse} forall
  /Encoding WinAnsiEncoding def
  currentdict
end
/Times-Italic exch definefont pop
/Times-Bold findfont
dup length dict begin
  {1 index /FID ne {def} {pop pop} ifelse} forall
  /Encoding WinAnsiEncoding def
  currentdict
end
/Times-Bold exch definefont pop
/Times-BoldItalic findfont
dup length dict begin
  {1 index /FID ne {def} {pop pop} ifelse} forall
  /Encoding WinAnsiEncoding def
  currentdict
end
/Times-BoldItalic exch definefont pop
/Courier findfont
dup length dict begin
  {1 index /FID ne {def} {pop pop} ifelse} forall
  /Encoding WinAnsiEncoding def
  currentdict
end
/Courier exch definefont pop
%FOPEndFontReencode
%%EndProlog
%%Page: 1 1
%%PageBoundingBox: 0 0 420 315
%%BeginPageSetup
[1 0 0 -1 0 315] CT
%%EndPageSetup
GS
[0.6 0 0 0.6 0 0] CT
1 GC
N
0 0 700 525 re
f
GR
GS
[0.6 0 0 0.6 0 0] CT
1 GC
N
0 0 700 525 re
f
GR
GS
[0.6 0 0 0.6 0 0] CT
1 GC
N
106 467 M
634 467 L
634 64 L
106 64 L
cp
f
GR
GS
[0.6 0 0 0.6 0 0] CT
0.849 GC
[1 3] 0 setdash
2 LJ
0.833 LW
N
106 467 M
106 64 L
S
GR
GS
[0.6 0 0 0.6 0 0] CT
0.849 GC
[1 3] 0 setdash
2 LJ
0.833 LW
N
125.868 467 M
125.868 64 L
S
GR
GS
[0.6 0 0 0.6 0 0] CT
0.849 GC
[1 3] 0 setdash
2 LJ
0.833 LW
N
137.49 467 M
137.49 64 L
S
GR
GS
[0.6 0 0 0.6 0 0] CT
0.849 GC
[1 3] 0 setdash
2 LJ
0.833 LW
N
145.736 467 M
145.736 64 L
S
GR
GS
[0.6 0 0 0.6 0 0] CT
0.849 GC
[1 3] 0 setdash
2 LJ
0.833 LW
N
152.132 467 M
152.132 64 L
S
GR
GS
[0.6 0 0 0.6 0 0] CT
0.849 GC
[1 3] 0 setdash
2 LJ
0.833 LW
N
157.358 467 M
157.358 64 L
S
GR
GS
[0.6 0 0 0.6 0 0] CT
0.849 GC
[1 3] 0 setdash
2 LJ
0.833 LW
N
161.776 467 M
161.776 64 L
S
GR
GS
[0.6 0 0 0.6 0 0] CT
0.849 GC
[1 3] 0 setdash
2 LJ
0.833 LW
N
165.604 467 M
165.604 64 L
S
GR
GS
[0.6 0 0 0.6 0 0] CT
0.849 GC
[1 3] 0 setdash
2 LJ
0.833 LW
N
168.98 467 M
168.98 64 L
S
GR
GS
[0.6 0 0 0.6 0 0] CT
0.849 GC
[1 3] 0 setdash
2 LJ
0.833 LW
N
191.868 467 M
191.868 64 L
S
GR
GS
[0.6 0 0 0.6 0 0] CT
0.849 GC
[1 3] 0 setdash
2 LJ
0.833 LW
N
203.49 467 M
203.49 64 L
S
GR
GS
[0.6 0 0 0.6 0 0] CT
0.849 GC
[1 3] 0 setdash
2 LJ
0.833 LW
N
211.736 467 M
211.736 64 L
S
GR
GS
[0.6 0 0 0.6 0 0] CT
0.849 GC
[1 3] 0 setdash
2 LJ
0.833 LW
N
218.132 467 M
218.132 64 L
S
GR
GS
[0.6 0 0 0.6 0 0] CT
0.849 GC
[1 3] 0 setdash
2 LJ
0.833 LW
N
223.358 467 M
223.358 64 L
S
GR
GS
[0.6 0 0 0.6 0 0] CT
0.849 GC
[1 3] 0 setdash
2 LJ
0.833 LW
N
227.776 467 M
227.776 64 L
S
GR
GS
[0.6 0 0 0.6 0 0] CT
0.849 GC
[1 3] 0 setdash
2 LJ
0.833 LW
N
231.604 467 M
231.604 64 L
S
GR
GS
[0.6 0 0 0.6 0 0] CT
0.849 GC
[1 3] 0 setdash
2 LJ
0.833 LW
N
234.98 467 M
234.98 64 L
S
GR
GS
[0.6 0 0 0.6 0 0] CT
0.849 GC
[1 3] 0 setdash
2 LJ
0.833 LW
N
238 467 M
238 64 L
S
GR
GS
[0.6 0 0 0.6 0 0] CT
0.849 GC
[1 3] 0 setdash
2 LJ
0.833 LW
N
257.868 467 M
257.868 64 L
S
GR
GS
[0.6 0 0 0.6 0 0] CT
0.849 GC
[1 3] 0 setdash
2 LJ
0.833 LW
N
269.49 467 M
269.49 64 L
S
GR
GS
[0.6 0 0 0.6 0 0] CT
0.849 GC
[1 3] 0 setdash
2 LJ
0.833 LW
N
277.736 467 M
277.736 64 L
S
GR
GS
[0.6 0 0 0.6 0 0] CT
0.849 GC
[1 3] 0 setdash
2 LJ
0.833 LW
N
284.132 467 M
284.132 64 L
S
GR
GS
[0.6 0 0 0.6 0 0] CT
0.849 GC
[1 3] 0 setdash
2 LJ
0.833 LW
N
289.358 467 M
289.358 64 L
S
GR
GS
[0.6 0 0 0.6 0 0] CT
0.849 GC
[1 3] 0 setdash
2 LJ
0.833 LW
N
293.776 467 M
293.776 64 L
S
GR
GS
[0.6 0 0 0.6 0 0] CT
0.849 GC
[1 3] 0 setdash
2 LJ
0.833 LW
N
297.604 467 M
297.604 64 L
S
GR
GS
[0.6 0 0 0.6 0 0] CT
0.849 GC
[1 3] 0 setdash
2 LJ
0.833 LW
N
300.98 467 M
300.98 64 L
S
GR
GS
[0.6 0 0 0.6 0 0] CT
0.849 GC
[1 3] 0 setdash
2 LJ
0.833 LW
N
304 467 M
304 64 L
S
GR
GS
[0.6 0 0 0.6 0 0] CT
0.849 GC
[1 3] 0 setdash
2 LJ
0.833 LW
N
323.868 467 M
323.868 64 L
S
GR
GS
[0.6 0 0 0.6 0 0] CT
0.849 GC
[1 3] 0 setdash
2 LJ
0.833 LW
N
335.49 467 M
335.49 64 L
S
GR
GS
[0.6 0 0 0.6 0 0] CT
0.849 GC
[1 3] 0 setdash
2 LJ
0.833 LW
N
343.736 467 M
343.736 64 L
S
GR
GS
[0.6 0 0 0.6 0 0] CT
0.849 GC
[1 3] 0 setdash
2 LJ
0.833 LW
N
350.132 467 M
350.132 64 L
S
GR
GS
[0.6 0 0 0.6 0 0] CT
0.849 GC
[1 3] 0 setdash
2 LJ
0.833 LW
N
355.358 467 M
355.358 64 L
S
GR
GS
[0.6 0 0 0.6 0 0] CT
0.849 GC
[1 3] 0 setdash
2 LJ
0.833 LW
N
359.776 467 M
359.776 64 L
S
GR
GS
[0.6 0 0 0.6 0 0] CT
0.849 GC
[1 3] 0 setdash
2 LJ
0.833 LW
N
363.604 467 M
363.604 64 L
S
GR
GS
[0.6 0 0 0.6 0 0] CT
0.849 GC
[1 3] 0 setdash
2 LJ
0.833 LW
N
366.98 467 M
366.98 64 L
S
GR
GS
[0.6 0 0 0.6 0 0] CT
0.849 GC
[1 3] 0 setdash
2 LJ
0.833 LW
N
370 467 M
370 64 L
S
GR
GS
[0.6 0 0 0.6 0 0] CT
0.849 GC
[1 3] 0 setdash
2 LJ
0.833 LW
N
389.868 467 M
389.868 64 L
S
GR
GS
[0.6 0 0 0.6 0 0] CT
0.849 GC
[1 3] 0 setdash
2 LJ
0.833 LW
N
401.49 467 M
401.49 64 L
S
GR
GS
[0.6 0 0 0.6 0 0] CT
0.849 GC
[1 3] 0 setdash
2 LJ
0.833 LW
N
409.736 467 M
409.736 64 L
S
GR
GS
[0.6 0 0 0.6 0 0] CT
0.849 GC
[1 3] 0 setdash
2 LJ
0.833 LW
N
416.132 467 M
416.132 64 L
S
GR
GS
[0.6 0 0 0.6 0 0] CT
0.849 GC
[1 3] 0 setdash
2 LJ
0.833 LW
N
421.358 467 M
421.358 64 L
S
GR
GS
[0.6 0 0 0.6 0 0] CT
0.849 GC
[1 3] 0 setdash
2 LJ
0.833 LW
N
425.776 467 M
425.776 64 L
S
GR
GS
[0.6 0 0 0.6 0 0] CT
0.849 GC
[1 3] 0 setdash
2 LJ
0.833 LW
N
429.604 467 M
429.604 64 L
S
GR
GS
[0.6 0 0 0.6 0 0] CT
0.849 GC
[1 3] 0 setdash
2 LJ
0.833 LW
N
432.98 467 M
432.98 64 L
S
GR
GS
[0.6 0 0 0.6 0 0] CT
0.849 GC
[1 3] 0 setdash
2 LJ
0.833 LW
N
455.868 467 M
455.868 64 L
S
GR
GS
[0.6 0 0 0.6 0 0] CT
0.849 GC
[1 3] 0 setdash
2 LJ
0.833 LW
N
467.49 467 M
467.49 64 L
S
GR
GS
[0.6 0 0 0.6 0 0] CT
0.849 GC
[1 3] 0 setdash
2 LJ
0.833 LW
N
475.736 467 M
475.736 64 L
S
GR
GS
[0.6 0 0 0.6 0 0] CT
0.849 GC
[1 3] 0 setdash
2 LJ
0.833 LW
N
482.132 467 M
482.132 64 L
S
GR
GS
[0.6 0 0 0.6 0 0] CT
0.849 GC
[1 3] 0 setdash
2 LJ
0.833 LW
N
487.358 467 M
487.358 64 L
S
GR
GS
[0.6 0 0 0.6 0 0] CT
0.849 GC
[1 3] 0 setdash
2 LJ
0.833 LW
N
491.776 467 M
491.776 64 L
S
GR
GS
[0.6 0 0 0.6 0 0] CT
0.849 GC
[1 3] 0 setdash
2 LJ
0.833 LW
N
495.604 467 M
495.604 64 L
S
GR
GS
[0.6 0 0 0.6 0 0] CT
0.849 GC
[1 3] 0 setdash
2 LJ
0.833 LW
N
498.98 467 M
498.98 64 L
S
GR
GS
[0.6 0 0 0.6 0 0] CT
0.849 GC
[1 3] 0 setdash
2 LJ
0.833 LW
N
502 467 M
502 64 L
S
GR
GS
[0.6 0 0 0.6 0 0] CT
0.849 GC
[1 3] 0 setdash
2 LJ
0.833 LW
N
521.868 467 M
521.868 64 L
S
GR
GS
[0.6 0 0 0.6 0 0] CT
0.849 GC
[1 3] 0 setdash
2 LJ
0.833 LW
N
533.49 467 M
533.49 64 L
S
GR
GS
[0.6 0 0 0.6 0 0] CT
0.849 GC
[1 3] 0 setdash
2 LJ
0.833 LW
N
541.736 467 M
541.736 64 L
S
GR
GS
[0.6 0 0 0.6 0 0] CT
0.849 GC
[1 3] 0 setdash
2 LJ
0.833 LW
N
548.132 467 M
548.132 64 L
S
GR
GS
[0.6 0 0 0.6 0 0] CT
0.849 GC
[1 3] 0 setdash
2 LJ
0.833 LW
N
553.358 467 M
553.358 64 L
S
GR
GS
[0.6 0 0 0.6 0 0] CT
0.849 GC
[1 3] 0 setdash
2 LJ
0.833 LW
N
557.776 467 M
557.776 64 L
S
GR
GS
[0.6 0 0 0.6 0 0] CT
0.849 GC
[1 3] 0 setdash
2 LJ
0.833 LW
N
561.604 467 M
561.604 64 L
S
GR
GS
[0.6 0 0 0.6 0 0] CT
0.849 GC
[1 3] 0 setdash
2 LJ
0.833 LW
N
564.98 467 M
564.98 64 L
S
GR
GS
[0.6 0 0 0.6 0 0] CT
0.849 GC
[1 3] 0 setdash
2 LJ
0.833 LW
N
587.868 467 M
587.868 64 L
S
GR
GS
[0.6 0 0 0.6 0 0] CT
0.849 GC
[1 3] 0 setdash
2 LJ
0.833 LW
N
599.49 467 M
599.49 64 L
S
GR
GS
[0.6 0 0 0.6 0 0] CT
0.849 GC
[1 3] 0 setdash
2 LJ
0.833 LW
N
607.736 467 M
607.736 64 L
S
GR
GS
[0.6 0 0 0.6 0 0] CT
0.849 GC
[1 3] 0 setdash
2 LJ
0.833 LW
N
614.132 467 M
614.132 64 L
S
GR
GS
[0.6 0 0 0.6 0 0] CT
0.849 GC
[1 3] 0 setdash
2 LJ
0.833 LW
N
619.358 467 M
619.358 64 L
S
GR
GS
[0.6 0 0 0.6 0 0] CT
0.849 GC
[1 3] 0 setdash
2 LJ
0.833 LW
N
623.776 467 M
623.776 64 L
S
GR
GS
[0.6 0 0 0.6 0 0] CT
0.849 GC
[1 3] 0 setdash
2 LJ
0.833 LW
N
627.604 467 M
627.604 64 L
S
GR
GS
[0.6 0 0 0.6 0 0] CT
0.849 GC
[1 3] 0 setdash
2 LJ
0.833 LW
N
630.98 467 M
630.98 64 L
S
GR
GS
[0.6 0 0 0.6 0 0] CT
0.849 GC
[1 3] 0 setdash
2 LJ
0.833 LW
N
634 467 M
634 64 L
S
GR
GS
[0.6 0 0 0.6 0 0] CT
0.873 GC
1 LJ
0.833 LW
N
172 467 M
172 64 L
S
GR
GS
[0.6 0 0 0.6 0 0] CT
0.873 GC
1 LJ
0.833 LW
N
304 467 M
304 64 L
S
GR
GS
[0.6 0 0 0.6 0 0] CT
0.873 GC
1 LJ
0.833 LW
N
436 467 M
436 64 L
S
GR
GS
[0.6 0 0 0.6 0 0] CT
0.873 GC
1 LJ
0.833 LW
N
568 467 M
568 64 L
S
GR
GS
[0.6 0 0 0.6 0 0] CT
0.873 GC
1 LJ
0.833 LW
N
634 467 M
106 467 L
S
GR
GS
[0.6 0 0 0.6 0 0] CT
0.873 GC
1 LJ
0.833 LW
N
634 426.7 M
106 426.7 L
S
GR
GS
[0.6 0 0 0.6 0 0] CT
0.873 GC
1 LJ
0.833 LW
N
634 386.4 M
106 386.4 L
S
GR
GS
[0.6 0 0 0.6 0 0] CT
0.873 GC
1 LJ
0.833 LW
N
634 346.1 M
106 346.1 L
S
GR
GS
[0.6 0 0 0.6 0 0] CT
0.873 GC
1 LJ
0.833 LW
N
634 305.8 M
106 305.8 L
S
GR
GS
[0.6 0 0 0.6 0 0] CT
0.873 GC
1 LJ
0.833 LW
N
634 265.5 M
106 265.5 L
S
GR
GS
[0.6 0 0 0.6 0 0] CT
0.873 GC
1 LJ
0.833 LW
N
634 225.2 M
106 225.2 L
S
GR
GS
[0.6 0 0 0.6 0 0] CT
0.873 GC
1 LJ
0.833 LW
N
634 184.9 M
106 184.9 L
S
GR
GS
[0.6 0 0 0.6 0 0] CT
0.873 GC
1 LJ
0.833 LW
N
634 144.6 M
106 144.6 L
S
GR
GS
[0.6 0 0 0.6 0 0] CT
0.873 GC
1 LJ
0.833 LW
N
634 104.3 M
106 104.3 L
S
GR
GS
[0.6 0 0 0.6 0 0] CT
0.873 GC
1 LJ
0.833 LW
N
634 64 M
106 64 L
S
GR
GS
[0.6 0 0 0.6 0 0] CT
0.4 GC
2 setlinecap
1 LJ
0.833 LW
N
106 467 M
634 467 L
S
GR
GS
[0.6 0 0 0.6 0 0] CT
0.4 GC
2 setlinecap
1 LJ
0.833 LW
N
106 64 M
634 64 L
S
GR
GS
[0.6 0 0 0.6 0 0] CT
0.4 GC
2 setlinecap
1 LJ
0.833 LW
N
172 467 M
172 461.72 L
S
GR
GS
[0.6 0 0 0.6 0 0] CT
0.4 GC
2 setlinecap
1 LJ
0.833 LW
N
304 467 M
304 461.72 L
S
GR
GS
[0.6 0 0 0.6 0 0] CT
0.4 GC
2 setlinecap
1 LJ
0.833 LW
N
436 467 M
436 461.72 L
S
GR
GS
[0.6 0 0 0.6 0 0] CT
0.4 GC
2 setlinecap
1 LJ
0.833 LW
N
568 467 M
568 461.72 L
S
GR
GS
[0.6 0 0 0.6 0 0] CT
0.4 GC
2 setlinecap
1 LJ
0.833 LW
N
172 64 M
172 69.28 L
S
GR
GS
[0.6 0 0 0.6 0 0] CT
0.4 GC
2 setlinecap
1 LJ
0.833 LW
N
304 64 M
304 69.28 L
S
GR
GS
[0.6 0 0 0.6 0 0] CT
0.4 GC
2 setlinecap
1 LJ
0.833 LW
N
436 64 M
436 69.28 L
S
GR
GS
[0.6 0 0 0.6 0 0] CT
0.4 GC
2 setlinecap
1 LJ
0.833 LW
N
568 64 M
568 69.28 L
S
GR
GS
[0.6 0 0 0.6 0 0] CT
0.4 GC
2 setlinecap
1 LJ
0.833 LW
N
106 467 M
106 464.36 L
S
GR
GS
[0.6 0 0 0.6 0 0] CT
0.4 GC
2 setlinecap
1 LJ
0.833 LW
N
125.868 467 M
125.868 464.36 L
S
GR
GS
[0.6 0 0 0.6 0 0] CT
0.4 GC
2 setlinecap
1 LJ
0.833 LW
N
137.49 467 M
137.49 464.36 L
S
GR
GS
[0.6 0 0 0.6 0 0] CT
0.4 GC
2 setlinecap
1 LJ
0.833 LW
N
145.736 467 M
145.736 464.36 L
S
GR
GS
[0.6 0 0 0.6 0 0] CT
0.4 GC
2 setlinecap
1 LJ
0.833 LW
N
152.132 467 M
152.132 464.36 L
S
GR
GS
[0.6 0 0 0.6 0 0] CT
0.4 GC
2 setlinecap
1 LJ
0.833 LW
N
157.358 467 M
157.358 464.36 L
S
GR
GS
[0.6 0 0 0.6 0 0] CT
0.4 GC
2 setlinecap
1 LJ
0.833 LW
N
161.776 467 M
161.776 464.36 L
S
GR
GS
[0.6 0 0 0.6 0 0] CT
0.4 GC
2 setlinecap
1 LJ
0.833 LW
N
165.604 467 M
165.604 464.36 L
S
GR
GS
[0.6 0 0 0.6 0 0] CT
0.4 GC
2 setlinecap
1 LJ
0.833 LW
N
168.98 467 M
168.98 464.36 L
S
GR
GS
[0.6 0 0 0.6 0 0] CT
0.4 GC
2 setlinecap
1 LJ
0.833 LW
N
172 467 M
172 464.36 L
S
GR
GS
[0.6 0 0 0.6 0 0] CT
0.4 GC
2 setlinecap
1 LJ
0.833 LW
N
191.868 467 M
191.868 464.36 L
S
GR
GS
[0.6 0 0 0.6 0 0] CT
0.4 GC
2 setlinecap
1 LJ
0.833 LW
N
203.49 467 M
203.49 464.36 L
S
GR
GS
[0.6 0 0 0.6 0 0] CT
0.4 GC
2 setlinecap
1 LJ
0.833 LW
N
211.736 467 M
211.736 464.36 L
S
GR
GS
[0.6 0 0 0.6 0 0] CT
0.4 GC
2 setlinecap
1 LJ
0.833 LW
N
218.132 467 M
218.132 464.36 L
S
GR
GS
[0.6 0 0 0.6 0 0] CT
0.4 GC
2 setlinecap
1 LJ
0.833 LW
N
223.358 467 M
223.358 464.36 L
S
GR
GS
[0.6 0 0 0.6 0 0] CT
0.4 GC
2 setlinecap
1 LJ
0.833 LW
N
227.776 467 M
227.776 464.36 L
S
GR
GS
[0.6 0 0 0.6 0 0] CT
0.4 GC
2 setlinecap
1 LJ
0.833 LW
N
231.604 467 M
231.604 464.36 L
S
GR
GS
[0.6 0 0 0.6 0 0] CT
0.4 GC
2 setlinecap
1 LJ
0.833 LW
N
234.98 467 M
234.98 464.36 L
S
GR
GS
[0.6 0 0 0.6 0 0] CT
0.4 GC
2 setlinecap
1 LJ
0.833 LW
N
238 467 M
238 464.36 L
S
GR
GS
[0.6 0 0 0.6 0 0] CT
0.4 GC
2 setlinecap
1 LJ
0.833 LW
N
257.868 467 M
257.868 464.36 L
S
GR
GS
[0.6 0 0 0.6 0 0] CT
0.4 GC
2 setlinecap
1 LJ
0.833 LW
N
269.49 467 M
269.49 464.36 L
S
GR
GS
[0.6 0 0 0.6 0 0] CT
0.4 GC
2 setlinecap
1 LJ
0.833 LW
N
277.736 467 M
277.736 464.36 L
S
GR
GS
[0.6 0 0 0.6 0 0] CT
0.4 GC
2 setlinecap
1 LJ
0.833 LW
N
284.132 467 M
284.132 464.36 L
S
GR
GS
[0.6 0 0 0.6 0 0] CT
0.4 GC
2 setlinecap
1 LJ
0.833 LW
N
289.358 467 M
289.358 464.36 L
S
GR
GS
[0.6 0 0 0.6 0 0] CT
0.4 GC
2 setlinecap
1 LJ
0.833 LW
N
293.776 467 M
293.776 464.36 L
S
GR
GS
[0.6 0 0 0.6 0 0] CT
0.4 GC
2 setlinecap
1 LJ
0.833 LW
N
297.604 467 M
297.604 464.36 L
S
GR
GS
[0.6 0 0 0.6 0 0] CT
0.4 GC
2 setlinecap
1 LJ
0.833 LW
N
300.98 467 M
300.98 464.36 L
S
GR
GS
[0.6 0 0 0.6 0 0] CT
0.4 GC
2 setlinecap
1 LJ
0.833 LW
N
304 467 M
304 464.36 L
S
GR
GS
[0.6 0 0 0.6 0 0] CT
0.4 GC
2 setlinecap
1 LJ
0.833 LW
N
304 467 M
304 464.36 L
S
GR
GS
[0.6 0 0 0.6 0 0] CT
0.4 GC
2 setlinecap
1 LJ
0.833 LW
N
323.868 467 M
323.868 464.36 L
S
GR
GS
[0.6 0 0 0.6 0 0] CT
0.4 GC
2 setlinecap
1 LJ
0.833 LW
N
335.49 467 M
335.49 464.36 L
S
GR
GS
[0.6 0 0 0.6 0 0] CT
0.4 GC
2 setlinecap
1 LJ
0.833 LW
N
343.736 467 M
343.736 464.36 L
S
GR
GS
[0.6 0 0 0.6 0 0] CT
0.4 GC
2 setlinecap
1 LJ
0.833 LW
N
350.132 467 M
350.132 464.36 L
S
GR
GS
[0.6 0 0 0.6 0 0] CT
0.4 GC
2 setlinecap
1 LJ
0.833 LW
N
355.358 467 M
355.358 464.36 L
S
GR
GS
[0.6 0 0 0.6 0 0] CT
0.4 GC
2 setlinecap
1 LJ
0.833 LW
N
359.776 467 M
359.776 464.36 L
S
GR
GS
[0.6 0 0 0.6 0 0] CT
0.4 GC
2 setlinecap
1 LJ
0.833 LW
N
363.604 467 M
363.604 464.36 L
S
GR
GS
[0.6 0 0 0.6 0 0] CT
0.4 GC
2 setlinecap
1 LJ
0.833 LW
N
366.98 467 M
366.98 464.36 L
S
GR
GS
[0.6 0 0 0.6 0 0] CT
0.4 GC
2 setlinecap
1 LJ
0.833 LW
N
370 467 M
370 464.36 L
S
GR
GS
[0.6 0 0 0.6 0 0] CT
0.4 GC
2 setlinecap
1 LJ
0.833 LW
N
389.868 467 M
389.868 464.36 L
S
GR
GS
[0.6 0 0 0.6 0 0] CT
0.4 GC
2 setlinecap
1 LJ
0.833 LW
N
401.49 467 M
401.49 464.36 L
S
GR
GS
[0.6 0 0 0.6 0 0] CT
0.4 GC
2 setlinecap
1 LJ
0.833 LW
N
409.736 467 M
409.736 464.36 L
S
GR
GS
[0.6 0 0 0.6 0 0] CT
0.4 GC
2 setlinecap
1 LJ
0.833 LW
N
416.132 467 M
416.132 464.36 L
S
GR
GS
[0.6 0 0 0.6 0 0] CT
0.4 GC
2 setlinecap
1 LJ
0.833 LW
N
421.358 467 M
421.358 464.36 L
S
GR
GS
[0.6 0 0 0.6 0 0] CT
0.4 GC
2 setlinecap
1 LJ
0.833 LW
N
425.776 467 M
425.776 464.36 L
S
GR
GS
[0.6 0 0 0.6 0 0] CT
0.4 GC
2 setlinecap
1 LJ
0.833 LW
N
429.604 467 M
429.604 464.36 L
S
GR
GS
[0.6 0 0 0.6 0 0] CT
0.4 GC
2 setlinecap
1 LJ
0.833 LW
N
432.98 467 M
432.98 464.36 L
S
GR
GS
[0.6 0 0 0.6 0 0] CT
0.4 GC
2 setlinecap
1 LJ
0.833 LW
N
436 467 M
436 464.36 L
S
GR
GS
[0.6 0 0 0.6 0 0] CT
0.4 GC
2 setlinecap
1 LJ
0.833 LW
N
455.868 467 M
455.868 464.36 L
S
GR
GS
[0.6 0 0 0.6 0 0] CT
0.4 GC
2 setlinecap
1 LJ
0.833 LW
N
467.49 467 M
467.49 464.36 L
S
GR
GS
[0.6 0 0 0.6 0 0] CT
0.4 GC
2 setlinecap
1 LJ
0.833 LW
N
475.736 467 M
475.736 464.36 L
S
GR
GS
[0.6 0 0 0.6 0 0] CT
0.4 GC
2 setlinecap
1 LJ
0.833 LW
N
482.132 467 M
482.132 464.36 L
S
GR
GS
[0.6 0 0 0.6 0 0] CT
0.4 GC
2 setlinecap
1 LJ
0.833 LW
N
487.358 467 M
487.358 464.36 L
S
GR
GS
[0.6 0 0 0.6 0 0] CT
0.4 GC
2 setlinecap
1 LJ
0.833 LW
N
491.776 467 M
491.776 464.36 L
S
GR
GS
[0.6 0 0 0.6 0 0] CT
0.4 GC
2 setlinecap
1 LJ
0.833 LW
N
495.604 467 M
495.604 464.36 L
S
GR
GS
[0.6 0 0 0.6 0 0] CT
0.4 GC
2 setlinecap
1 LJ
0.833 LW
N
498.98 467 M
498.98 464.36 L
S
GR
GS
[0.6 0 0 0.6 0 0] CT
0.4 GC
2 setlinecap
1 LJ
0.833 LW
N
502 467 M
502 464.36 L
S
GR
GS
[0.6 0 0 0.6 0 0] CT
0.4 GC
2 setlinecap
1 LJ
0.833 LW
N
521.868 467 M
521.868 464.36 L
S
GR
GS
[0.6 0 0 0.6 0 0] CT
0.4 GC
2 setlinecap
1 LJ
0.833 LW
N
533.49 467 M
533.49 464.36 L
S
GR
GS
[0.6 0 0 0.6 0 0] CT
0.4 GC
2 setlinecap
1 LJ
0.833 LW
N
541.736 467 M
541.736 464.36 L
S
GR
GS
[0.6 0 0 0.6 0 0] CT
0.4 GC
2 setlinecap
1 LJ
0.833 LW
N
548.132 467 M
548.132 464.36 L
S
GR
GS
[0.6 0 0 0.6 0 0] CT
0.4 GC
2 setlinecap
1 LJ
0.833 LW
N
553.358 467 M
553.358 464.36 L
S
GR
GS
[0.6 0 0 0.6 0 0] CT
0.4 GC
2 setlinecap
1 LJ
0.833 LW
N
557.776 467 M
557.776 464.36 L
S
GR
GS
[0.6 0 0 0.6 0 0] CT
0.4 GC
2 setlinecap
1 LJ
0.833 LW
N
561.604 467 M
561.604 464.36 L
S
GR
GS
[0.6 0 0 0.6 0 0] CT
0.4 GC
2 setlinecap
1 LJ
0.833 LW
N
564.98 467 M
564.98 464.36 L
S
GR
GS
[0.6 0 0 0.6 0 0] CT
0.4 GC
2 setlinecap
1 LJ
0.833 LW
N
568 467 M
568 464.36 L
S
GR
GS
[0.6 0 0 0.6 0 0] CT
0.4 GC
2 setlinecap
1 LJ
0.833 LW
N
587.868 467 M
587.868 464.36 L
S
GR
GS
[0.6 0 0 0.6 0 0] CT
0.4 GC
2 setlinecap
1 LJ
0.833 LW
N
599.49 467 M
599.49 464.36 L
S
GR
GS
[0.6 0 0 0.6 0 0] CT
0.4 GC
2 setlinecap
1 LJ
0.833 LW
N
607.736 467 M
607.736 464.36 L
S
GR
GS
[0.6 0 0 0.6 0 0] CT
0.4 GC
2 setlinecap
1 LJ
0.833 LW
N
614.132 467 M
614.132 464.36 L
S
GR
GS
[0.6 0 0 0.6 0 0] CT
0.4 GC
2 setlinecap
1 LJ
0.833 LW
N
619.358 467 M
619.358 464.36 L
S
GR
GS
[0.6 0 0 0.6 0 0] CT
0.4 GC
2 setlinecap
1 LJ
0.833 LW
N
623.776 467 M
623.776 464.36 L
S
GR
GS
[0.6 0 0 0.6 0 0] CT
0.4 GC
2 setlinecap
1 LJ
0.833 LW
N
627.604 467 M
627.604 464.36 L
S
GR
GS
[0.6 0 0 0.6 0 0] CT
0.4 GC
2 setlinecap
1 LJ
0.833 LW
N
630.98 467 M
630.98 464.36 L
S
GR
GS
[0.6 0 0 0.6 0 0] CT
0.4 GC
2 setlinecap
1 LJ
0.833 LW
N
634 467 M
634 464.36 L
S
GR
GS
[0.6 0 0 0.6 0 0] CT
0.4 GC
2 setlinecap
1 LJ
0.833 LW
N
106 64 M
106 66.64 L
S
GR
GS
[0.6 0 0 0.6 0 0] CT
0.4 GC
2 setlinecap
1 LJ
0.833 LW
N
125.868 64 M
125.868 66.64 L
S
GR
GS
[0.6 0 0 0.6 0 0] CT
0.4 GC
2 setlinecap
1 LJ
0.833 LW
N
137.49 64 M
137.49 66.64 L
S
GR
GS
[0.6 0 0 0.6 0 0] CT
0.4 GC
2 setlinecap
1 LJ
0.833 LW
N
145.736 64 M
145.736 66.64 L
S
GR
GS
[0.6 0 0 0.6 0 0] CT
0.4 GC
2 setlinecap
1 LJ
0.833 LW
N
152.132 64 M
152.132 66.64 L
S
GR
GS
[0.6 0 0 0.6 0 0] CT
0.4 GC
2 setlinecap
1 LJ
0.833 LW
N
157.358 64 M
157.358 66.64 L
S
GR
GS
[0.6 0 0 0.6 0 0] CT
0.4 GC
2 setlinecap
1 LJ
0.833 LW
N
161.776 64 M
161.776 66.64 L
S
GR
GS
[0.6 0 0 0.6 0 0] CT
0.4 GC
2 setlinecap
1 LJ
0.833 LW
N
165.604 64 M
165.604 66.64 L
S
GR
GS
[0.6 0 0 0.6 0 0] CT
0.4 GC
2 setlinecap
1 LJ
0.833 LW
N
168.98 64 M
168.98 66.64 L
S
GR
GS
[0.6 0 0 0.6 0 0] CT
0.4 GC
2 setlinecap
1 LJ
0.833 LW
N
172 64 M
172 66.64 L
S
GR
GS
[0.6 0 0 0.6 0 0] CT
0.4 GC
2 setlinecap
1 LJ
0.833 LW
N
191.868 64 M
191.868 66.64 L
S
GR
GS
[0.6 0 0 0.6 0 0] CT
0.4 GC
2 setlinecap
1 LJ
0.833 LW
N
203.49 64 M
203.49 66.64 L
S
GR
GS
[0.6 0 0 0.6 0 0] CT
0.4 GC
2 setlinecap
1 LJ
0.833 LW
N
211.736 64 M
211.736 66.64 L
S
GR
GS
[0.6 0 0 0.6 0 0] CT
0.4 GC
2 setlinecap
1 LJ
0.833 LW
N
218.132 64 M
218.132 66.64 L
S
GR
GS
[0.6 0 0 0.6 0 0] CT
0.4 GC
2 setlinecap
1 LJ
0.833 LW
N
223.358 64 M
223.358 66.64 L
S
GR
GS
[0.6 0 0 0.6 0 0] CT
0.4 GC
2 setlinecap
1 LJ
0.833 LW
N
227.776 64 M
227.776 66.64 L
S
GR
GS
[0.6 0 0 0.6 0 0] CT
0.4 GC
2 setlinecap
1 LJ
0.833 LW
N
231.604 64 M
231.604 66.64 L
S
GR
GS
[0.6 0 0 0.6 0 0] CT
0.4 GC
2 setlinecap
1 LJ
0.833 LW
N
234.98 64 M
234.98 66.64 L
S
GR
GS
[0.6 0 0 0.6 0 0] CT
0.4 GC
2 setlinecap
1 LJ
0.833 LW
N
238 64 M
238 66.64 L
S
GR
GS
[0.6 0 0 0.6 0 0] CT
0.4 GC
2 setlinecap
1 LJ
0.833 LW
N
257.868 64 M
257.868 66.64 L
S
GR
GS
[0.6 0 0 0.6 0 0] CT
0.4 GC
2 setlinecap
1 LJ
0.833 LW
N
269.49 64 M
269.49 66.64 L
S
GR
GS
[0.6 0 0 0.6 0 0] CT
0.4 GC
2 setlinecap
1 LJ
0.833 LW
N
277.736 64 M
277.736 66.64 L
S
GR
GS
[0.6 0 0 0.6 0 0] CT
0.4 GC
2 setlinecap
1 LJ
0.833 LW
N
284.132 64 M
284.132 66.64 L
S
GR
GS
[0.6 0 0 0.6 0 0] CT
0.4 GC
2 setlinecap
1 LJ
0.833 LW
N
289.358 64 M
289.358 66.64 L
S
GR
GS
[0.6 0 0 0.6 0 0] CT
0.4 GC
2 setlinecap
1 LJ
0.833 LW
N
293.776 64 M
293.776 66.64 L
S
GR
GS
[0.6 0 0 0.6 0 0] CT
0.4 GC
2 setlinecap
1 LJ
0.833 LW
N
297.604 64 M
297.604 66.64 L
S
GR
GS
[0.6 0 0 0.6 0 0] CT
0.4 GC
2 setlinecap
1 LJ
0.833 LW
N
300.98 64 M
300.98 66.64 L
S
GR
GS
[0.6 0 0 0.6 0 0] CT
0.4 GC
2 setlinecap
1 LJ
0.833 LW
N
304 64 M
304 66.64 L
S
GR
GS
[0.6 0 0 0.6 0 0] CT
0.4 GC
2 setlinecap
1 LJ
0.833 LW
N
304 64 M
304 66.64 L
S
GR
GS
[0.6 0 0 0.6 0 0] CT
0.4 GC
2 setlinecap
1 LJ
0.833 LW
N
323.868 64 M
323.868 66.64 L
S
GR
GS
[0.6 0 0 0.6 0 0] CT
0.4 GC
2 setlinecap
1 LJ
0.833 LW
N
335.49 64 M
335.49 66.64 L
S
GR
GS
[0.6 0 0 0.6 0 0] CT
0.4 GC
2 setlinecap
1 LJ
0.833 LW
N
343.736 64 M
343.736 66.64 L
S
GR
GS
[0.6 0 0 0.6 0 0] CT
0.4 GC
2 setlinecap
1 LJ
0.833 LW
N
350.132 64 M
350.132 66.64 L
S
GR
GS
[0.6 0 0 0.6 0 0] CT
0.4 GC
2 setlinecap
1 LJ
0.833 LW
N
355.358 64 M
355.358 66.64 L
S
GR
GS
[0.6 0 0 0.6 0 0] CT
0.4 GC
2 setlinecap
1 LJ
0.833 LW
N
359.776 64 M
359.776 66.64 L
S
GR
GS
[0.6 0 0 0.6 0 0] CT
0.4 GC
2 setlinecap
1 LJ
0.833 LW
N
363.604 64 M
363.604 66.64 L
S
GR
GS
[0.6 0 0 0.6 0 0] CT
0.4 GC
2 setlinecap
1 LJ
0.833 LW
N
366.98 64 M
366.98 66.64 L
S
GR
GS
[0.6 0 0 0.6 0 0] CT
0.4 GC
2 setlinecap
1 LJ
0.833 LW
N
370 64 M
370 66.64 L
S
GR
GS
[0.6 0 0 0.6 0 0] CT
0.4 GC
2 setlinecap
1 LJ
0.833 LW
N
389.868 64 M
389.868 66.64 L
S
GR
GS
[0.6 0 0 0.6 0 0] CT
0.4 GC
2 setlinecap
1 LJ
0.833 LW
N
401.49 64 M
401.49 66.64 L
S
GR
GS
[0.6 0 0 0.6 0 0] CT
0.4 GC
2 setlinecap
1 LJ
0.833 LW
N
409.736 64 M
409.736 66.64 L
S
GR
GS
[0.6 0 0 0.6 0 0] CT
0.4 GC
2 setlinecap
1 LJ
0.833 LW
N
416.132 64 M
416.132 66.64 L
S
GR
GS
[0.6 0 0 0.6 0 0] CT
0.4 GC
2 setlinecap
1 LJ
0.833 LW
N
421.358 64 M
421.358 66.64 L
S
GR
GS
[0.6 0 0 0.6 0 0] CT
0.4 GC
2 setlinecap
1 LJ
0.833 LW
N
425.776 64 M
425.776 66.64 L
S
GR
GS
[0.6 0 0 0.6 0 0] CT
0.4 GC
2 setlinecap
1 LJ
0.833 LW
N
429.604 64 M
429.604 66.64 L
S
GR
GS
[0.6 0 0 0.6 0 0] CT
0.4 GC
2 setlinecap
1 LJ
0.833 LW
N
432.98 64 M
432.98 66.64 L
S
GR
GS
[0.6 0 0 0.6 0 0] CT
0.4 GC
2 setlinecap
1 LJ
0.833 LW
N
436 64 M
436 66.64 L
S
GR
GS
[0.6 0 0 0.6 0 0] CT
0.4 GC
2 setlinecap
1 LJ
0.833 LW
N
455.868 64 M
455.868 66.64 L
S
GR
GS
[0.6 0 0 0.6 0 0] CT
0.4 GC
2 setlinecap
1 LJ
0.833 LW
N
467.49 64 M
467.49 66.64 L
S
GR
GS
[0.6 0 0 0.6 0 0] CT
0.4 GC
2 setlinecap
1 LJ
0.833 LW
N
475.736 64 M
475.736 66.64 L
S
GR
GS
[0.6 0 0 0.6 0 0] CT
0.4 GC
2 setlinecap
1 LJ
0.833 LW
N
482.132 64 M
482.132 66.64 L
S
GR
GS
[0.6 0 0 0.6 0 0] CT
0.4 GC
2 setlinecap
1 LJ
0.833 LW
N
487.358 64 M
487.358 66.64 L
S
GR
GS
[0.6 0 0 0.6 0 0] CT
0.4 GC
2 setlinecap
1 LJ
0.833 LW
N
491.776 64 M
491.776 66.64 L
S
GR
GS
[0.6 0 0 0.6 0 0] CT
0.4 GC
2 setlinecap
1 LJ
0.833 LW
N
495.604 64 M
495.604 66.64 L
S
GR
GS
[0.6 0 0 0.6 0 0] CT
0.4 GC
2 setlinecap
1 LJ
0.833 LW
N
498.98 64 M
498.98 66.64 L
S
GR
GS
[0.6 0 0 0.6 0 0] CT
0.4 GC
2 setlinecap
1 LJ
0.833 LW
N
502 64 M
502 66.64 L
S
GR
GS
[0.6 0 0 0.6 0 0] CT
0.4 GC
2 setlinecap
1 LJ
0.833 LW
N
521.868 64 M
521.868 66.64 L
S
GR
GS
[0.6 0 0 0.6 0 0] CT
0.4 GC
2 setlinecap
1 LJ
0.833 LW
N
533.49 64 M
533.49 66.64 L
S
GR
GS
[0.6 0 0 0.6 0 0] CT
0.4 GC
2 setlinecap
1 LJ
0.833 LW
N
541.736 64 M
541.736 66.64 L
S
GR
GS
[0.6 0 0 0.6 0 0] CT
0.4 GC
2 setlinecap
1 LJ
0.833 LW
N
548.132 64 M
548.132 66.64 L
S
GR
GS
[0.6 0 0 0.6 0 0] CT
0.4 GC
2 setlinecap
1 LJ
0.833 LW
N
553.358 64 M
553.358 66.64 L
S
GR
GS
[0.6 0 0 0.6 0 0] CT
0.4 GC
2 setlinecap
1 LJ
0.833 LW
N
557.776 64 M
557.776 66.64 L
S
GR
GS
[0.6 0 0 0.6 0 0] CT
0.4 GC
2 setlinecap
1 LJ
0.833 LW
N
561.604 64 M
561.604 66.64 L
S
GR
GS
[0.6 0 0 0.6 0 0] CT
0.4 GC
2 setlinecap
1 LJ
0.833 LW
N
564.98 64 M
564.98 66.64 L
S
GR
GS
[0.6 0 0 0.6 0 0] CT
0.4 GC
2 setlinecap
1 LJ
0.833 LW
N
568 64 M
568 66.64 L
S
GR
GS
[0.6 0 0 0.6 0 0] CT
0.4 GC
2 setlinecap
1 LJ
0.833 LW
N
587.868 64 M
587.868 66.64 L
S
GR
GS
[0.6 0 0 0.6 0 0] CT
0.4 GC
2 setlinecap
1 LJ
0.833 LW
N
599.49 64 M
599.49 66.64 L
S
GR
GS
[0.6 0 0 0.6 0 0] CT
0.4 GC
2 setlinecap
1 LJ
0.833 LW
N
607.736 64 M
607.736 66.64 L
S
GR
GS
[0.6 0 0 0.6 0 0] CT
0.4 GC
2 setlinecap
1 LJ
0.833 LW
N
614.132 64 M
614.132 66.64 L
S
GR
GS
[0.6 0 0 0.6 0 0] CT
0.4 GC
2 setlinecap
1 LJ
0.833 LW
N
619.358 64 M
619.358 66.64 L
S
GR
GS
[0.6 0 0 0.6 0 0] CT
0.4 GC
2 setlinecap
1 LJ
0.833 LW
N
623.776 64 M
623.776 66.64 L
S
GR
GS
[0.6 0 0 0.6 0 0] CT
0.4 GC
2 setlinecap
1 LJ
0.833 LW
N
627.604 64 M
627.604 66.64 L
S
GR
GS
[0.6 0 0 0.6 0 0] CT
0.4 GC
2 setlinecap
1 LJ
0.833 LW
N
630.98 64 M
630.98 66.64 L
S
GR
GS
[0.6 0 0 0.6 0 0] CT
0.4 GC
2 setlinecap
1 LJ
0.833 LW
N
634 64 M
634 66.64 L
S
GR
GS
[0.6 0 0 0.6 93.6 297.6] CT
0.4 GC
/Helvetica 16.667 F
GS
[1 0 0 1 0 0] CT
0 0 moveto 
1 -1 scale
(10) t 
GR
GR
GS
[0.6 0 0 0.6 105 292.8] CT
0.4 GC
/Helvetica 13.333 F
GS
[1 0 0 1 0 0] CT
0 0 moveto 
1 -1 scale
(-6) t 
GR
GR
GS
[0.6 0 0 0.6 172.8 297.6] CT
0.4 GC
/Helvetica 16.667 F
GS
[1 0 0 1 0 0] CT
0 0 moveto 
1 -1 scale
(10) t 
GR
GR
GS
[0.6 0 0 0.6 184.2 292.8] CT
0.4 GC
/Helvetica 13.333 F
GS
[1 0 0 1 0 0] CT
0 0 moveto 
1 -1 scale
(-4) t 
GR
GR
GS
[0.6 0 0 0.6 252 297.6] CT
0.4 GC
/Helvetica 16.667 F
GS
[1 0 0 1 0 0] CT
0 0 moveto 
1 -1 scale
(10) t 
GR
GR
GS
[0.6 0 0 0.6 263.4 292.8] CT
0.4 GC
/Helvetica 13.333 F
GS
[1 0 0 1 0 0] CT
0 0 moveto 
1 -1 scale
(-2) t 
GR
GR
GS
[0.6 0 0 0.6 332.4 297.6] CT
0.4 GC
/Helvetica 16.667 F
GS
[1 0 0 1 0 0] CT
0 0 moveto 
1 -1 scale
(10) t 
GR
GR
GS
[0.6 0 0 0.6 343.8 292.8] CT
0.4 GC
/Helvetica 13.333 F
GS
[1 0 0 1 0 0] CT
0 0 moveto 
1 -1 scale
(0) t 
GR
GR
GS
[0.6 0 0 0.6 0 0] CT
0.4 GC
2 setlinecap
1 LJ
0.833 LW
N
106 467 M
106 64 L
S
GR
GS
[0.6 0 0 0.6 0 0] CT
0.4 GC
2 setlinecap
1 LJ
0.833 LW
N
634 467 M
634 64 L
S
GR
GS
[0.6 0 0 0.6 0 0] CT
0.4 GC
2 setlinecap
1 LJ
0.833 LW
N
106 467 M
111.28 467 L
S
GR
GS
[0.6 0 0 0.6 0 0] CT
0.4 GC
2 setlinecap
1 LJ
0.833 LW
N
106 426.7 M
111.28 426.7 L
S
GR
GS
[0.6 0 0 0.6 0 0] CT
0.4 GC
2 setlinecap
1 LJ
0.833 LW
N
106 386.4 M
111.28 386.4 L
S
GR
GS
[0.6 0 0 0.6 0 0] CT
0.4 GC
2 setlinecap
1 LJ
0.833 LW
N
106 346.1 M
111.28 346.1 L
S
GR
GS
[0.6 0 0 0.6 0 0] CT
0.4 GC
2 setlinecap
1 LJ
0.833 LW
N
106 305.8 M
111.28 305.8 L
S
GR
GS
[0.6 0 0 0.6 0 0] CT
0.4 GC
2 setlinecap
1 LJ
0.833 LW
N
106 265.5 M
111.28 265.5 L
S
GR
GS
[0.6 0 0 0.6 0 0] CT
0.4 GC
2 setlinecap
1 LJ
0.833 LW
N
106 225.2 M
111.28 225.2 L
S
GR
GS
[0.6 0 0 0.6 0 0] CT
0.4 GC
2 setlinecap
1 LJ
0.833 LW
N
106 184.9 M
111.28 184.9 L
S
GR
GS
[0.6 0 0 0.6 0 0] CT
0.4 GC
2 setlinecap
1 LJ
0.833 LW
N
106 144.6 M
111.28 144.6 L
S
GR
GS
[0.6 0 0 0.6 0 0] CT
0.4 GC
2 setlinecap
1 LJ
0.833 LW
N
106 104.3 M
111.28 104.3 L
S
GR
GS
[0.6 0 0 0.6 0 0] CT
0.4 GC
2 setlinecap
1 LJ
0.833 LW
N
106 64 M
111.28 64 L
S
GR
GS
[0.6 0 0 0.6 0 0] CT
0.4 GC
2 setlinecap
1 LJ
0.833 LW
N
634 467 M
628.72 467 L
S
GR
GS
[0.6 0 0 0.6 0 0] CT
0.4 GC
2 setlinecap
1 LJ
0.833 LW
N
634 426.7 M
628.72 426.7 L
S
GR
GS
[0.6 0 0 0.6 0 0] CT
0.4 GC
2 setlinecap
1 LJ
0.833 LW
N
634 386.4 M
628.72 386.4 L
S
GR
GS
[0.6 0 0 0.6 0 0] CT
0.4 GC
2 setlinecap
1 LJ
0.833 LW
N
634 346.1 M
628.72 346.1 L
S
GR
GS
[0.6 0 0 0.6 0 0] CT
0.4 GC
2 setlinecap
1 LJ
0.833 LW
N
634 305.8 M
628.72 305.8 L
S
GR
GS
[0.6 0 0 0.6 0 0] CT
0.4 GC
2 setlinecap
1 LJ
0.833 LW
N
634 265.5 M
628.72 265.5 L
S
GR
GS
[0.6 0 0 0.6 0 0] CT
0.4 GC
2 setlinecap
1 LJ
0.833 LW
N
634 225.2 M
628.72 225.2 L
S
GR
GS
[0.6 0 0 0.6 0 0] CT
0.4 GC
2 setlinecap
1 LJ
0.833 LW
N
634 184.9 M
628.72 184.9 L
S
GR
GS
[0.6 0 0 0.6 0 0] CT
0.4 GC
2 setlinecap
1 LJ
0.833 LW
N
634 144.6 M
628.72 144.6 L
S
GR
GS
[0.6 0 0 0.6 0 0] CT
0.4 GC
2 setlinecap
1 LJ
0.833 LW
N
634 104.3 M
628.72 104.3 L
S
GR
GS
[0.6 0 0 0.6 0 0] CT
0.4 GC
2 setlinecap
1 LJ
0.833 LW
N
634 64 M
628.72 64 L
S
GR
GS
[0.6 0 0 0.6 59.6 280.2] CT
0.4 GC
/Helvetica 16.667 F
GS
[1 0 0 1 0 0] CT
-25 6.5 moveto 
1 -1 scale
(-90) t 
GR
GR
GS
[0.6 0 0 0.6 59.6 256.02001] CT
0.4 GC
/Helvetica 16.667 F
GS
[1 0 0 1 0 0] CT
-25 6.5 moveto 
1 -1 scale
(-80) t 
GR
GR
GS
[0.6 0 0 0.6 59.6 231.84] CT
0.4 GC
/Helvetica 16.667 F
GS
[1 0 0 1 0 0] CT
-25 6.5 moveto 
1 -1 scale
(-70) t 
GR
GR
GS
[0.6 0 0 0.6 59.6 207.66] CT
0.4 GC
/Helvetica 16.667 F
GS
[1 0 0 1 0 0] CT
-25 6.5 moveto 
1 -1 scale
(-60) t 
GR
GR
GS
[0.6 0 0 0.6 59.6 183.47999] CT
0.4 GC
/Helvetica 16.667 F
GS
[1 0 0 1 0 0] CT
-25 6.5 moveto 
1 -1 scale
(-50) t 
GR
GR
GS
[0.6 0 0 0.6 59.6 159.3] CT
0.4 GC
/Helvetica 16.667 F
GS
[1 0 0 1 0 0] CT
-25 6.5 moveto 
1 -1 scale
(-40) t 
GR
GR
GS
[0.6 0 0 0.6 59.6 135.12] CT
0.4 GC
/Helvetica 16.667 F
GS
[1 0 0 1 0 0] CT
-25 6.5 moveto 
1 -1 scale
(-30) t 
GR
GR
GS
[0.6 0 0 0.6 59.6 110.94001] CT
0.4 GC
/Helvetica 16.667 F
GS
[1 0 0 1 0 0] CT
-25 6.5 moveto 
1 -1 scale
(-20) t 
GR
GR
GS
[0.6 0 0 0.6 59.6 86.75999] CT
0.4 GC
/Helvetica 16.667 F
GS
[1 0 0 1 0 0] CT
-25 6.5 moveto 
1 -1 scale
(-10) t 
GR
GR
GS
[0.6 0 0 0.6 59.6 62.58001] CT
0.4 GC
/Helvetica 16.667 F
GS
[1 0 0 1 0 0] CT
-10 6.5 moveto 
1 -1 scale
(0) t 
GR
GR
GS
[0.6 0 0 0.6 59.6 38.4] CT
0.4 GC
/Helvetica 16.667 F
GS
[1 0 0 1 0 0] CT
-19 6.5 moveto 
1 -1 scale
(10) t 
GR
GR
GS
[0 -0.6 0.6 0 41.6 159.29989] CT
/Helvetica 18.333 F
GS
[1 0 0 1 0 0] CT
-63 -5 moveto 
1 -1 scale
(Magnitude \(dB\)) t 
GR
GR
GS
[0.6 0 0 0.6 0 0] CT
0 0.447 0.741 RC
1 LJ
0.833 LW
N
106 444.228 M
111.333 444.227 L
116.667 444.226 L
122 444.224 L
127.333 444.222 L
132.667 444.219 L
138 444.214 L
143.333 444.208 L
148.667 444.198 L
154 444.184 L
159.333 444.164 L
164.667 444.135 L
170 444.092 L
175.333 444.031 L
180.667 443.942 L
186 443.815 L
191.333 443.631 L
196.667 443.368 L
202 442.993 L
207.333 442.463 L
212.667 441.721 L
218 440.698 L
223.333 439.313 L
228.667 437.48 L
234 435.121 L
239.333 432.181 L
244.667 428.639 L
250 424.513 L
255.333 419.858 L
260.667 414.751 L
266 409.277 L
271.333 403.519 L
276.667 397.545 L
282 391.414 L
287.333 385.169 L
292.667 378.843 L
298 372.46 L
303.333 366.037 L
308.667 359.586 L
314 353.116 L
319.333 346.633 L
324.667 340.141 L
330 333.642 L
335.333 327.138 L
340.667 320.632 L
346 314.123 L
351.333 307.614 L
356.667 301.103 L
362 294.591 L
367.333 288.079 L
372.667 281.567 L
378 275.054 L
383.333 268.542 L
388.667 262.029 L
394 255.516 L
399.333 249.004 L
404.667 242.491 L
410 235.979 L
415.333 229.467 L
420.667 222.956 L
426 216.445 L
431.333 209.936 L
436.667 203.429 L
442 196.924 L
447.333 190.423 L
452.667 183.927 L
458 177.439 L
463.333 170.963 L
468.667 164.502 L
474 158.066 L
479.333 151.663 L
484.667 145.308 L
490 139.023 L
495.333 132.835 L
500.667 126.783 L
506 120.919 L
511.333 115.305 L
516.667 110.021 L
522 105.15 L
527.333 100.774 L
532.667 96.961 L
538 93.747 L
543.333 91.128 L
548.667 89.065 L
554 87.486 L
559.333 86.308 L
564.667 85.448 L
570 84.829 L
575.333 84.389 L
580.667 84.08 L
586 83.863 L
591.333 83.713 L
596.667 83.608 L
602 83.535 L
607.333 83.485 L
612.667 83.45 L
618 83.426 L
623.333 83.41 L
628.667 83.399 L
634 83.391 L
S
GR
GS
[0.6 0 0 0.6 221.1 33.225] CT
/Helvetica-Bold 18.333 F
GS
[1 0 0 1 0 0] CT
-190 -5 moveto 
1 -1 scale
(Inverse of Performance Weighting Function) t 
GR
GR
GS
[0.6 0 0 0.6 221.1 299.30001] CT
/Helvetica 18.333 F
GS
[1 0 0 1 0 0] CT
-75 19 moveto 
1 -1 scale
(Frequency  \(rad/s\)) t 
GR
GR
%%Trailer
%%Pages: 1
%%EOF
