%!PS-Adobe-3.0 EPSF-3.0
%%Creator: (MATLAB, The Mathworks, Inc. Version 9.5.0.1033004 \(R2018b\) Update 2. Operating System: Windows 10)
%%Title: C:/Users/super/Desktop/column/report/img/weight_noise.eps
%%CreationDate: 2019-02-21T16:25:13
%%Pages: (atend)
%%BoundingBox: 0 0 420 315
%%LanguageLevel: 3
%%EndComments
%%BeginProlog
%%BeginResource: procset (Apache XML Graphics Std ProcSet) 1.2 0
%%Version: 1.2 0
%%Copyright: (Copyright 2001-2003,2010 The Apache Software Foundation. License terms: http://www.apache.org/licenses/LICENSE-2.0)
/bd{bind def}bind def
/ld{load def}bd
/GR/grestore ld
/GS/gsave ld
/RM/rmoveto ld
/C/curveto ld
/t/show ld
/L/lineto ld
/ML/setmiterlimit ld
/CT/concat ld
/f/fill ld
/N/newpath ld
/S/stroke ld
/CC/setcmykcolor ld
/A/ashow ld
/cp/closepath ld
/RC/setrgbcolor ld
/LJ/setlinejoin ld
/GC/setgray ld
/LW/setlinewidth ld
/M/moveto ld
/re {4 2 roll M
1 index 0 rlineto
0 exch rlineto
neg 0 rlineto
cp } bd
/_ctm matrix def
/_tm matrix def
/BT { _ctm currentmatrix pop matrix _tm copy pop 0 0 moveto } bd
/ET { _ctm setmatrix } bd
/iTm { _ctm setmatrix _tm concat } bd
/Tm { _tm astore pop iTm 0 0 moveto } bd
/ux 0.0 def
/uy 0.0 def
/F {
  /Tp exch def
  /Tf exch def
  Tf findfont Tp scalefont setfont
  /cf Tf def  /cs Tp def
} bd
/ULS {currentpoint /uy exch def /ux exch def} bd
/ULE {
  /Tcx currentpoint pop def
  gsave
  newpath
  cf findfont cs scalefont dup
  /FontMatrix get 0 get /Ts exch def /FontInfo get dup
  /UnderlinePosition get Ts mul /To exch def
  /UnderlineThickness get Ts mul /Tt exch def
  ux uy To add moveto  Tcx uy To add lineto
  Tt setlinewidth stroke
  grestore
} bd
/OLE {
  /Tcx currentpoint pop def
  gsave
  newpath
  cf findfont cs scalefont dup
  /FontMatrix get 0 get /Ts exch def /FontInfo get dup
  /UnderlinePosition get Ts mul /To exch def
  /UnderlineThickness get Ts mul /Tt exch def
  ux uy To add cs add moveto Tcx uy To add cs add lineto
  Tt setlinewidth stroke
  grestore
} bd
/SOE {
  /Tcx currentpoint pop def
  gsave
  newpath
  cf findfont cs scalefont dup
  /FontMatrix get 0 get /Ts exch def /FontInfo get dup
  /UnderlinePosition get Ts mul /To exch def
  /UnderlineThickness get Ts mul /Tt exch def
  ux uy To add cs 10 mul 26 idiv add moveto Tcx uy To add cs 10 mul 26 idiv add lineto
  Tt setlinewidth stroke
  grestore
} bd
/QT {
/Y22 exch store
/X22 exch store
/Y21 exch store
/X21 exch store
currentpoint
/Y21 load 2 mul add 3 div exch
/X21 load 2 mul add 3 div exch
/X21 load 2 mul /X22 load add 3 div
/Y21 load 2 mul /Y22 load add 3 div
/X22 load /Y22 load curveto
} bd
/SSPD {
dup length /d exch dict def
{
/v exch def
/k exch def
currentpagedevice k known {
/cpdv currentpagedevice k get def
v cpdv ne {
/upd false def
/nullv v type /nulltype eq def
/nullcpdv cpdv type /nulltype eq def
nullv nullcpdv or
{
/upd true def
} {
/sametype v type cpdv type eq def
sametype {
v type /arraytype eq {
/vlen v length def
/cpdvlen cpdv length def
vlen cpdvlen eq {
0 1 vlen 1 sub {
/i exch def
/obj v i get def
/cpdobj cpdv i get def
obj cpdobj ne {
/upd true def
exit
} if
} for
} {
/upd true def
} ifelse
} {
v type /dicttype eq {
v {
/dv exch def
/dk exch def
/cpddv cpdv dk get def
dv cpddv ne {
/upd true def
exit
} if
} forall
} {
/upd true def
} ifelse
} ifelse
} if
} ifelse
upd true eq {
d k v put
} if
} if
} if
} forall
d length 0 gt {
d setpagedevice
} if
} bd
/RE { % /NewFontName [NewEncodingArray] /FontName RE -
  findfont dup length dict begin
  {
    1 index /FID ne
    {def} {pop pop} ifelse
  } forall
  /Encoding exch def
  /FontName 1 index def
  currentdict definefont pop
  end
} bind def
%%EndResource
%%BeginResource: procset (Apache XML Graphics EPS ProcSet) 1.0 0
%%Version: 1.0 0
%%Copyright: (Copyright 2002-2003 The Apache Software Foundation. License terms: http://www.apache.org/licenses/LICENSE-2.0)
/BeginEPSF { %def
/b4_Inc_state save def         % Save state for cleanup
/dict_count countdictstack def % Count objects on dict stack
/op_count count 1 sub def      % Count objects on operand stack
userdict begin                 % Push userdict on dict stack
/showpage { } def              % Redefine showpage, { } = null proc
0 setgray 0 setlinecap         % Prepare graphics state
1 setlinewidth 0 setlinejoin
10 setmiterlimit [ ] 0 setdash newpath
/languagelevel where           % If level not equal to 1 then
{pop languagelevel             % set strokeadjust and
1 ne                           % overprint to their defaults.
{false setstrokeadjust false setoverprint
} if
} if
} bd
/EndEPSF { %def
count op_count sub {pop} repeat            % Clean up stacks
countdictstack dict_count sub {end} repeat
b4_Inc_state restore
} bd
%%EndResource
%FOPBeginFontDict
%%IncludeResource: font Courier-Oblique
%%IncludeResource: font Courier-BoldOblique
%%IncludeResource: font Courier-Bold
%%IncludeResource: font ZapfDingbats
%%IncludeResource: font Symbol
%%IncludeResource: font Helvetica
%%IncludeResource: font Helvetica-Oblique
%%IncludeResource: font Helvetica-Bold
%%IncludeResource: font Helvetica-BoldOblique
%%IncludeResource: font Times-Roman
%%IncludeResource: font Times-Italic
%%IncludeResource: font Times-Bold
%%IncludeResource: font Times-BoldItalic
%%IncludeResource: font Courier
%FOPEndFontDict
%%BeginResource: encoding WinAnsiEncoding
/WinAnsiEncoding [
/.notdef /.notdef /.notdef /.notdef /.notdef
/.notdef /.notdef /.notdef /.notdef /.notdef
/.notdef /.notdef /.notdef /.notdef /.notdef
/.notdef /.notdef /.notdef /.notdef /.notdef
/.notdef /.notdef /.notdef /.notdef /.notdef
/.notdef /.notdef /.notdef /.notdef /.notdef
/.notdef /.notdef /space /exclam /quotedbl
/numbersign /dollar /percent /ampersand /quotesingle
/parenleft /parenright /asterisk /plus /comma
/hyphen /period /slash /zero /one
/two /three /four /five /six
/seven /eight /nine /colon /semicolon
/less /equal /greater /question /at
/A /B /C /D /E
/F /G /H /I /J
/K /L /M /N /O
/P /Q /R /S /T
/U /V /W /X /Y
/Z /bracketleft /backslash /bracketright /asciicircum
/underscore /quoteleft /a /b /c
/d /e /f /g /h
/i /j /k /l /m
/n /o /p /q /r
/s /t /u /v /w
/x /y /z /braceleft /bar
/braceright /asciitilde /bullet /Euro /bullet
/quotesinglbase /florin /quotedblbase /ellipsis /dagger
/daggerdbl /circumflex /perthousand /Scaron /guilsinglleft
/OE /bullet /Zcaron /bullet /bullet
/quoteleft /quoteright /quotedblleft /quotedblright /bullet
/endash /emdash /asciitilde /trademark /scaron
/guilsinglright /oe /bullet /zcaron /Ydieresis
/space /exclamdown /cent /sterling /currency
/yen /brokenbar /section /dieresis /copyright
/ordfeminine /guillemotleft /logicalnot /sfthyphen /registered
/macron /degree /plusminus /twosuperior /threesuperior
/acute /mu /paragraph /middot /cedilla
/onesuperior /ordmasculine /guillemotright /onequarter /onehalf
/threequarters /questiondown /Agrave /Aacute /Acircumflex
/Atilde /Adieresis /Aring /AE /Ccedilla
/Egrave /Eacute /Ecircumflex /Edieresis /Igrave
/Iacute /Icircumflex /Idieresis /Eth /Ntilde
/Ograve /Oacute /Ocircumflex /Otilde /Odieresis
/multiply /Oslash /Ugrave /Uacute /Ucircumflex
/Udieresis /Yacute /Thorn /germandbls /agrave
/aacute /acircumflex /atilde /adieresis /aring
/ae /ccedilla /egrave /eacute /ecircumflex
/edieresis /igrave /iacute /icircumflex /idieresis
/eth /ntilde /ograve /oacute /ocircumflex
/otilde /odieresis /divide /oslash /ugrave
/uacute /ucircumflex /udieresis /yacute /thorn
/ydieresis
] def
%%EndResource
%FOPBeginFontReencode
/Courier-Oblique findfont
dup length dict begin
  {1 index /FID ne {def} {pop pop} ifelse} forall
  /Encoding WinAnsiEncoding def
  currentdict
end
/Courier-Oblique exch definefont pop
/Courier-BoldOblique findfont
dup length dict begin
  {1 index /FID ne {def} {pop pop} ifelse} forall
  /Encoding WinAnsiEncoding def
  currentdict
end
/Courier-BoldOblique exch definefont pop
/Courier-Bold findfont
dup length dict begin
  {1 index /FID ne {def} {pop pop} ifelse} forall
  /Encoding WinAnsiEncoding def
  currentdict
end
/Courier-Bold exch definefont pop
/Helvetica findfont
dup length dict begin
  {1 index /FID ne {def} {pop pop} ifelse} forall
  /Encoding WinAnsiEncoding def
  currentdict
end
/Helvetica exch definefont pop
/Helvetica-Oblique findfont
dup length dict begin
  {1 index /FID ne {def} {pop pop} ifelse} forall
  /Encoding WinAnsiEncoding def
  currentdict
end
/Helvetica-Oblique exch definefont pop
/Helvetica-Bold findfont
dup length dict begin
  {1 index /FID ne {def} {pop pop} ifelse} forall
  /Encoding WinAnsiEncoding def
  currentdict
end
/Helvetica-Bold exch definefont pop
/Helvetica-BoldOblique findfont
dup length dict begin
  {1 index /FID ne {def} {pop pop} ifelse} forall
  /Encoding WinAnsiEncoding def
  currentdict
end
/Helvetica-BoldOblique exch definefont pop
/Times-Roman findfont
dup length dict begin
  {1 index /FID ne {def} {pop pop} ifelse} forall
  /Encoding WinAnsiEncoding def
  currentdict
end
/Times-Roman exch definefont pop
/Times-Italic findfont
dup length dict begin
  {1 index /FID ne {def} {pop pop} ifelse} forall
  /Encoding WinAnsiEncoding def
  currentdict
end
/Times-Italic exch definefont pop
/Times-Bold findfont
dup length dict begin
  {1 index /FID ne {def} {pop pop} ifelse} forall
  /Encoding WinAnsiEncoding def
  currentdict
end
/Times-Bold exch definefont pop
/Times-BoldItalic findfont
dup length dict begin
  {1 index /FID ne {def} {pop pop} ifelse} forall
  /Encoding WinAnsiEncoding def
  currentdict
end
/Times-BoldItalic exch definefont pop
/Courier findfont
dup length dict begin
  {1 index /FID ne {def} {pop pop} ifelse} forall
  /Encoding WinAnsiEncoding def
  currentdict
end
/Courier exch definefont pop
%FOPEndFontReencode
%%EndProlog
%%Page: 1 1
%%PageBoundingBox: 0 0 420 315
%%BeginPageSetup
[1 0 0 -1 0 315] CT
%%EndPageSetup
GS
[0.6 0 0 0.6 0 0] CT
1 GC
N
0 0 700 525 re
f
GR
GS
[0.6 0 0 0.6 0 0] CT
1 GC
N
0 0 700 525 re
f
GR
GS
[0.6 0 0 0.6 0 0] CT
1 GC
N
106 467 M
634 467 L
634 64 L
106 64 L
cp
f
GR
GS
[0.6 0 0 0.6 0 0] CT
0.849 GC
[1 3] 0 setdash
2 LJ
0.833 LW
N
132.491 467 M
132.491 64 L
S
GR
GS
[0.6 0 0 0.6 0 0] CT
0.849 GC
[1 3] 0 setdash
2 LJ
0.833 LW
N
147.987 467 M
147.987 64 L
S
GR
GS
[0.6 0 0 0.6 0 0] CT
0.849 GC
[1 3] 0 setdash
2 LJ
0.833 LW
N
158.981 467 M
158.981 64 L
S
GR
GS
[0.6 0 0 0.6 0 0] CT
0.849 GC
[1 3] 0 setdash
2 LJ
0.833 LW
N
167.509 467 M
167.509 64 L
S
GR
GS
[0.6 0 0 0.6 0 0] CT
0.849 GC
[1 3] 0 setdash
2 LJ
0.833 LW
N
174.477 467 M
174.477 64 L
S
GR
GS
[0.6 0 0 0.6 0 0] CT
0.849 GC
[1 3] 0 setdash
2 LJ
0.833 LW
N
180.369 467 M
180.369 64 L
S
GR
GS
[0.6 0 0 0.6 0 0] CT
0.849 GC
[1 3] 0 setdash
2 LJ
0.833 LW
N
185.472 467 M
185.472 64 L
S
GR
GS
[0.6 0 0 0.6 0 0] CT
0.849 GC
[1 3] 0 setdash
2 LJ
0.833 LW
N
189.973 467 M
189.973 64 L
S
GR
GS
[0.6 0 0 0.6 0 0] CT
0.849 GC
[1 3] 0 setdash
2 LJ
0.833 LW
N
220.491 467 M
220.491 64 L
S
GR
GS
[0.6 0 0 0.6 0 0] CT
0.849 GC
[1 3] 0 setdash
2 LJ
0.833 LW
N
235.987 467 M
235.987 64 L
S
GR
GS
[0.6 0 0 0.6 0 0] CT
0.849 GC
[1 3] 0 setdash
2 LJ
0.833 LW
N
246.981 467 M
246.981 64 L
S
GR
GS
[0.6 0 0 0.6 0 0] CT
0.849 GC
[1 3] 0 setdash
2 LJ
0.833 LW
N
255.509 467 M
255.509 64 L
S
GR
GS
[0.6 0 0 0.6 0 0] CT
0.849 GC
[1 3] 0 setdash
2 LJ
0.833 LW
N
262.477 467 M
262.477 64 L
S
GR
GS
[0.6 0 0 0.6 0 0] CT
0.849 GC
[1 3] 0 setdash
2 LJ
0.833 LW
N
268.369 467 M
268.369 64 L
S
GR
GS
[0.6 0 0 0.6 0 0] CT
0.849 GC
[1 3] 0 setdash
2 LJ
0.833 LW
N
273.472 467 M
273.472 64 L
S
GR
GS
[0.6 0 0 0.6 0 0] CT
0.849 GC
[1 3] 0 setdash
2 LJ
0.833 LW
N
277.973 467 M
277.973 64 L
S
GR
GS
[0.6 0 0 0.6 0 0] CT
0.849 GC
[1 3] 0 setdash
2 LJ
0.833 LW
N
308.491 467 M
308.491 64 L
S
GR
GS
[0.6 0 0 0.6 0 0] CT
0.849 GC
[1 3] 0 setdash
2 LJ
0.833 LW
N
323.987 467 M
323.987 64 L
S
GR
GS
[0.6 0 0 0.6 0 0] CT
0.849 GC
[1 3] 0 setdash
2 LJ
0.833 LW
N
334.981 467 M
334.981 64 L
S
GR
GS
[0.6 0 0 0.6 0 0] CT
0.849 GC
[1 3] 0 setdash
2 LJ
0.833 LW
N
343.509 467 M
343.509 64 L
S
GR
GS
[0.6 0 0 0.6 0 0] CT
0.849 GC
[1 3] 0 setdash
2 LJ
0.833 LW
N
350.477 467 M
350.477 64 L
S
GR
GS
[0.6 0 0 0.6 0 0] CT
0.849 GC
[1 3] 0 setdash
2 LJ
0.833 LW
N
356.369 467 M
356.369 64 L
S
GR
GS
[0.6 0 0 0.6 0 0] CT
0.849 GC
[1 3] 0 setdash
2 LJ
0.833 LW
N
361.472 467 M
361.472 64 L
S
GR
GS
[0.6 0 0 0.6 0 0] CT
0.849 GC
[1 3] 0 setdash
2 LJ
0.833 LW
N
365.973 467 M
365.973 64 L
S
GR
GS
[0.6 0 0 0.6 0 0] CT
0.849 GC
[1 3] 0 setdash
2 LJ
0.833 LW
N
396.491 467 M
396.491 64 L
S
GR
GS
[0.6 0 0 0.6 0 0] CT
0.849 GC
[1 3] 0 setdash
2 LJ
0.833 LW
N
411.987 467 M
411.987 64 L
S
GR
GS
[0.6 0 0 0.6 0 0] CT
0.849 GC
[1 3] 0 setdash
2 LJ
0.833 LW
N
422.981 467 M
422.981 64 L
S
GR
GS
[0.6 0 0 0.6 0 0] CT
0.849 GC
[1 3] 0 setdash
2 LJ
0.833 LW
N
431.509 467 M
431.509 64 L
S
GR
GS
[0.6 0 0 0.6 0 0] CT
0.849 GC
[1 3] 0 setdash
2 LJ
0.833 LW
N
438.477 467 M
438.477 64 L
S
GR
GS
[0.6 0 0 0.6 0 0] CT
0.849 GC
[1 3] 0 setdash
2 LJ
0.833 LW
N
444.369 467 M
444.369 64 L
S
GR
GS
[0.6 0 0 0.6 0 0] CT
0.849 GC
[1 3] 0 setdash
2 LJ
0.833 LW
N
449.472 467 M
449.472 64 L
S
GR
GS
[0.6 0 0 0.6 0 0] CT
0.849 GC
[1 3] 0 setdash
2 LJ
0.833 LW
N
453.973 467 M
453.973 64 L
S
GR
GS
[0.6 0 0 0.6 0 0] CT
0.849 GC
[1 3] 0 setdash
2 LJ
0.833 LW
N
484.491 467 M
484.491 64 L
S
GR
GS
[0.6 0 0 0.6 0 0] CT
0.849 GC
[1 3] 0 setdash
2 LJ
0.833 LW
N
499.987 467 M
499.987 64 L
S
GR
GS
[0.6 0 0 0.6 0 0] CT
0.849 GC
[1 3] 0 setdash
2 LJ
0.833 LW
N
510.981 467 M
510.981 64 L
S
GR
GS
[0.6 0 0 0.6 0 0] CT
0.849 GC
[1 3] 0 setdash
2 LJ
0.833 LW
N
519.509 467 M
519.509 64 L
S
GR
GS
[0.6 0 0 0.6 0 0] CT
0.849 GC
[1 3] 0 setdash
2 LJ
0.833 LW
N
526.477 467 M
526.477 64 L
S
GR
GS
[0.6 0 0 0.6 0 0] CT
0.849 GC
[1 3] 0 setdash
2 LJ
0.833 LW
N
532.369 467 M
532.369 64 L
S
GR
GS
[0.6 0 0 0.6 0 0] CT
0.849 GC
[1 3] 0 setdash
2 LJ
0.833 LW
N
537.472 467 M
537.472 64 L
S
GR
GS
[0.6 0 0 0.6 0 0] CT
0.849 GC
[1 3] 0 setdash
2 LJ
0.833 LW
N
541.973 467 M
541.973 64 L
S
GR
GS
[0.6 0 0 0.6 0 0] CT
0.849 GC
[1 3] 0 setdash
2 LJ
0.833 LW
N
572.491 467 M
572.491 64 L
S
GR
GS
[0.6 0 0 0.6 0 0] CT
0.849 GC
[1 3] 0 setdash
2 LJ
0.833 LW
N
587.987 467 M
587.987 64 L
S
GR
GS
[0.6 0 0 0.6 0 0] CT
0.849 GC
[1 3] 0 setdash
2 LJ
0.833 LW
N
598.981 467 M
598.981 64 L
S
GR
GS
[0.6 0 0 0.6 0 0] CT
0.849 GC
[1 3] 0 setdash
2 LJ
0.833 LW
N
607.509 467 M
607.509 64 L
S
GR
GS
[0.6 0 0 0.6 0 0] CT
0.849 GC
[1 3] 0 setdash
2 LJ
0.833 LW
N
614.477 467 M
614.477 64 L
S
GR
GS
[0.6 0 0 0.6 0 0] CT
0.849 GC
[1 3] 0 setdash
2 LJ
0.833 LW
N
620.369 467 M
620.369 64 L
S
GR
GS
[0.6 0 0 0.6 0 0] CT
0.849 GC
[1 3] 0 setdash
2 LJ
0.833 LW
N
625.472 467 M
625.472 64 L
S
GR
GS
[0.6 0 0 0.6 0 0] CT
0.849 GC
[1 3] 0 setdash
2 LJ
0.833 LW
N
629.973 467 M
629.973 64 L
S
GR
GS
[0.6 0 0 0.6 0 0] CT
0.873 GC
1 LJ
0.833 LW
N
106 467 M
106 64 L
S
GR
GS
[0.6 0 0 0.6 0 0] CT
0.873 GC
1 LJ
0.833 LW
N
194 467 M
194 64 L
S
GR
GS
[0.6 0 0 0.6 0 0] CT
0.873 GC
1 LJ
0.833 LW
N
282 467 M
282 64 L
S
GR
GS
[0.6 0 0 0.6 0 0] CT
0.873 GC
1 LJ
0.833 LW
N
370 467 M
370 64 L
S
GR
GS
[0.6 0 0 0.6 0 0] CT
0.873 GC
1 LJ
0.833 LW
N
458 467 M
458 64 L
S
GR
GS
[0.6 0 0 0.6 0 0] CT
0.873 GC
1 LJ
0.833 LW
N
546 467 M
546 64 L
S
GR
GS
[0.6 0 0 0.6 0 0] CT
0.873 GC
1 LJ
0.833 LW
N
634 467 M
634 64 L
S
GR
GS
[0.6 0 0 0.6 0 0] CT
0.873 GC
1 LJ
0.833 LW
N
634 467 M
106 467 L
S
GR
GS
[0.6 0 0 0.6 0 0] CT
0.873 GC
1 LJ
0.833 LW
N
634 422.222 M
106 422.222 L
S
GR
GS
[0.6 0 0 0.6 0 0] CT
0.873 GC
1 LJ
0.833 LW
N
634 377.444 M
106 377.444 L
S
GR
GS
[0.6 0 0 0.6 0 0] CT
0.873 GC
1 LJ
0.833 LW
N
634 332.667 M
106 332.667 L
S
GR
GS
[0.6 0 0 0.6 0 0] CT
0.873 GC
1 LJ
0.833 LW
N
634 287.889 M
106 287.889 L
S
GR
GS
[0.6 0 0 0.6 0 0] CT
0.873 GC
1 LJ
0.833 LW
N
634 243.111 M
106 243.111 L
S
GR
GS
[0.6 0 0 0.6 0 0] CT
0.873 GC
1 LJ
0.833 LW
N
634 198.333 M
106 198.333 L
S
GR
GS
[0.6 0 0 0.6 0 0] CT
0.873 GC
1 LJ
0.833 LW
N
634 153.556 M
106 153.556 L
S
GR
GS
[0.6 0 0 0.6 0 0] CT
0.873 GC
1 LJ
0.833 LW
N
634 108.778 M
106 108.778 L
S
GR
GS
[0.6 0 0 0.6 0 0] CT
0.873 GC
1 LJ
0.833 LW
N
634 64 M
106 64 L
S
GR
GS
[0.6 0 0 0.6 0 0] CT
0.4 GC
2 setlinecap
1 LJ
0.833 LW
N
106 467 M
634 467 L
S
GR
GS
[0.6 0 0 0.6 0 0] CT
0.4 GC
2 setlinecap
1 LJ
0.833 LW
N
106 64 M
634 64 L
S
GR
GS
[0.6 0 0 0.6 0 0] CT
0.4 GC
2 setlinecap
1 LJ
0.833 LW
N
106 467 M
106 461.72 L
S
GR
GS
[0.6 0 0 0.6 0 0] CT
0.4 GC
2 setlinecap
1 LJ
0.833 LW
N
194 467 M
194 461.72 L
S
GR
GS
[0.6 0 0 0.6 0 0] CT
0.4 GC
2 setlinecap
1 LJ
0.833 LW
N
282 467 M
282 461.72 L
S
GR
GS
[0.6 0 0 0.6 0 0] CT
0.4 GC
2 setlinecap
1 LJ
0.833 LW
N
370 467 M
370 461.72 L
S
GR
GS
[0.6 0 0 0.6 0 0] CT
0.4 GC
2 setlinecap
1 LJ
0.833 LW
N
458 467 M
458 461.72 L
S
GR
GS
[0.6 0 0 0.6 0 0] CT
0.4 GC
2 setlinecap
1 LJ
0.833 LW
N
546 467 M
546 461.72 L
S
GR
GS
[0.6 0 0 0.6 0 0] CT
0.4 GC
2 setlinecap
1 LJ
0.833 LW
N
634 467 M
634 461.72 L
S
GR
GS
[0.6 0 0 0.6 0 0] CT
0.4 GC
2 setlinecap
1 LJ
0.833 LW
N
106 64 M
106 69.28 L
S
GR
GS
[0.6 0 0 0.6 0 0] CT
0.4 GC
2 setlinecap
1 LJ
0.833 LW
N
194 64 M
194 69.28 L
S
GR
GS
[0.6 0 0 0.6 0 0] CT
0.4 GC
2 setlinecap
1 LJ
0.833 LW
N
282 64 M
282 69.28 L
S
GR
GS
[0.6 0 0 0.6 0 0] CT
0.4 GC
2 setlinecap
1 LJ
0.833 LW
N
370 64 M
370 69.28 L
S
GR
GS
[0.6 0 0 0.6 0 0] CT
0.4 GC
2 setlinecap
1 LJ
0.833 LW
N
458 64 M
458 69.28 L
S
GR
GS
[0.6 0 0 0.6 0 0] CT
0.4 GC
2 setlinecap
1 LJ
0.833 LW
N
546 64 M
546 69.28 L
S
GR
GS
[0.6 0 0 0.6 0 0] CT
0.4 GC
2 setlinecap
1 LJ
0.833 LW
N
634 64 M
634 69.28 L
S
GR
GS
[0.6 0 0 0.6 0 0] CT
0.4 GC
2 setlinecap
1 LJ
0.833 LW
N
106 467 M
106 464.36 L
S
GR
GS
[0.6 0 0 0.6 0 0] CT
0.4 GC
2 setlinecap
1 LJ
0.833 LW
N
132.491 467 M
132.491 464.36 L
S
GR
GS
[0.6 0 0 0.6 0 0] CT
0.4 GC
2 setlinecap
1 LJ
0.833 LW
N
147.987 467 M
147.987 464.36 L
S
GR
GS
[0.6 0 0 0.6 0 0] CT
0.4 GC
2 setlinecap
1 LJ
0.833 LW
N
158.981 467 M
158.981 464.36 L
S
GR
GS
[0.6 0 0 0.6 0 0] CT
0.4 GC
2 setlinecap
1 LJ
0.833 LW
N
167.509 467 M
167.509 464.36 L
S
GR
GS
[0.6 0 0 0.6 0 0] CT
0.4 GC
2 setlinecap
1 LJ
0.833 LW
N
174.477 467 M
174.477 464.36 L
S
GR
GS
[0.6 0 0 0.6 0 0] CT
0.4 GC
2 setlinecap
1 LJ
0.833 LW
N
180.369 467 M
180.369 464.36 L
S
GR
GS
[0.6 0 0 0.6 0 0] CT
0.4 GC
2 setlinecap
1 LJ
0.833 LW
N
185.472 467 M
185.472 464.36 L
S
GR
GS
[0.6 0 0 0.6 0 0] CT
0.4 GC
2 setlinecap
1 LJ
0.833 LW
N
189.973 467 M
189.973 464.36 L
S
GR
GS
[0.6 0 0 0.6 0 0] CT
0.4 GC
2 setlinecap
1 LJ
0.833 LW
N
194 467 M
194 464.36 L
S
GR
GS
[0.6 0 0 0.6 0 0] CT
0.4 GC
2 setlinecap
1 LJ
0.833 LW
N
220.491 467 M
220.491 464.36 L
S
GR
GS
[0.6 0 0 0.6 0 0] CT
0.4 GC
2 setlinecap
1 LJ
0.833 LW
N
235.987 467 M
235.987 464.36 L
S
GR
GS
[0.6 0 0 0.6 0 0] CT
0.4 GC
2 setlinecap
1 LJ
0.833 LW
N
246.981 467 M
246.981 464.36 L
S
GR
GS
[0.6 0 0 0.6 0 0] CT
0.4 GC
2 setlinecap
1 LJ
0.833 LW
N
255.509 467 M
255.509 464.36 L
S
GR
GS
[0.6 0 0 0.6 0 0] CT
0.4 GC
2 setlinecap
1 LJ
0.833 LW
N
262.477 467 M
262.477 464.36 L
S
GR
GS
[0.6 0 0 0.6 0 0] CT
0.4 GC
2 setlinecap
1 LJ
0.833 LW
N
268.369 467 M
268.369 464.36 L
S
GR
GS
[0.6 0 0 0.6 0 0] CT
0.4 GC
2 setlinecap
1 LJ
0.833 LW
N
273.472 467 M
273.472 464.36 L
S
GR
GS
[0.6 0 0 0.6 0 0] CT
0.4 GC
2 setlinecap
1 LJ
0.833 LW
N
277.973 467 M
277.973 464.36 L
S
GR
GS
[0.6 0 0 0.6 0 0] CT
0.4 GC
2 setlinecap
1 LJ
0.833 LW
N
282 467 M
282 464.36 L
S
GR
GS
[0.6 0 0 0.6 0 0] CT
0.4 GC
2 setlinecap
1 LJ
0.833 LW
N
308.491 467 M
308.491 464.36 L
S
GR
GS
[0.6 0 0 0.6 0 0] CT
0.4 GC
2 setlinecap
1 LJ
0.833 LW
N
323.987 467 M
323.987 464.36 L
S
GR
GS
[0.6 0 0 0.6 0 0] CT
0.4 GC
2 setlinecap
1 LJ
0.833 LW
N
334.981 467 M
334.981 464.36 L
S
GR
GS
[0.6 0 0 0.6 0 0] CT
0.4 GC
2 setlinecap
1 LJ
0.833 LW
N
343.509 467 M
343.509 464.36 L
S
GR
GS
[0.6 0 0 0.6 0 0] CT
0.4 GC
2 setlinecap
1 LJ
0.833 LW
N
350.477 467 M
350.477 464.36 L
S
GR
GS
[0.6 0 0 0.6 0 0] CT
0.4 GC
2 setlinecap
1 LJ
0.833 LW
N
356.369 467 M
356.369 464.36 L
S
GR
GS
[0.6 0 0 0.6 0 0] CT
0.4 GC
2 setlinecap
1 LJ
0.833 LW
N
361.472 467 M
361.472 464.36 L
S
GR
GS
[0.6 0 0 0.6 0 0] CT
0.4 GC
2 setlinecap
1 LJ
0.833 LW
N
365.973 467 M
365.973 464.36 L
S
GR
GS
[0.6 0 0 0.6 0 0] CT
0.4 GC
2 setlinecap
1 LJ
0.833 LW
N
370 467 M
370 464.36 L
S
GR
GS
[0.6 0 0 0.6 0 0] CT
0.4 GC
2 setlinecap
1 LJ
0.833 LW
N
396.491 467 M
396.491 464.36 L
S
GR
GS
[0.6 0 0 0.6 0 0] CT
0.4 GC
2 setlinecap
1 LJ
0.833 LW
N
411.987 467 M
411.987 464.36 L
S
GR
GS
[0.6 0 0 0.6 0 0] CT
0.4 GC
2 setlinecap
1 LJ
0.833 LW
N
422.981 467 M
422.981 464.36 L
S
GR
GS
[0.6 0 0 0.6 0 0] CT
0.4 GC
2 setlinecap
1 LJ
0.833 LW
N
431.509 467 M
431.509 464.36 L
S
GR
GS
[0.6 0 0 0.6 0 0] CT
0.4 GC
2 setlinecap
1 LJ
0.833 LW
N
438.477 467 M
438.477 464.36 L
S
GR
GS
[0.6 0 0 0.6 0 0] CT
0.4 GC
2 setlinecap
1 LJ
0.833 LW
N
444.369 467 M
444.369 464.36 L
S
GR
GS
[0.6 0 0 0.6 0 0] CT
0.4 GC
2 setlinecap
1 LJ
0.833 LW
N
449.472 467 M
449.472 464.36 L
S
GR
GS
[0.6 0 0 0.6 0 0] CT
0.4 GC
2 setlinecap
1 LJ
0.833 LW
N
453.973 467 M
453.973 464.36 L
S
GR
GS
[0.6 0 0 0.6 0 0] CT
0.4 GC
2 setlinecap
1 LJ
0.833 LW
N
458 467 M
458 464.36 L
S
GR
GS
[0.6 0 0 0.6 0 0] CT
0.4 GC
2 setlinecap
1 LJ
0.833 LW
N
484.491 467 M
484.491 464.36 L
S
GR
GS
[0.6 0 0 0.6 0 0] CT
0.4 GC
2 setlinecap
1 LJ
0.833 LW
N
499.987 467 M
499.987 464.36 L
S
GR
GS
[0.6 0 0 0.6 0 0] CT
0.4 GC
2 setlinecap
1 LJ
0.833 LW
N
510.981 467 M
510.981 464.36 L
S
GR
GS
[0.6 0 0 0.6 0 0] CT
0.4 GC
2 setlinecap
1 LJ
0.833 LW
N
519.509 467 M
519.509 464.36 L
S
GR
GS
[0.6 0 0 0.6 0 0] CT
0.4 GC
2 setlinecap
1 LJ
0.833 LW
N
526.477 467 M
526.477 464.36 L
S
GR
GS
[0.6 0 0 0.6 0 0] CT
0.4 GC
2 setlinecap
1 LJ
0.833 LW
N
532.369 467 M
532.369 464.36 L
S
GR
GS
[0.6 0 0 0.6 0 0] CT
0.4 GC
2 setlinecap
1 LJ
0.833 LW
N
537.472 467 M
537.472 464.36 L
S
GR
GS
[0.6 0 0 0.6 0 0] CT
0.4 GC
2 setlinecap
1 LJ
0.833 LW
N
541.973 467 M
541.973 464.36 L
S
GR
GS
[0.6 0 0 0.6 0 0] CT
0.4 GC
2 setlinecap
1 LJ
0.833 LW
N
546 467 M
546 464.36 L
S
GR
GS
[0.6 0 0 0.6 0 0] CT
0.4 GC
2 setlinecap
1 LJ
0.833 LW
N
572.491 467 M
572.491 464.36 L
S
GR
GS
[0.6 0 0 0.6 0 0] CT
0.4 GC
2 setlinecap
1 LJ
0.833 LW
N
587.987 467 M
587.987 464.36 L
S
GR
GS
[0.6 0 0 0.6 0 0] CT
0.4 GC
2 setlinecap
1 LJ
0.833 LW
N
598.981 467 M
598.981 464.36 L
S
GR
GS
[0.6 0 0 0.6 0 0] CT
0.4 GC
2 setlinecap
1 LJ
0.833 LW
N
607.509 467 M
607.509 464.36 L
S
GR
GS
[0.6 0 0 0.6 0 0] CT
0.4 GC
2 setlinecap
1 LJ
0.833 LW
N
614.477 467 M
614.477 464.36 L
S
GR
GS
[0.6 0 0 0.6 0 0] CT
0.4 GC
2 setlinecap
1 LJ
0.833 LW
N
620.369 467 M
620.369 464.36 L
S
GR
GS
[0.6 0 0 0.6 0 0] CT
0.4 GC
2 setlinecap
1 LJ
0.833 LW
N
625.472 467 M
625.472 464.36 L
S
GR
GS
[0.6 0 0 0.6 0 0] CT
0.4 GC
2 setlinecap
1 LJ
0.833 LW
N
629.973 467 M
629.973 464.36 L
S
GR
GS
[0.6 0 0 0.6 0 0] CT
0.4 GC
2 setlinecap
1 LJ
0.833 LW
N
634 467 M
634 464.36 L
S
GR
GS
[0.6 0 0 0.6 0 0] CT
0.4 GC
2 setlinecap
1 LJ
0.833 LW
N
106 64 M
106 66.64 L
S
GR
GS
[0.6 0 0 0.6 0 0] CT
0.4 GC
2 setlinecap
1 LJ
0.833 LW
N
132.491 64 M
132.491 66.64 L
S
GR
GS
[0.6 0 0 0.6 0 0] CT
0.4 GC
2 setlinecap
1 LJ
0.833 LW
N
147.987 64 M
147.987 66.64 L
S
GR
GS
[0.6 0 0 0.6 0 0] CT
0.4 GC
2 setlinecap
1 LJ
0.833 LW
N
158.981 64 M
158.981 66.64 L
S
GR
GS
[0.6 0 0 0.6 0 0] CT
0.4 GC
2 setlinecap
1 LJ
0.833 LW
N
167.509 64 M
167.509 66.64 L
S
GR
GS
[0.6 0 0 0.6 0 0] CT
0.4 GC
2 setlinecap
1 LJ
0.833 LW
N
174.477 64 M
174.477 66.64 L
S
GR
GS
[0.6 0 0 0.6 0 0] CT
0.4 GC
2 setlinecap
1 LJ
0.833 LW
N
180.369 64 M
180.369 66.64 L
S
GR
GS
[0.6 0 0 0.6 0 0] CT
0.4 GC
2 setlinecap
1 LJ
0.833 LW
N
185.472 64 M
185.472 66.64 L
S
GR
GS
[0.6 0 0 0.6 0 0] CT
0.4 GC
2 setlinecap
1 LJ
0.833 LW
N
189.973 64 M
189.973 66.64 L
S
GR
GS
[0.6 0 0 0.6 0 0] CT
0.4 GC
2 setlinecap
1 LJ
0.833 LW
N
194 64 M
194 66.64 L
S
GR
GS
[0.6 0 0 0.6 0 0] CT
0.4 GC
2 setlinecap
1 LJ
0.833 LW
N
220.491 64 M
220.491 66.64 L
S
GR
GS
[0.6 0 0 0.6 0 0] CT
0.4 GC
2 setlinecap
1 LJ
0.833 LW
N
235.987 64 M
235.987 66.64 L
S
GR
GS
[0.6 0 0 0.6 0 0] CT
0.4 GC
2 setlinecap
1 LJ
0.833 LW
N
246.981 64 M
246.981 66.64 L
S
GR
GS
[0.6 0 0 0.6 0 0] CT
0.4 GC
2 setlinecap
1 LJ
0.833 LW
N
255.509 64 M
255.509 66.64 L
S
GR
GS
[0.6 0 0 0.6 0 0] CT
0.4 GC
2 setlinecap
1 LJ
0.833 LW
N
262.477 64 M
262.477 66.64 L
S
GR
GS
[0.6 0 0 0.6 0 0] CT
0.4 GC
2 setlinecap
1 LJ
0.833 LW
N
268.369 64 M
268.369 66.64 L
S
GR
GS
[0.6 0 0 0.6 0 0] CT
0.4 GC
2 setlinecap
1 LJ
0.833 LW
N
273.472 64 M
273.472 66.64 L
S
GR
GS
[0.6 0 0 0.6 0 0] CT
0.4 GC
2 setlinecap
1 LJ
0.833 LW
N
277.973 64 M
277.973 66.64 L
S
GR
GS
[0.6 0 0 0.6 0 0] CT
0.4 GC
2 setlinecap
1 LJ
0.833 LW
N
282 64 M
282 66.64 L
S
GR
GS
[0.6 0 0 0.6 0 0] CT
0.4 GC
2 setlinecap
1 LJ
0.833 LW
N
308.491 64 M
308.491 66.64 L
S
GR
GS
[0.6 0 0 0.6 0 0] CT
0.4 GC
2 setlinecap
1 LJ
0.833 LW
N
323.987 64 M
323.987 66.64 L
S
GR
GS
[0.6 0 0 0.6 0 0] CT
0.4 GC
2 setlinecap
1 LJ
0.833 LW
N
334.981 64 M
334.981 66.64 L
S
GR
GS
[0.6 0 0 0.6 0 0] CT
0.4 GC
2 setlinecap
1 LJ
0.833 LW
N
343.509 64 M
343.509 66.64 L
S
GR
GS
[0.6 0 0 0.6 0 0] CT
0.4 GC
2 setlinecap
1 LJ
0.833 LW
N
350.477 64 M
350.477 66.64 L
S
GR
GS
[0.6 0 0 0.6 0 0] CT
0.4 GC
2 setlinecap
1 LJ
0.833 LW
N
356.369 64 M
356.369 66.64 L
S
GR
GS
[0.6 0 0 0.6 0 0] CT
0.4 GC
2 setlinecap
1 LJ
0.833 LW
N
361.472 64 M
361.472 66.64 L
S
GR
GS
[0.6 0 0 0.6 0 0] CT
0.4 GC
2 setlinecap
1 LJ
0.833 LW
N
365.973 64 M
365.973 66.64 L
S
GR
GS
[0.6 0 0 0.6 0 0] CT
0.4 GC
2 setlinecap
1 LJ
0.833 LW
N
370 64 M
370 66.64 L
S
GR
GS
[0.6 0 0 0.6 0 0] CT
0.4 GC
2 setlinecap
1 LJ
0.833 LW
N
396.491 64 M
396.491 66.64 L
S
GR
GS
[0.6 0 0 0.6 0 0] CT
0.4 GC
2 setlinecap
1 LJ
0.833 LW
N
411.987 64 M
411.987 66.64 L
S
GR
GS
[0.6 0 0 0.6 0 0] CT
0.4 GC
2 setlinecap
1 LJ
0.833 LW
N
422.981 64 M
422.981 66.64 L
S
GR
GS
[0.6 0 0 0.6 0 0] CT
0.4 GC
2 setlinecap
1 LJ
0.833 LW
N
431.509 64 M
431.509 66.64 L
S
GR
GS
[0.6 0 0 0.6 0 0] CT
0.4 GC
2 setlinecap
1 LJ
0.833 LW
N
438.477 64 M
438.477 66.64 L
S
GR
GS
[0.6 0 0 0.6 0 0] CT
0.4 GC
2 setlinecap
1 LJ
0.833 LW
N
444.369 64 M
444.369 66.64 L
S
GR
GS
[0.6 0 0 0.6 0 0] CT
0.4 GC
2 setlinecap
1 LJ
0.833 LW
N
449.472 64 M
449.472 66.64 L
S
GR
GS
[0.6 0 0 0.6 0 0] CT
0.4 GC
2 setlinecap
1 LJ
0.833 LW
N
453.973 64 M
453.973 66.64 L
S
GR
GS
[0.6 0 0 0.6 0 0] CT
0.4 GC
2 setlinecap
1 LJ
0.833 LW
N
458 64 M
458 66.64 L
S
GR
GS
[0.6 0 0 0.6 0 0] CT
0.4 GC
2 setlinecap
1 LJ
0.833 LW
N
484.491 64 M
484.491 66.64 L
S
GR
GS
[0.6 0 0 0.6 0 0] CT
0.4 GC
2 setlinecap
1 LJ
0.833 LW
N
499.987 64 M
499.987 66.64 L
S
GR
GS
[0.6 0 0 0.6 0 0] CT
0.4 GC
2 setlinecap
1 LJ
0.833 LW
N
510.981 64 M
510.981 66.64 L
S
GR
GS
[0.6 0 0 0.6 0 0] CT
0.4 GC
2 setlinecap
1 LJ
0.833 LW
N
519.509 64 M
519.509 66.64 L
S
GR
GS
[0.6 0 0 0.6 0 0] CT
0.4 GC
2 setlinecap
1 LJ
0.833 LW
N
526.477 64 M
526.477 66.64 L
S
GR
GS
[0.6 0 0 0.6 0 0] CT
0.4 GC
2 setlinecap
1 LJ
0.833 LW
N
532.369 64 M
532.369 66.64 L
S
GR
GS
[0.6 0 0 0.6 0 0] CT
0.4 GC
2 setlinecap
1 LJ
0.833 LW
N
537.472 64 M
537.472 66.64 L
S
GR
GS
[0.6 0 0 0.6 0 0] CT
0.4 GC
2 setlinecap
1 LJ
0.833 LW
N
541.973 64 M
541.973 66.64 L
S
GR
GS
[0.6 0 0 0.6 0 0] CT
0.4 GC
2 setlinecap
1 LJ
0.833 LW
N
546 64 M
546 66.64 L
S
GR
GS
[0.6 0 0 0.6 0 0] CT
0.4 GC
2 setlinecap
1 LJ
0.833 LW
N
572.491 64 M
572.491 66.64 L
S
GR
GS
[0.6 0 0 0.6 0 0] CT
0.4 GC
2 setlinecap
1 LJ
0.833 LW
N
587.987 64 M
587.987 66.64 L
S
GR
GS
[0.6 0 0 0.6 0 0] CT
0.4 GC
2 setlinecap
1 LJ
0.833 LW
N
598.981 64 M
598.981 66.64 L
S
GR
GS
[0.6 0 0 0.6 0 0] CT
0.4 GC
2 setlinecap
1 LJ
0.833 LW
N
607.509 64 M
607.509 66.64 L
S
GR
GS
[0.6 0 0 0.6 0 0] CT
0.4 GC
2 setlinecap
1 LJ
0.833 LW
N
614.477 64 M
614.477 66.64 L
S
GR
GS
[0.6 0 0 0.6 0 0] CT
0.4 GC
2 setlinecap
1 LJ
0.833 LW
N
620.369 64 M
620.369 66.64 L
S
GR
GS
[0.6 0 0 0.6 0 0] CT
0.4 GC
2 setlinecap
1 LJ
0.833 LW
N
625.472 64 M
625.472 66.64 L
S
GR
GS
[0.6 0 0 0.6 0 0] CT
0.4 GC
2 setlinecap
1 LJ
0.833 LW
N
629.973 64 M
629.973 66.64 L
S
GR
GS
[0.6 0 0 0.6 0 0] CT
0.4 GC
2 setlinecap
1 LJ
0.833 LW
N
634 64 M
634 66.64 L
S
GR
GS
[0.6 0 0 0.6 54 297.6] CT
0.4 GC
/Helvetica 16.667 F
GS
[1 0 0 1 0 0] CT
0 0 moveto 
1 -1 scale
(10) t 
GR
GR
GS
[0.6 0 0 0.6 65.4 292.8] CT
0.4 GC
/Helvetica 13.333 F
GS
[1 0 0 1 0 0] CT
0 0 moveto 
1 -1 scale
(-4) t 
GR
GR
GS
[0.6 0 0 0.6 106.8 297.6] CT
0.4 GC
/Helvetica 16.667 F
GS
[1 0 0 1 0 0] CT
0 0 moveto 
1 -1 scale
(10) t 
GR
GR
GS
[0.6 0 0 0.6 118.2 292.8] CT
0.4 GC
/Helvetica 13.333 F
GS
[1 0 0 1 0 0] CT
0 0 moveto 
1 -1 scale
(-3) t 
GR
GR
GS
[0.6 0 0 0.6 159.6 297.6] CT
0.4 GC
/Helvetica 16.667 F
GS
[1 0 0 1 0 0] CT
0 0 moveto 
1 -1 scale
(10) t 
GR
GR
GS
[0.6 0 0 0.6 171 292.8] CT
0.4 GC
/Helvetica 13.333 F
GS
[1 0 0 1 0 0] CT
0 0 moveto 
1 -1 scale
(-2) t 
GR
GR
GS
[0.6 0 0 0.6 212.4 297.6] CT
0.4 GC
/Helvetica 16.667 F
GS
[1 0 0 1 0 0] CT
0 0 moveto 
1 -1 scale
(10) t 
GR
GR
GS
[0.6 0 0 0.6 223.8 292.8] CT
0.4 GC
/Helvetica 13.333 F
GS
[1 0 0 1 0 0] CT
0 0 moveto 
1 -1 scale
(-1) t 
GR
GR
GS
[0.6 0 0 0.6 266.4 297.6] CT
0.4 GC
/Helvetica 16.667 F
GS
[1 0 0 1 0 0] CT
0 0 moveto 
1 -1 scale
(10) t 
GR
GR
GS
[0.6 0 0 0.6 277.8 292.8] CT
0.4 GC
/Helvetica 13.333 F
GS
[1 0 0 1 0 0] CT
0 0 moveto 
1 -1 scale
(0) t 
GR
GR
GS
[0.6 0 0 0.6 319.2 297.6] CT
0.4 GC
/Helvetica 16.667 F
GS
[1 0 0 1 0 0] CT
0 0 moveto 
1 -1 scale
(10) t 
GR
GR
GS
[0.6 0 0 0.6 330.6 292.8] CT
0.4 GC
/Helvetica 13.333 F
GS
[1 0 0 1 0 0] CT
0 0 moveto 
1 -1 scale
(1) t 
GR
GR
GS
[0.6 0 0 0.6 372 297.6] CT
0.4 GC
/Helvetica 16.667 F
GS
[1 0 0 1 0 0] CT
0 0 moveto 
1 -1 scale
(10) t 
GR
GR
GS
[0.6 0 0 0.6 383.4 292.8] CT
0.4 GC
/Helvetica 13.333 F
GS
[1 0 0 1 0 0] CT
0 0 moveto 
1 -1 scale
(2) t 
GR
GR
GS
[0.6 0 0 0.6 0 0] CT
0.4 GC
2 setlinecap
1 LJ
0.833 LW
N
106 467 M
106 64 L
S
GR
GS
[0.6 0 0 0.6 0 0] CT
0.4 GC
2 setlinecap
1 LJ
0.833 LW
N
634 467 M
634 64 L
S
GR
GS
[0.6 0 0 0.6 0 0] CT
0.4 GC
2 setlinecap
1 LJ
0.833 LW
N
106 467 M
111.28 467 L
S
GR
GS
[0.6 0 0 0.6 0 0] CT
0.4 GC
2 setlinecap
1 LJ
0.833 LW
N
106 422.222 M
111.28 422.222 L
S
GR
GS
[0.6 0 0 0.6 0 0] CT
0.4 GC
2 setlinecap
1 LJ
0.833 LW
N
106 377.444 M
111.28 377.444 L
S
GR
GS
[0.6 0 0 0.6 0 0] CT
0.4 GC
2 setlinecap
1 LJ
0.833 LW
N
106 332.667 M
111.28 332.667 L
S
GR
GS
[0.6 0 0 0.6 0 0] CT
0.4 GC
2 setlinecap
1 LJ
0.833 LW
N
106 287.889 M
111.28 287.889 L
S
GR
GS
[0.6 0 0 0.6 0 0] CT
0.4 GC
2 setlinecap
1 LJ
0.833 LW
N
106 243.111 M
111.28 243.111 L
S
GR
GS
[0.6 0 0 0.6 0 0] CT
0.4 GC
2 setlinecap
1 LJ
0.833 LW
N
106 198.333 M
111.28 198.333 L
S
GR
GS
[0.6 0 0 0.6 0 0] CT
0.4 GC
2 setlinecap
1 LJ
0.833 LW
N
106 153.556 M
111.28 153.556 L
S
GR
GS
[0.6 0 0 0.6 0 0] CT
0.4 GC
2 setlinecap
1 LJ
0.833 LW
N
106 108.778 M
111.28 108.778 L
S
GR
GS
[0.6 0 0 0.6 0 0] CT
0.4 GC
2 setlinecap
1 LJ
0.833 LW
N
106 64 M
111.28 64 L
S
GR
GS
[0.6 0 0 0.6 0 0] CT
0.4 GC
2 setlinecap
1 LJ
0.833 LW
N
634 467 M
628.72 467 L
S
GR
GS
[0.6 0 0 0.6 0 0] CT
0.4 GC
2 setlinecap
1 LJ
0.833 LW
N
634 422.222 M
628.72 422.222 L
S
GR
GS
[0.6 0 0 0.6 0 0] CT
0.4 GC
2 setlinecap
1 LJ
0.833 LW
N
634 377.444 M
628.72 377.444 L
S
GR
GS
[0.6 0 0 0.6 0 0] CT
0.4 GC
2 setlinecap
1 LJ
0.833 LW
N
634 332.667 M
628.72 332.667 L
S
GR
GS
[0.6 0 0 0.6 0 0] CT
0.4 GC
2 setlinecap
1 LJ
0.833 LW
N
634 287.889 M
628.72 287.889 L
S
GR
GS
[0.6 0 0 0.6 0 0] CT
0.4 GC
2 setlinecap
1 LJ
0.833 LW
N
634 243.111 M
628.72 243.111 L
S
GR
GS
[0.6 0 0 0.6 0 0] CT
0.4 GC
2 setlinecap
1 LJ
0.833 LW
N
634 198.333 M
628.72 198.333 L
S
GR
GS
[0.6 0 0 0.6 0 0] CT
0.4 GC
2 setlinecap
1 LJ
0.833 LW
N
634 153.556 M
628.72 153.556 L
S
GR
GS
[0.6 0 0 0.6 0 0] CT
0.4 GC
2 setlinecap
1 LJ
0.833 LW
N
634 108.778 M
628.72 108.778 L
S
GR
GS
[0.6 0 0 0.6 0 0] CT
0.4 GC
2 setlinecap
1 LJ
0.833 LW
N
634 64 M
628.72 64 L
S
GR
GS
[0.6 0 0 0.6 59.6 280.2] CT
0.4 GC
/Helvetica 16.667 F
GS
[1 0 0 1 0 0] CT
-34 6.5 moveto 
1 -1 scale
(-130) t 
GR
GR
GS
[0.6 0 0 0.6 59.6 253.33334] CT
0.4 GC
/Helvetica 16.667 F
GS
[1 0 0 1 0 0] CT
-34 6.5 moveto 
1 -1 scale
(-120) t 
GR
GR
GS
[0.6 0 0 0.6 59.6 226.46667] CT
0.4 GC
/Helvetica 16.667 F
GS
[1 0 0 1 0 0] CT
-34 6.5 moveto 
1 -1 scale
(-110) t 
GR
GR
GS
[0.6 0 0 0.6 59.6 199.59999] CT
0.4 GC
/Helvetica 16.667 F
GS
[1 0 0 1 0 0] CT
-34 6.5 moveto 
1 -1 scale
(-100) t 
GR
GR
GS
[0.6 0 0 0.6 59.6 172.73333] CT
0.4 GC
/Helvetica 16.667 F
GS
[1 0 0 1 0 0] CT
-25 6.5 moveto 
1 -1 scale
(-90) t 
GR
GR
GS
[0.6 0 0 0.6 59.6 145.86666] CT
0.4 GC
/Helvetica 16.667 F
GS
[1 0 0 1 0 0] CT
-25 6.5 moveto 
1 -1 scale
(-80) t 
GR
GR
GS
[0.6 0 0 0.6 59.6 119] CT
0.4 GC
/Helvetica 16.667 F
GS
[1 0 0 1 0 0] CT
-25 6.5 moveto 
1 -1 scale
(-70) t 
GR
GR
GS
[0.6 0 0 0.6 59.6 92.13333] CT
0.4 GC
/Helvetica 16.667 F
GS
[1 0 0 1 0 0] CT
-25 6.5 moveto 
1 -1 scale
(-60) t 
GR
GR
GS
[0.6 0 0 0.6 59.6 65.26667] CT
0.4 GC
/Helvetica 16.667 F
GS
[1 0 0 1 0 0] CT
-25 6.5 moveto 
1 -1 scale
(-50) t 
GR
GR
GS
[0.6 0 0 0.6 59.6 38.4] CT
0.4 GC
/Helvetica 16.667 F
GS
[1 0 0 1 0 0] CT
-25 6.5 moveto 
1 -1 scale
(-40) t 
GR
GR
GS
[0 -0.6 0.6 0 36.2 159.29989] CT
/Helvetica 18.333 F
GS
[1 0 0 1 0 0] CT
-63 -5 moveto 
1 -1 scale
(Magnitude \(dB\)) t 
GR
GR
GS
[0.6 0 0 0.6 0 0] CT
0 0.447 0.741 RC
1 LJ
0.833 LW
N
106 422.222 M
111.333 416.795 L
116.667 411.367 L
122 405.939 L
127.333 400.512 L
132.667 395.084 L
138 389.657 L
143.333 384.229 L
148.667 378.801 L
154 373.374 L
159.333 367.946 L
164.667 362.519 L
170 357.091 L
175.333 351.663 L
180.667 346.236 L
186 340.808 L
191.333 335.38 L
196.667 329.953 L
202 324.525 L
207.333 319.098 L
212.667 313.67 L
218 308.242 L
223.333 302.815 L
228.667 297.387 L
234 291.96 L
239.333 286.532 L
244.667 281.105 L
250 275.677 L
255.333 270.25 L
260.667 264.822 L
266 259.395 L
271.333 253.967 L
276.667 248.54 L
282 243.113 L
287.333 237.686 L
292.667 232.259 L
298 226.833 L
303.333 221.407 L
308.667 215.981 L
314 210.556 L
319.333 205.132 L
324.667 199.708 L
330 194.287 L
335.333 188.867 L
340.667 183.449 L
346 178.035 L
351.333 172.625 L
356.667 167.221 L
362 161.824 L
367.333 156.438 L
372.667 151.064 L
378 145.707 L
383.333 140.373 L
388.667 135.069 L
394 129.802 L
399.333 124.586 L
404.667 119.434 L
410 114.365 L
415.333 109.402 L
420.667 104.571 L
426 99.906 L
431.333 95.442 L
436.667 91.219 L
442 87.277 L
447.333 83.655 L
452.667 80.382 L
458 77.479 L
463.333 74.954 L
468.667 72.8 L
474 70.995 L
479.333 69.509 L
484.667 68.304 L
490 67.34 L
495.333 66.578 L
500.667 65.981 L
506 65.517 L
511.333 65.158 L
516.667 64.882 L
522 64.671 L
527.333 64.51 L
532.667 64.387 L
538 64.293 L
543.333 64.222 L
548.667 64.168 L
554 64.128 L
559.333 64.097 L
564.667 64.073 L
570 64.055 L
575.333 64.042 L
580.667 64.032 L
586 64.024 L
591.333 64.018 L
596.667 64.014 L
602 64.01 L
607.333 64.008 L
612.667 64.006 L
618 64.004 L
623.333 64.003 L
628.667 64.003 L
634 64.002 L
S
GR
GS
[0.6 0 0 0.6 221.1 33.225] CT
/Helvetica-Bold 18.333 F
GS
[1 0 0 1 0 0] CT
-92 -5 moveto 
1 -1 scale
(Sensor Noise Weight) t 
GR
GR
GS
[0.6 0 0 0.6 221.1 299.30001] CT
/Helvetica 18.333 F
GS
[1 0 0 1 0 0] CT
-75 19 moveto 
1 -1 scale
(Frequency  \(rad/s\)) t 
GR
GR
%%Trailer
%%Pages: 1
%%EOF
